2023-08-22 15:41:43,794 WARNING database DDL Query made to DB:
create table `tabPayment Reconciliation Allocation` (
			name varchar(140) primary key,
			creation datetime(6),
			modified datetime(6),
			modified_by varchar(140),
			owner varchar(140),
			docstatus int(1) not null default '0',
			idx int(8) not null default '0',
			`reference_type` varchar(140),
`reference_name` varchar(140),
`reference_row` varchar(140),
`invoice_type` varchar(140),
`invoice_number` varchar(140),
`allocated_amount` decimal(21,9) not null default 0,
`unreconciled_amount` decimal(21,9) not null default 0,
`amount` decimal(21,9) not null default 0,
`is_advance` varchar(140),
`difference_amount` decimal(21,9) not null default 0,
`difference_account` varchar(140),
`exchange_rate` decimal(21,9) not null default 0,
`currency` varchar(140),
parent varchar(140),
parentfield varchar(140),
parenttype varchar(140),
index parent(parent),

			index modified(modified))
			ENGINE=InnoDB
			ROW_FORMAT=DYNAMIC
			CHARACTER SET=utf8mb4
			COLLATE=utf8mb4_unicode_ci
2023-08-22 15:41:43,954 WARNING database DDL Query made to DB:
create table `tabPayment Ledger Entry` (
			name varchar(140) primary key,
			creation datetime(6),
			modified datetime(6),
			modified_by varchar(140),
			owner varchar(140),
			docstatus int(1) not null default '0',
			idx int(8) not null default '0',
			`posting_date` date,
`company` varchar(140),
`account_type` varchar(140),
`account` varchar(140),
`party_type` varchar(140),
`party` varchar(140),
`due_date` date,
`cost_center` varchar(140),
`finance_book` varchar(140),
`voucher_type` varchar(140),
`voucher_no` varchar(140),
`against_voucher_type` varchar(140),
`against_voucher_no` varchar(140),
`amount` decimal(21,9) not null default 0,
`account_currency` varchar(140),
`amount_in_account_currency` decimal(21,9) not null default 0,
`delinked` int(1) not null default 0,
`remarks` text,
`_user_tags` text,
`_comments` text,
`_assign` text,
`_liked_by` text,
index `company`(`company`),
index `account`(`account`),
index `party_type`(`party_type`),
index `party`(`party`),

			index modified(modified))
			ENGINE=InnoDB
			ROW_FORMAT=DYNAMIC
			CHARACTER SET=utf8mb4
			COLLATE=utf8mb4_unicode_ci
2023-08-22 15:41:44,093 WARNING database DDL Query made to DB:
ALTER TABLE `tabPayment Ledger Entry`
				ADD INDEX `against_voucher_no_against_voucher_type_index`(against_voucher_no, against_voucher_type)
2023-08-22 15:41:44,157 WARNING database DDL Query made to DB:
ALTER TABLE `tabPayment Ledger Entry`
				ADD INDEX `voucher_no_voucher_type_index`(voucher_no, voucher_type)
2023-08-22 15:41:44,235 WARNING database DDL Query made to DB:
create table `tabCash Flow Mapper` (
			name varchar(140) primary key,
			creation datetime(6),
			modified datetime(6),
			modified_by varchar(140),
			owner varchar(140),
			docstatus int(1) not null default '0',
			idx int(8) not null default '0',
			`section_name` varchar(140),
`section_header` varchar(140),
`section_leader` varchar(140),
`section_subtotal` varchar(140),
`section_footer` varchar(140),
`position` int(11) not null default 0,
`_user_tags` text,
`_comments` text,
`_assign` text,
`_liked_by` text,

			index modified(modified))
			ENGINE=InnoDB
			ROW_FORMAT=DYNAMIC
			CHARACTER SET=utf8mb4
			COLLATE=utf8mb4_unicode_ci
2023-08-22 15:41:44,415 WARNING database DDL Query made to DB:
create table `tabCost Center Allocation Percentage` (
			name varchar(140) primary key,
			creation datetime(6),
			modified datetime(6),
			modified_by varchar(140),
			owner varchar(140),
			docstatus int(1) not null default '0',
			idx int(8) not null default '0',
			`cost_center` varchar(140),
`percentage` decimal(21,9) not null default 0,
parent varchar(140),
parentfield varchar(140),
parenttype varchar(140),
index parent(parent),

			index modified(modified))
			ENGINE=InnoDB
			ROW_FORMAT=DYNAMIC
			CHARACTER SET=utf8mb4
			COLLATE=utf8mb4_unicode_ci
2023-08-22 15:41:44,672 WARNING database DDL Query made to DB:
create table `tabSales Taxes and Charges Template` (
			name varchar(140) primary key,
			creation datetime(6),
			modified datetime(6),
			modified_by varchar(140),
			owner varchar(140),
			docstatus int(1) not null default '0',
			idx int(8) not null default '0',
			`title` varchar(140),
`is_default` int(1) not null default 0,
`disabled` int(1) not null default 0,
`company` varchar(140),
`tax_category` varchar(140),
`_user_tags` text,
`_comments` text,
`_assign` text,
`_liked_by` text,

			index modified(modified))
			ENGINE=InnoDB
			ROW_FORMAT=DYNAMIC
			CHARACTER SET=utf8mb4
			COLLATE=utf8mb4_unicode_ci
2023-08-22 15:41:44,839 WARNING database DDL Query made to DB:
create table `tabProcess Payment Reconciliation` (
			name varchar(140) primary key,
			creation datetime(6),
			modified datetime(6),
			modified_by varchar(140),
			owner varchar(140),
			docstatus int(1) not null default '0',
			idx int(8) not null default '0',
			`company` varchar(140),
`party_type` varchar(140),
`party` varchar(140),
`receivable_payable_account` varchar(140),
`from_invoice_date` date,
`to_invoice_date` date,
`from_payment_date` date,
`to_payment_date` date,
`cost_center` varchar(140),
`bank_cash_account` varchar(140),
`status` varchar(140),
`error_log` longtext,
`amended_from` varchar(140),
`_user_tags` text,
`_comments` text,
`_assign` text,
`_liked_by` text,

			index modified(modified))
			ENGINE=InnoDB
			ROW_FORMAT=DYNAMIC
			CHARACTER SET=utf8mb4
			COLLATE=utf8mb4_unicode_ci
2023-08-22 15:41:44,971 WARNING database DDL Query made to DB:
create table `tabPayment Gateway Account` (
			name varchar(140) primary key,
			creation datetime(6),
			modified datetime(6),
			modified_by varchar(140),
			owner varchar(140),
			docstatus int(1) not null default '0',
			idx int(8) not null default '0',
			`payment_gateway` varchar(140),
`payment_channel` varchar(140) default 'Email',
`is_default` int(1) not null default 0,
`payment_account` varchar(140),
`currency` varchar(140),
`message` text default 'Please click on the link below to make your payment',
`_user_tags` text,
`_comments` text,
`_assign` text,
`_liked_by` text,

			index modified(modified))
			ENGINE=InnoDB
			ROW_FORMAT=DYNAMIC
			CHARACTER SET=utf8mb4
			COLLATE=utf8mb4_unicode_ci
2023-08-22 15:41:45,126 WARNING database DDL Query made to DB:
create table `tabBank Clearance Detail` (
			name varchar(140) primary key,
			creation datetime(6),
			modified datetime(6),
			modified_by varchar(140),
			owner varchar(140),
			docstatus int(1) not null default '0',
			idx int(8) not null default '0',
			`payment_document` varchar(140),
`payment_entry` varchar(140),
`against_account` varchar(140),
`amount` varchar(140),
`posting_date` date,
`cheque_number` varchar(140),
`cheque_date` date,
`clearance_date` date,
parent varchar(140),
parentfield varchar(140),
parenttype varchar(140),
index parent(parent),

			index modified(modified))
			ENGINE=InnoDB
			ROW_FORMAT=DYNAMIC
			CHARACTER SET=utf8mb4
			COLLATE=utf8mb4_unicode_ci
2023-08-22 15:41:45,254 WARNING database DDL Query made to DB:
create table `tabLedger Merge Accounts` (
			name varchar(140) primary key,
			creation datetime(6),
			modified datetime(6),
			modified_by varchar(140),
			owner varchar(140),
			docstatus int(1) not null default '0',
			idx int(8) not null default '0',
			`account` varchar(140),
`account_name` varchar(140),
`merged` int(1) not null default 0,
parent varchar(140),
parentfield varchar(140),
parenttype varchar(140),
index parent(parent),

			index modified(modified))
			ENGINE=InnoDB
			ROW_FORMAT=DYNAMIC
			CHARACTER SET=utf8mb4
			COLLATE=utf8mb4_unicode_ci
2023-08-22 15:41:45,367 WARNING database DDL Query made to DB:
create table `tabPeriod Closing Voucher` (
			name varchar(140) primary key,
			creation datetime(6),
			modified datetime(6),
			modified_by varchar(140),
			owner varchar(140),
			docstatus int(1) not null default '0',
			idx int(8) not null default '0',
			`transaction_date` date,
`posting_date` date,
`fiscal_year` varchar(140),
`amended_from` varchar(140),
`company` varchar(140),
`closing_account_head` varchar(140),
`remarks` text,
`gle_processing_status` varchar(140),
`error_message` text,
`_user_tags` text,
`_comments` text,
`_assign` text,
`_liked_by` text,

			index modified(modified))
			ENGINE=InnoDB
			ROW_FORMAT=DYNAMIC
			CHARACTER SET=utf8mb4
			COLLATE=utf8mb4_unicode_ci
2023-08-22 15:41:45,511 WARNING database DDL Query made to DB:
create table `tabPOS Opening Entry Detail` (
			name varchar(140) primary key,
			creation datetime(6),
			modified datetime(6),
			modified_by varchar(140),
			owner varchar(140),
			docstatus int(1) not null default '0',
			idx int(8) not null default '0',
			`mode_of_payment` varchar(140),
`opening_amount` decimal(21,9) not null default 0,
parent varchar(140),
parentfield varchar(140),
parenttype varchar(140),
index parent(parent),

			index modified(modified))
			ENGINE=InnoDB
			ROW_FORMAT=DYNAMIC
			CHARACTER SET=utf8mb4
			COLLATE=utf8mb4_unicode_ci
2023-08-22 15:41:45,651 WARNING database DDL Query made to DB:
create table `tabPayment Terms Template` (
			name varchar(140) primary key,
			creation datetime(6),
			modified datetime(6),
			modified_by varchar(140),
			owner varchar(140),
			docstatus int(1) not null default '0',
			idx int(8) not null default '0',
			`template_name` varchar(140) unique,
`allocate_payment_based_on_payment_terms` int(1) not null default 0,
`_user_tags` text,
`_comments` text,
`_assign` text,
`_liked_by` text,

			index modified(modified))
			ENGINE=InnoDB
			ROW_FORMAT=DYNAMIC
			CHARACTER SET=utf8mb4
			COLLATE=utf8mb4_unicode_ci
2023-08-22 15:41:45,819 WARNING database DDL Query made to DB:
create table `tabPOS Customer Group` (
			name varchar(140) primary key,
			creation datetime(6),
			modified datetime(6),
			modified_by varchar(140),
			owner varchar(140),
			docstatus int(1) not null default '0',
			idx int(8) not null default '0',
			`customer_group` varchar(140),
parent varchar(140),
parentfield varchar(140),
parenttype varchar(140),
index parent(parent),

			index modified(modified))
			ENGINE=InnoDB
			ROW_FORMAT=DYNAMIC
			CHARACTER SET=utf8mb4
			COLLATE=utf8mb4_unicode_ci
2023-08-22 15:41:45,958 WARNING database DDL Query made to DB:
create table `tabCash Flow Mapping` (
			name varchar(140) primary key,
			creation datetime(6),
			modified datetime(6),
			modified_by varchar(140),
			owner varchar(140),
			docstatus int(1) not null default '0',
			idx int(8) not null default '0',
			`mapping_name` varchar(140),
`label` varchar(140),
`is_finance_cost` int(1) not null default 0,
`is_working_capital` int(1) not null default 0,
`is_finance_cost_adjustment` int(1) not null default 0,
`is_income_tax_liability` int(1) not null default 0,
`is_income_tax_expense` int(1) not null default 0,
`_user_tags` text,
`_comments` text,
`_assign` text,
`_liked_by` text,

			index modified(modified))
			ENGINE=InnoDB
			ROW_FORMAT=DYNAMIC
			CHARACTER SET=utf8mb4
			COLLATE=utf8mb4_unicode_ci
2023-08-22 15:41:46,112 WARNING database DDL Query made to DB:
create table `tabPayment Schedule` (
			name varchar(140) primary key,
			creation datetime(6),
			modified datetime(6),
			modified_by varchar(140),
			owner varchar(140),
			docstatus int(1) not null default '0',
			idx int(8) not null default '0',
			`payment_term` varchar(140),
`description` text,
`due_date` date,
`mode_of_payment` varchar(140),
`invoice_portion` decimal(21,9) not null default 0,
`discount_type` varchar(140) default 'Percentage',
`discount_date` date,
`discount` decimal(21,9) not null default 0,
`payment_amount` decimal(21,9) not null default 0,
`outstanding` decimal(21,9) not null default 0,
`paid_amount` decimal(21,9) not null default 0,
`discounted_amount` decimal(21,9) not null default 0,
`base_payment_amount` decimal(21,9) not null default 0,
parent varchar(140),
parentfield varchar(140),
parenttype varchar(140),
index parent(parent),

			index modified(modified))
			ENGINE=InnoDB
			ROW_FORMAT=DYNAMIC
			CHARACTER SET=utf8mb4
			COLLATE=utf8mb4_unicode_ci
2023-08-22 15:41:46,269 WARNING database DDL Query made to DB:
create table `tabTax Withholding Account` (
			name varchar(140) primary key,
			creation datetime(6),
			modified datetime(6),
			modified_by varchar(140),
			owner varchar(140),
			docstatus int(1) not null default '0',
			idx int(8) not null default '0',
			`company` varchar(140),
`account` varchar(140),
parent varchar(140),
parentfield varchar(140),
parenttype varchar(140),
index parent(parent),

			index modified(modified))
			ENGINE=InnoDB
			ROW_FORMAT=DYNAMIC
			CHARACTER SET=utf8mb4
			COLLATE=utf8mb4_unicode_ci
2023-08-22 15:41:46,450 WARNING database DDL Query made to DB:
create table `tabCost Center` (
			name varchar(140) primary key,
			creation datetime(6),
			modified datetime(6),
			modified_by varchar(140),
			owner varchar(140),
			docstatus int(1) not null default '0',
			idx int(8) not null default '0',
			`cost_center_name` varchar(140),
`cost_center_number` varchar(140),
`parent_cost_center` varchar(140),
`company` varchar(140),
`is_group` int(1) not null default 0,
`disabled` int(1) not null default 0,
`lft` int(11) not null default 0,
`rgt` int(11) not null default 0,
`old_parent` varchar(140),
`_user_tags` text,
`_comments` text,
`_assign` text,
`_liked_by` text,
index `lft`(`lft`),
index `rgt`(`rgt`),

			index modified(modified))
			ENGINE=InnoDB
			ROW_FORMAT=DYNAMIC
			CHARACTER SET=utf8mb4
			COLLATE=utf8mb4_unicode_ci
2023-08-22 15:41:46,599 WARNING database DDL Query made to DB:
ALTER TABLE `tabCost Center`
				ADD INDEX `lft_rgt_index`(lft, rgt)
2023-08-22 15:41:46,731 WARNING database DDL Query made to DB:
create table `tabPOS Invoice Reference` (
			name varchar(140) primary key,
			creation datetime(6),
			modified datetime(6),
			modified_by varchar(140),
			owner varchar(140),
			docstatus int(1) not null default '0',
			idx int(8) not null default '0',
			`pos_invoice` varchar(140),
`posting_date` date,
`customer` varchar(140),
`grand_total` decimal(21,9) not null default 0,
`is_return` int(1) not null default 0,
`return_against` varchar(140),
parent varchar(140),
parentfield varchar(140),
parenttype varchar(140),
index parent(parent),

			index modified(modified))
			ENGINE=InnoDB
			ROW_FORMAT=DYNAMIC
			CHARACTER SET=utf8mb4
			COLLATE=utf8mb4_unicode_ci
2023-08-22 15:41:46,886 WARNING database DDL Query made to DB:
create table `tabExchange Rate Revaluation` (
			name varchar(140) primary key,
			creation datetime(6),
			modified datetime(6),
			modified_by varchar(140),
			owner varchar(140),
			docstatus int(1) not null default '0',
			idx int(8) not null default '0',
			`posting_date` date,
`rounding_loss_allowance` decimal(21,9) not null default 0.05,
`company` varchar(140),
`gain_loss_unbooked` decimal(21,9) not null default 0,
`gain_loss_booked` decimal(21,9) not null default 0,
`total_gain_loss` decimal(21,9) not null default 0,
`amended_from` varchar(140),
`_user_tags` text,
`_comments` text,
`_assign` text,
`_liked_by` text,

			index modified(modified))
			ENGINE=InnoDB
			ROW_FORMAT=DYNAMIC
			CHARACTER SET=utf8mb4
			COLLATE=utf8mb4_unicode_ci
2023-08-22 15:41:47,058 WARNING database DDL Query made to DB:
create table `tabPSOA Project` (
			name varchar(140) primary key,
			creation datetime(6),
			modified datetime(6),
			modified_by varchar(140),
			owner varchar(140),
			docstatus int(1) not null default '0',
			idx int(8) not null default '0',
			`project_name` varchar(140),
parent varchar(140),
parentfield varchar(140),
parenttype varchar(140),
index parent(parent),

			index modified(modified))
			ENGINE=InnoDB
			ROW_FORMAT=DYNAMIC
			CHARACTER SET=utf8mb4
			COLLATE=utf8mb4_unicode_ci
2023-08-22 15:41:47,210 WARNING database DDL Query made to DB:
create table `tabBank Transaction Mapping` (
			name varchar(140) primary key,
			creation datetime(6),
			modified datetime(6),
			modified_by varchar(140),
			owner varchar(140),
			docstatus int(1) not null default '0',
			idx int(8) not null default '0',
			`bank_transaction_field` varchar(140),
`file_field` varchar(140),
parent varchar(140),
parentfield varchar(140),
parenttype varchar(140),
index parent(parent),

			index modified(modified))
			ENGINE=InnoDB
			ROW_FORMAT=DYNAMIC
			CHARACTER SET=utf8mb4
			COLLATE=utf8mb4_unicode_ci
2023-08-22 15:41:47,378 WARNING database DDL Query made to DB:
create table `tabPromotional Scheme` (
			name varchar(140) primary key,
			creation datetime(6),
			modified datetime(6),
			modified_by varchar(140),
			owner varchar(140),
			docstatus int(1) not null default '0',
			idx int(8) not null default '0',
			`apply_on` varchar(140) default 'Item Code',
`disable` int(1) not null default 0,
`mixed_conditions` int(1) not null default 0,
`is_cumulative` int(1) not null default 0,
`apply_rule_on_other` varchar(140),
`other_item_code` varchar(140),
`other_item_group` varchar(140),
`other_brand` varchar(140),
`selling` int(1) not null default 0,
`buying` int(1) not null default 0,
`applicable_for` varchar(140),
`valid_from` date,
`valid_upto` date,
`company` varchar(140),
`currency` varchar(140),
`_user_tags` text,
`_comments` text,
`_assign` text,
`_liked_by` text,

			index modified(modified))
			ENGINE=InnoDB
			ROW_FORMAT=DYNAMIC
			CHARACTER SET=utf8mb4
			COLLATE=utf8mb4_unicode_ci
2023-08-22 15:41:47,614 WARNING database DDL Query made to DB:
create table `tabPricing Rule` (
			name varchar(140) primary key,
			creation datetime(6),
			modified datetime(6),
			modified_by varchar(140),
			owner varchar(140),
			docstatus int(1) not null default '0',
			idx int(8) not null default '0',
			`naming_series` varchar(140) default 'PRLE-.####',
`title` varchar(140),
`disable` int(1) not null default 0,
`apply_on` varchar(140) default 'Item Code',
`price_or_product_discount` varchar(140),
`warehouse` varchar(140),
`mixed_conditions` int(1) not null default 0,
`is_cumulative` int(1) not null default 0,
`coupon_code_based` int(1) not null default 0,
`apply_rule_on_other` varchar(140),
`other_item_code` varchar(140),
`other_item_group` varchar(140),
`other_brand` varchar(140),
`selling` int(1) not null default 0,
`buying` int(1) not null default 0,
`applicable_for` varchar(140),
`customer` varchar(140),
`customer_group` varchar(140),
`territory` varchar(140),
`sales_partner` varchar(140),
`campaign` varchar(140),
`supplier` varchar(140),
`supplier_group` varchar(140),
`min_qty` decimal(21,9) not null default 0,
`max_qty` decimal(21,9) not null default 0,
`min_amt` decimal(21,9) not null default 0,
`max_amt` decimal(21,9) not null default 0,
`same_item` int(1) not null default 0,
`free_item` varchar(140),
`free_qty` decimal(21,9) not null default 0,
`free_item_rate` decimal(21,9) not null default 0,
`free_item_uom` varchar(140),
`round_free_qty` int(1) not null default 0,
`is_recursive` int(1) not null default 0,
`recurse_for` decimal(21,9) not null default 0,
`apply_recursion_over` decimal(21,9) not null default 0,
`valid_from` date,
`valid_upto` date,
`company` varchar(140),
`currency` varchar(140),
`margin_type` varchar(140) default 'Percentage',
`margin_rate_or_amount` decimal(21,9) not null default 0,
`rate_or_discount` varchar(140) default 'Discount Percentage',
`apply_discount_on` varchar(140) default 'Grand Total',
`rate` decimal(21,9) not null default 0,
`discount_amount` decimal(21,9) not null default 0,
`discount_percentage` decimal(21,9) not null default 0,
`for_price_list` varchar(140),
`threshold_percentage` decimal(21,9) not null default 0,
`priority` varchar(140),
`condition` longtext,
`apply_multiple_pricing_rules` int(1) not null default 0,
`apply_discount_on_rate` int(1) not null default 0,
`validate_applied_rule` int(1) not null default 0,
`rule_description` text,
`promotional_scheme_id` varchar(140),
`promotional_scheme` varchar(140),
`_user_tags` text,
`_comments` text,
`_assign` text,
`_liked_by` text,
index `warehouse`(`warehouse`),

			index modified(modified))
			ENGINE=InnoDB
			ROW_FORMAT=DYNAMIC
			CHARACTER SET=utf8mb4
			COLLATE=utf8mb4_unicode_ci
2023-08-22 15:41:47,786 WARNING database DDL Query made to DB:
create table `tabItem Tax Template Detail` (
			name varchar(140) primary key,
			creation datetime(6),
			modified datetime(6),
			modified_by varchar(140),
			owner varchar(140),
			docstatus int(1) not null default '0',
			idx int(8) not null default '0',
			`tax_type` varchar(140),
`tax_rate` decimal(21,9) not null default 0,
parent varchar(140),
parentfield varchar(140),
parenttype varchar(140),
index parent(parent),

			index modified(modified))
			ENGINE=InnoDB
			ROW_FORMAT=DYNAMIC
			CHARACTER SET=utf8mb4
			COLLATE=utf8mb4_unicode_ci
2023-08-22 15:41:47,950 WARNING database DDL Query made to DB:
create table `tabProcess Payment Reconciliation Log` (
			name varchar(140) primary key,
			creation datetime(6),
			modified datetime(6),
			modified_by varchar(140),
			owner varchar(140),
			docstatus int(1) not null default '0',
			idx int(8) not null default '0',
			`process_pr` varchar(140),
`status` varchar(140),
`allocated` int(1) not null default 0,
`reconciled` int(1) not null default 0,
`total_allocations` int(11) not null default 0,
`reconciled_entries` int(11) not null default 0,
`error_log` longtext,
`_user_tags` text,
`_comments` text,
`_assign` text,
`_liked_by` text,

			index modified(modified))
			ENGINE=InnoDB
			ROW_FORMAT=DYNAMIC
			CHARACTER SET=utf8mb4
			COLLATE=utf8mb4_unicode_ci
2023-08-22 15:41:48,083 WARNING database DDL Query made to DB:
create table `tabAccounting Period` (
			name varchar(140) primary key,
			creation datetime(6),
			modified datetime(6),
			modified_by varchar(140),
			owner varchar(140),
			docstatus int(1) not null default '0',
			idx int(8) not null default '0',
			`period_name` varchar(140),
`start_date` date,
`end_date` date,
`company` varchar(140),
`_user_tags` text,
`_comments` text,
`_assign` text,
`_liked_by` text,

			index modified(modified))
			ENGINE=InnoDB
			ROW_FORMAT=DYNAMIC
			CHARACTER SET=utf8mb4
			COLLATE=utf8mb4_unicode_ci
2023-08-22 15:41:48,239 WARNING database DDL Query made to DB:
create table `tabPOS Closing Entry Taxes` (
			name varchar(140) primary key,
			creation datetime(6),
			modified datetime(6),
			modified_by varchar(140),
			owner varchar(140),
			docstatus int(1) not null default '0',
			idx int(8) not null default '0',
			`account_head` varchar(140),
`rate` decimal(21,9) not null default 0,
`amount` decimal(21,9) not null default 0,
parent varchar(140),
parentfield varchar(140),
parenttype varchar(140),
index parent(parent),

			index modified(modified))
			ENGINE=InnoDB
			ROW_FORMAT=DYNAMIC
			CHARACTER SET=utf8mb4
			COLLATE=utf8mb4_unicode_ci
2023-08-22 15:41:48,415 WARNING database DDL Query made to DB:
create table `tabLoyalty Program` (
			name varchar(140) primary key,
			creation datetime(6),
			modified datetime(6),
			modified_by varchar(140),
			owner varchar(140),
			docstatus int(1) not null default '0',
			idx int(8) not null default '0',
			`loyalty_program_name` varchar(140) unique,
`loyalty_program_type` varchar(140),
`from_date` date,
`to_date` date,
`customer_group` varchar(140),
`customer_territory` varchar(140),
`auto_opt_in` int(1) not null default 0,
`conversion_factor` decimal(21,9) not null default 0,
`expiry_duration` int(11) not null default 0,
`expense_account` varchar(140),
`company` varchar(140),
`cost_center` varchar(140),
`_user_tags` text,
`_comments` text,
`_assign` text,
`_liked_by` text,

			index modified(modified))
			ENGINE=InnoDB
			ROW_FORMAT=DYNAMIC
			CHARACTER SET=utf8mb4
			COLLATE=utf8mb4_unicode_ci
2023-08-22 15:41:48,565 WARNING database DDL Query made to DB:
create table `tabSales Partner Item` (
			name varchar(140) primary key,
			creation datetime(6),
			modified datetime(6),
			modified_by varchar(140),
			owner varchar(140),
			docstatus int(1) not null default '0',
			idx int(8) not null default '0',
			`sales_partner` varchar(140),
parent varchar(140),
parentfield varchar(140),
parenttype varchar(140),
index parent(parent),

			index modified(modified))
			ENGINE=InnoDB
			ROW_FORMAT=DYNAMIC
			CHARACTER SET=utf8mb4
			COLLATE=utf8mb4_unicode_ci
2023-08-22 15:41:48,715 WARNING database DDL Query made to DB:
create table `tabTax Withholding Rate` (
			name varchar(140) primary key,
			creation datetime(6),
			modified datetime(6),
			modified_by varchar(140),
			owner varchar(140),
			docstatus int(1) not null default '0',
			idx int(8) not null default '0',
			`from_date` date,
`to_date` date,
`tax_withholding_rate` decimal(21,9) not null default 0,
`single_threshold` decimal(21,9) not null default 0,
`cumulative_threshold` decimal(21,9) not null default 0,
parent varchar(140),
parentfield varchar(140),
parenttype varchar(140),
index parent(parent),

			index modified(modified))
			ENGINE=InnoDB
			ROW_FORMAT=DYNAMIC
			CHARACTER SET=utf8mb4
			COLLATE=utf8mb4_unicode_ci
2023-08-22 15:41:48,847 WARNING database DDL Query made to DB:
create table `tabSubscription Plan Detail` (
			name varchar(140) primary key,
			creation datetime(6),
			modified datetime(6),
			modified_by varchar(140),
			owner varchar(140),
			docstatus int(1) not null default '0',
			idx int(8) not null default '0',
			`plan` varchar(140),
`qty` int(11) not null default 0,
parent varchar(140),
parentfield varchar(140),
parenttype varchar(140),
index parent(parent),

			index modified(modified))
			ENGINE=InnoDB
			ROW_FORMAT=DYNAMIC
			CHARACTER SET=utf8mb4
			COLLATE=utf8mb4_unicode_ci
2023-08-22 15:41:49,086 WARNING database DDL Query made to DB:
create table `tabSales Invoice Timesheet` (
			name varchar(140) primary key,
			creation datetime(6),
			modified datetime(6),
			modified_by varchar(140),
			owner varchar(140),
			docstatus int(1) not null default '0',
			idx int(8) not null default '0',
			`activity_type` varchar(140),
`description` text,
`from_time` datetime(6),
`to_time` datetime(6),
`billing_hours` decimal(21,9) not null default 0,
`billing_amount` decimal(21,9) not null default 0,
`time_sheet` varchar(140),
`timesheet_detail` varchar(140),
`project_name` varchar(140),
parent varchar(140),
parentfield varchar(140),
parenttype varchar(140),
index parent(parent),

			index modified(modified))
			ENGINE=InnoDB
			ROW_FORMAT=DYNAMIC
			CHARACTER SET=utf8mb4
			COLLATE=utf8mb4_unicode_ci
2023-08-22 15:41:49,234 WARNING database DDL Query made to DB:
create table `tabLedger Merge` (
			name varchar(140) primary key,
			creation datetime(6),
			modified datetime(6),
			modified_by varchar(140),
			owner varchar(140),
			docstatus int(1) not null default '0',
			idx int(8) not null default '0',
			`root_type` varchar(140),
`account` varchar(140),
`account_name` varchar(140),
`company` varchar(140),
`status` varchar(140),
`is_group` int(1) not null default 0,
`_user_tags` text,
`_comments` text,
`_assign` text,
`_liked_by` text,

			index modified(modified))
			ENGINE=InnoDB
			ROW_FORMAT=DYNAMIC
			CHARACTER SET=utf8mb4
			COLLATE=utf8mb4_unicode_ci
2023-08-22 15:41:49,354 WARNING database DDL Query made to DB:
create table `tabFinance Book` (
			name varchar(140) primary key,
			creation datetime(6),
			modified datetime(6),
			modified_by varchar(140),
			owner varchar(140),
			docstatus int(1) not null default '0',
			idx int(8) not null default '0',
			`finance_book_name` varchar(140),
`_user_tags` text,
`_comments` text,
`_assign` text,
`_liked_by` text,
`_seen` text,

			index modified(modified))
			ENGINE=InnoDB
			ROW_FORMAT=DYNAMIC
			CHARACTER SET=utf8mb4
			COLLATE=utf8mb4_unicode_ci
2023-08-22 15:41:49,472 WARNING database DDL Query made to DB:
create table `tabShare Balance` (
			name varchar(140) primary key,
			creation datetime(6),
			modified datetime(6),
			modified_by varchar(140),
			owner varchar(140),
			docstatus int(1) not null default '0',
			idx int(8) not null default '0',
			`share_type` varchar(140),
`from_no` int(11) not null default 0,
`rate` int(11) not null default 0,
`no_of_shares` int(11) not null default 0,
`to_no` int(11) not null default 0,
`amount` int(11) not null default 0,
`is_company` int(1) not null default 0,
`current_state` varchar(140),
parent varchar(140),
parentfield varchar(140),
parenttype varchar(140),
index parent(parent),

			index modified(modified))
			ENGINE=InnoDB
			ROW_FORMAT=DYNAMIC
			CHARACTER SET=utf8mb4
			COLLATE=utf8mb4_unicode_ci
2023-08-22 15:41:49,647 WARNING database DDL Query made to DB:
create table `tabBank Account` (
			name varchar(140) primary key,
			creation datetime(6),
			modified datetime(6),
			modified_by varchar(140),
			owner varchar(140),
			docstatus int(1) not null default '0',
			idx int(8) not null default '0',
			`account_name` varchar(140),
`account` varchar(140),
`bank` varchar(140),
`account_type` varchar(140),
`account_subtype` varchar(140),
`is_default` int(1) not null default 0,
`is_company_account` int(1) not null default 0,
`company` varchar(140),
`party_type` varchar(140),
`party` varchar(140),
`iban` varchar(30),
`branch_code` varchar(140),
`bank_account_no` varchar(30),
`integration_id` varchar(140) unique,
`last_integration_date` date,
`mask` varchar(140),
`_user_tags` text,
`_comments` text,
`_assign` text,
`_liked_by` text,

			index modified(modified))
			ENGINE=InnoDB
			ROW_FORMAT=DYNAMIC
			CHARACTER SET=utf8mb4
			COLLATE=utf8mb4_unicode_ci
2023-08-22 15:41:49,795 WARNING database DDL Query made to DB:
create table `tabSouth Africa VAT Account` (
			name varchar(140) primary key,
			creation datetime(6),
			modified datetime(6),
			modified_by varchar(140),
			owner varchar(140),
			docstatus int(1) not null default '0',
			idx int(8) not null default '0',
			`account` varchar(140),
parent varchar(140),
parentfield varchar(140),
parenttype varchar(140),
index parent(parent),

			index modified(modified))
			ENGINE=InnoDB
			ROW_FORMAT=DYNAMIC
			CHARACTER SET=utf8mb4
			COLLATE=utf8mb4_unicode_ci
2023-08-22 15:41:49,901 WARNING database DDL Query made to DB:
create table `tabShipping Rule Condition` (
			name varchar(140) primary key,
			creation datetime(6),
			modified datetime(6),
			modified_by varchar(140),
			owner varchar(140),
			docstatus int(1) not null default '0',
			idx int(8) not null default '0',
			`from_value` decimal(21,9) not null default 0,
`to_value` decimal(21,9) not null default 0,
`shipping_amount` decimal(21,9) not null default 0,
parent varchar(140),
parentfield varchar(140),
parenttype varchar(140),
index parent(parent),

			index modified(modified))
			ENGINE=InnoDB
			ROW_FORMAT=DYNAMIC
			CHARACTER SET=utf8mb4
			COLLATE=utf8mb4_unicode_ci
2023-08-22 15:41:50,044 WARNING database DDL Query made to DB:
create table `tabBank Account Type` (
			name varchar(140) primary key,
			creation datetime(6),
			modified datetime(6),
			modified_by varchar(140),
			owner varchar(140),
			docstatus int(1) not null default '0',
			idx int(8) not null default '0',
			`account_type` varchar(140) unique,
`_user_tags` text,
`_comments` text,
`_assign` text,
`_liked_by` text,

			index modified(modified))
			ENGINE=InnoDB
			ROW_FORMAT=DYNAMIC
			CHARACTER SET=utf8mb4
			COLLATE=utf8mb4_unicode_ci
2023-08-22 15:41:51,936 WARNING database DDL Query made to DB:
create table `tabOpportunity Lost Reason` (
			name varchar(140) primary key,
			creation datetime(6),
			modified datetime(6),
			modified_by varchar(140),
			owner varchar(140),
			docstatus int(1) not null default '0',
			idx int(8) not null default '0',
			`lost_reason` varchar(140) unique,
`_user_tags` text,
`_comments` text,
`_assign` text,
`_liked_by` text,

			index modified(modified))
			ENGINE=InnoDB
			ROW_FORMAT=DYNAMIC
			CHARACTER SET=utf8mb4
			COLLATE=utf8mb4_unicode_ci
2023-08-22 15:41:52,091 WARNING database DDL Query made to DB:
create table `tabSocial Media Post` (
			name varchar(140) primary key,
			creation datetime(6),
			modified datetime(6),
			modified_by varchar(140),
			owner varchar(140),
			docstatus int(1) not null default '0',
			idx int(8) not null default '0',
			`title` varchar(140),
`campaign_name` varchar(140),
`scheduled_time` datetime(6),
`post_status` varchar(140),
`twitter` int(1) not null default 1,
`linkedin` int(1) not null default 1,
`twitter_post_id` varchar(140),
`linkedin_post_id` varchar(140),
`text` text,
`linkedin_post` text,
`image` text,
`amended_from` varchar(140),
`_user_tags` text,
`_comments` text,
`_assign` text,
`_liked_by` text,

			index modified(modified))
			ENGINE=InnoDB
			ROW_FORMAT=DYNAMIC
			CHARACTER SET=utf8mb4
			COLLATE=utf8mb4_unicode_ci
2023-08-22 15:41:52,267 WARNING database DDL Query made to DB:
create table `tabAppointment Booking Slots` (
			name varchar(140) primary key,
			creation datetime(6),
			modified datetime(6),
			modified_by varchar(140),
			owner varchar(140),
			docstatus int(1) not null default '0',
			idx int(8) not null default '0',
			`day_of_week` varchar(140),
`from_time` time(6),
`to_time` time(6),
parent varchar(140),
parentfield varchar(140),
parenttype varchar(140),
index parent(parent),

			index modified(modified))
			ENGINE=InnoDB
			ROW_FORMAT=DYNAMIC
			CHARACTER SET=utf8mb4
			COLLATE=utf8mb4_unicode_ci
2023-08-22 15:41:52,406 WARNING database DDL Query made to DB:
create table `tabContract Template Fulfilment Terms` (
			name varchar(140) primary key,
			creation datetime(6),
			modified datetime(6),
			modified_by varchar(140),
			owner varchar(140),
			docstatus int(1) not null default '0',
			idx int(8) not null default '0',
			`requirement` varchar(140),
parent varchar(140),
parentfield varchar(140),
parenttype varchar(140),
index parent(parent),

			index modified(modified))
			ENGINE=InnoDB
			ROW_FORMAT=DYNAMIC
			CHARACTER SET=utf8mb4
			COLLATE=utf8mb4_unicode_ci
2023-08-22 15:41:52,545 WARNING database DDL Query made to DB:
create table `tabLost Reason Detail` (
			name varchar(140) primary key,
			creation datetime(6),
			modified datetime(6),
			modified_by varchar(140),
			owner varchar(140),
			docstatus int(1) not null default '0',
			idx int(8) not null default '0',
			`lost_reason` varchar(140),
parent varchar(140),
parentfield varchar(140),
parenttype varchar(140),
index parent(parent),

			index modified(modified))
			ENGINE=InnoDB
			ROW_FORMAT=DYNAMIC
			CHARACTER SET=utf8mb4
			COLLATE=utf8mb4_unicode_ci
2023-08-22 15:41:52,737 WARNING database DDL Query made to DB:
create table `tabOpportunity Lost Reason Detail` (
			name varchar(140) primary key,
			creation datetime(6),
			modified datetime(6),
			modified_by varchar(140),
			owner varchar(140),
			docstatus int(1) not null default '0',
			idx int(8) not null default '0',
			`lost_reason` varchar(140),
parent varchar(140),
parentfield varchar(140),
parenttype varchar(140),
index parent(parent),

			index modified(modified))
			ENGINE=InnoDB
			ROW_FORMAT=DYNAMIC
			CHARACTER SET=utf8mb4
			COLLATE=utf8mb4_unicode_ci
2023-08-22 15:41:52,895 WARNING database DDL Query made to DB:
create table `tabMarket Segment` (
			name varchar(140) primary key,
			creation datetime(6),
			modified datetime(6),
			modified_by varchar(140),
			owner varchar(140),
			docstatus int(1) not null default '0',
			idx int(8) not null default '0',
			`market_segment` varchar(140) unique,
`_user_tags` text,
`_comments` text,
`_assign` text,
`_liked_by` text,

			index modified(modified))
			ENGINE=InnoDB
			ROW_FORMAT=DYNAMIC
			CHARACTER SET=utf8mb4
			COLLATE=utf8mb4_unicode_ci
2023-08-22 15:41:53,057 WARNING database DDL Query made to DB:
create table `tabAvailability Of Slots` (
			name varchar(140) primary key,
			creation datetime(6),
			modified datetime(6),
			modified_by varchar(140),
			owner varchar(140),
			docstatus int(1) not null default '0',
			idx int(8) not null default '0',
			`day_of_week` varchar(140),
`from_time` time(6),
`to_time` time(6),
parent varchar(140),
parentfield varchar(140),
parenttype varchar(140),
index parent(parent),

			index modified(modified))
			ENGINE=InnoDB
			ROW_FORMAT=DYNAMIC
			CHARACTER SET=utf8mb4
			COLLATE=utf8mb4_unicode_ci
2023-08-22 15:41:53,179 WARNING database DDL Query made to DB:
create table `tabLead Source` (
			name varchar(140) primary key,
			creation datetime(6),
			modified datetime(6),
			modified_by varchar(140),
			owner varchar(140),
			docstatus int(1) not null default '0',
			idx int(8) not null default '0',
			`source_name` varchar(140) unique,
`details` longtext,
`_user_tags` text,
`_comments` text,
`_assign` text,
`_liked_by` text,

			index modified(modified))
			ENGINE=InnoDB
			ROW_FORMAT=DYNAMIC
			CHARACTER SET=utf8mb4
			COLLATE=utf8mb4_unicode_ci
2023-08-22 15:41:53,295 WARNING database DDL Query made to DB:
create sequence if not exists crm_note_id_seq nocache nocycle
2023-08-22 15:41:53,356 WARNING database DDL Query made to DB:
create table `tabCRM Note` (
			name bigint primary key,
			creation datetime(6),
			modified datetime(6),
			modified_by varchar(140),
			owner varchar(140),
			docstatus int(1) not null default '0',
			idx int(8) not null default '0',
			`note` longtext,
`added_by` varchar(140),
`added_on` datetime(6),
parent varchar(140),
parentfield varchar(140),
parenttype varchar(140),
index parent(parent),

			index modified(modified))
			ENGINE=InnoDB
			ROW_FORMAT=DYNAMIC
			CHARACTER SET=utf8mb4
			COLLATE=utf8mb4_unicode_ci
2023-08-22 15:41:53,493 WARNING database DDL Query made to DB:
create table `tabSales Stage` (
			name varchar(140) primary key,
			creation datetime(6),
			modified datetime(6),
			modified_by varchar(140),
			owner varchar(140),
			docstatus int(1) not null default '0',
			idx int(8) not null default '0',
			`stage_name` varchar(140) unique,
`_user_tags` text,
`_comments` text,
`_assign` text,
`_liked_by` text,

			index modified(modified))
			ENGINE=InnoDB
			ROW_FORMAT=DYNAMIC
			CHARACTER SET=utf8mb4
			COLLATE=utf8mb4_unicode_ci
2023-08-22 15:41:53,655 WARNING database DDL Query made to DB:
create table `tabContract Fulfilment Checklist` (
			name varchar(140) primary key,
			creation datetime(6),
			modified datetime(6),
			modified_by varchar(140),
			owner varchar(140),
			docstatus int(1) not null default '0',
			idx int(8) not null default '0',
			`fulfilled` int(1) not null default 0,
`requirement` varchar(140),
`notes` text,
`amended_from` varchar(140),
parent varchar(140),
parentfield varchar(140),
parenttype varchar(140),
index parent(parent),

			index modified(modified))
			ENGINE=InnoDB
			ROW_FORMAT=DYNAMIC
			CHARACTER SET=utf8mb4
			COLLATE=utf8mb4_unicode_ci
2023-08-22 15:41:53,888 WARNING database DDL Query made to DB:
create table `tabCampaign Email Schedule` (
			name varchar(140) primary key,
			creation datetime(6),
			modified datetime(6),
			modified_by varchar(140),
			owner varchar(140),
			docstatus int(1) not null default '0',
			idx int(8) not null default '0',
			`email_template` varchar(140),
`send_after_days` int(11) not null default 0,
parent varchar(140),
parentfield varchar(140),
parenttype varchar(140),
index parent(parent),

			index modified(modified))
			ENGINE=InnoDB
			ROW_FORMAT=DYNAMIC
			CHARACTER SET=utf8mb4
			COLLATE=utf8mb4_unicode_ci
2023-08-22 15:41:54,113 WARNING database DDL Query made to DB:
create table `tabProspect Lead` (
			name varchar(140) primary key,
			creation datetime(6),
			modified datetime(6),
			modified_by varchar(140),
			owner varchar(140),
			docstatus int(1) not null default '0',
			idx int(8) not null default '0',
			`lead` varchar(140),
`lead_name` varchar(140),
`email` varchar(140),
`mobile_no` varchar(140),
`lead_owner` varchar(140),
`status` varchar(140),
parent varchar(140),
parentfield varchar(140),
parenttype varchar(140),
index parent(parent),

			index modified(modified))
			ENGINE=InnoDB
			ROW_FORMAT=DYNAMIC
			CHARACTER SET=utf8mb4
			COLLATE=utf8mb4_unicode_ci
2023-08-22 15:41:54,293 WARNING database DDL Query made to DB:
create table `tabProspect` (
			name varchar(140) primary key,
			creation datetime(6),
			modified datetime(6),
			modified_by varchar(140),
			owner varchar(140),
			docstatus int(1) not null default '0',
			idx int(8) not null default '0',
			`company_name` varchar(140) unique,
`customer_group` varchar(140),
`no_of_employees` varchar(140),
`annual_revenue` decimal(21,9) not null default 0,
`market_segment` varchar(140),
`industry` varchar(140),
`territory` varchar(140),
`prospect_owner` varchar(140),
`website` varchar(140),
`fax` varchar(140),
`company` varchar(140),
`_user_tags` text,
`_comments` text,
`_assign` text,
`_liked_by` text,

			index modified(modified))
			ENGINE=InnoDB
			ROW_FORMAT=DYNAMIC
			CHARACTER SET=utf8mb4
			COLLATE=utf8mb4_unicode_ci
2023-08-22 15:41:54,462 WARNING database DDL Query made to DB:
create table `tabAppointment` (
			name varchar(140) primary key,
			creation datetime(6),
			modified datetime(6),
			modified_by varchar(140),
			owner varchar(140),
			docstatus int(1) not null default '0',
			idx int(8) not null default '0',
			`scheduled_time` datetime(6),
`status` varchar(140),
`customer_name` varchar(140),
`customer_phone_number` varchar(140),
`customer_skype` varchar(140),
`customer_email` varchar(140),
`customer_details` longtext,
`appointment_with` varchar(140),
`party` varchar(140),
`calendar_event` varchar(140),
`_user_tags` text,
`_comments` text,
`_assign` text,
`_liked_by` text,

			index modified(modified))
			ENGINE=InnoDB
			ROW_FORMAT=DYNAMIC
			CHARACTER SET=utf8mb4
			COLLATE=utf8mb4_unicode_ci
2023-08-22 15:41:54,633 WARNING database DDL Query made to DB:
create table `tabContract` (
			name varchar(140) primary key,
			creation datetime(6),
			modified datetime(6),
			modified_by varchar(140),
			owner varchar(140),
			docstatus int(1) not null default '0',
			idx int(8) not null default '0',
			`party_type` varchar(140) default 'Customer',
`is_signed` int(1) not null default 0,
`party_name` varchar(140),
`party_user` varchar(140),
`status` varchar(140),
`fulfilment_status` varchar(140),
`start_date` date,
`end_date` date,
`signee` varchar(140),
`signed_on` datetime(6),
`ip_address` varchar(140),
`contract_template` varchar(140),
`contract_terms` longtext,
`requires_fulfilment` int(1) not null default 0,
`fulfilment_deadline` date,
`signee_company` longtext,
`signed_by_company` varchar(140),
`document_type` varchar(140),
`document_name` varchar(140),
`amended_from` varchar(140),
`_user_tags` text,
`_comments` text,
`_assign` text,
`_liked_by` text,
`_seen` text,

			index modified(modified))
			ENGINE=InnoDB
			ROW_FORMAT=DYNAMIC
			CHARACTER SET=utf8mb4
			COLLATE=utf8mb4_unicode_ci
2023-08-22 15:41:54,855 WARNING database DDL Query made to DB:
create table `tabOpportunity` (
			name varchar(140) primary key,
			creation datetime(6),
			modified datetime(6),
			modified_by varchar(140),
			owner varchar(140),
			docstatus int(1) not null default '0',
			idx int(8) not null default '0',
			`naming_series` varchar(140),
`opportunity_from` varchar(140),
`party_name` varchar(140),
`customer_name` varchar(140),
`status` varchar(140) default 'Open',
`opportunity_type` varchar(140) default 'Sales',
`source` varchar(140),
`opportunity_owner` varchar(140),
`sales_stage` varchar(140) default 'Prospecting',
`expected_closing` date,
`probability` decimal(21,9) not null default 100.0,
`no_of_employees` varchar(140),
`annual_revenue` decimal(21,9) not null default 0,
`customer_group` varchar(140),
`industry` varchar(140),
`market_segment` varchar(140),
`website` varchar(140),
`city` varchar(140),
`state` varchar(140),
`country` varchar(140),
`territory` varchar(140),
`currency` varchar(140),
`conversion_rate` decimal(21,9) not null default 0,
`opportunity_amount` decimal(21,9) not null default 0,
`base_opportunity_amount` decimal(21,9) not null default 0,
`company` varchar(140),
`campaign` varchar(140),
`transaction_date` date,
`language` varchar(140),
`amended_from` varchar(140),
`title` varchar(140),
`first_response_time` decimal(21,9),
`order_lost_reason` text,
`contact_person` varchar(140),
`job_title` varchar(140),
`contact_email` varchar(140),
`contact_mobile` varchar(140),
`whatsapp` varchar(140),
`phone` varchar(140),
`phone_ext` varchar(140),
`customer_address` varchar(140),
`address_display` text,
`contact_display` text,
`base_total` decimal(21,9) not null default 0,
`total` decimal(21,9) not null default 0,
`_user_tags` text,
`_comments` text,
`_assign` text,
`_liked_by` text,
`_seen` text,
index `customer_group`(`customer_group`),
index `territory`(`territory`),
index `company`(`company`),

			index modified(modified))
			ENGINE=InnoDB
			ROW_FORMAT=DYNAMIC
			CHARACTER SET=utf8mb4
			COLLATE=utf8mb4_unicode_ci
2023-08-22 15:41:54,977 WARNING database DDL Query made to DB:
create sequence if not exists prospect_opportunity_id_seq nocache nocycle
2023-08-22 15:41:55,030 WARNING database DDL Query made to DB:
create table `tabProspect Opportunity` (
			name bigint primary key,
			creation datetime(6),
			modified datetime(6),
			modified_by varchar(140),
			owner varchar(140),
			docstatus int(1) not null default '0',
			idx int(8) not null default '0',
			`opportunity` varchar(140),
`amount` decimal(21,9) not null default 0,
`stage` varchar(140),
`deal_owner` varchar(140),
`probability` decimal(21,9) not null default 0,
`expected_closing` date,
`currency` varchar(140),
`contact_person` varchar(140),
parent varchar(140),
parentfield varchar(140),
parenttype varchar(140),
index parent(parent),

			index modified(modified))
			ENGINE=InnoDB
			ROW_FORMAT=DYNAMIC
			CHARACTER SET=utf8mb4
			COLLATE=utf8mb4_unicode_ci
2023-08-22 15:41:55,174 WARNING database DDL Query made to DB:
create table `tabCompetitor` (
			name varchar(140) primary key,
			creation datetime(6),
			modified datetime(6),
			modified_by varchar(140),
			owner varchar(140),
			docstatus int(1) not null default '0',
			idx int(8) not null default '0',
			`competitor_name` varchar(140) unique,
`website` varchar(140),
`_user_tags` text,
`_comments` text,
`_assign` text,
`_liked_by` text,

			index modified(modified))
			ENGINE=InnoDB
			ROW_FORMAT=DYNAMIC
			CHARACTER SET=utf8mb4
			COLLATE=utf8mb4_unicode_ci
2023-08-22 15:41:55,390 WARNING database DDL Query made to DB:
create table `tabContract Template` (
			name varchar(140) primary key,
			creation datetime(6),
			modified datetime(6),
			modified_by varchar(140),
			owner varchar(140),
			docstatus int(1) not null default '0',
			idx int(8) not null default '0',
			`title` varchar(140) unique,
`contract_terms` longtext,
`requires_fulfilment` int(1) not null default 0,
`_user_tags` text,
`_comments` text,
`_assign` text,
`_liked_by` text,

			index modified(modified))
			ENGINE=InnoDB
			ROW_FORMAT=DYNAMIC
			CHARACTER SET=utf8mb4
			COLLATE=utf8mb4_unicode_ci
2023-08-22 15:41:55,634 WARNING database DDL Query made to DB:
create table `tabLead` (
			name varchar(140) primary key,
			creation datetime(6),
			modified datetime(6),
			modified_by varchar(140),
			owner varchar(140),
			docstatus int(1) not null default '0',
			idx int(8) not null default '0',
			`naming_series` varchar(140),
`salutation` varchar(140),
`first_name` varchar(140),
`middle_name` varchar(140),
`last_name` varchar(140),
`lead_name` varchar(140),
`job_title` varchar(140),
`gender` varchar(140),
`source` varchar(140),
`lead_owner` varchar(140),
`status` varchar(140) default 'Lead',
`customer` varchar(140),
`type` varchar(140),
`request_type` varchar(140),
`email_id` varchar(140),
`website` varchar(140),
`mobile_no` varchar(140),
`whatsapp_no` varchar(140),
`phone` varchar(140),
`phone_ext` varchar(140),
`company_name` varchar(140),
`no_of_employees` varchar(140),
`annual_revenue` decimal(21,9) not null default 0,
`industry` varchar(140),
`market_segment` varchar(140),
`territory` varchar(140),
`fax` varchar(140),
`city` varchar(140),
`state` varchar(140),
`country` varchar(140),
`qualification_status` varchar(140),
`qualified_by` varchar(140),
`qualified_on` date,
`campaign_name` varchar(140),
`company` varchar(140),
`language` varchar(140),
`image` text,
`title` varchar(140),
`disabled` int(1) not null default 0,
`unsubscribed` int(1) not null default 0,
`blog_subscriber` int(1) not null default 0,
`_user_tags` text,
`_comments` text,
`_assign` text,
`_liked_by` text,
index `lead_name`(`lead_name`),
index `lead_owner`(`lead_owner`),
index `status`(`status`),
index `email_id`(`email_id`),

			index modified(modified))
			ENGINE=InnoDB
			ROW_FORMAT=DYNAMIC
			CHARACTER SET=utf8mb4
			COLLATE=utf8mb4_unicode_ci
2023-08-22 15:41:55,750 WARNING database DDL Query made to DB:
create table `tabCompetitor Detail` (
			name varchar(140) primary key,
			creation datetime(6),
			modified datetime(6),
			modified_by varchar(140),
			owner varchar(140),
			docstatus int(1) not null default '0',
			idx int(8) not null default '0',
			`competitor` varchar(140),
parent varchar(140),
parentfield varchar(140),
parenttype varchar(140),
index parent(parent),

			index modified(modified))
			ENGINE=InnoDB
			ROW_FORMAT=DYNAMIC
			CHARACTER SET=utf8mb4
			COLLATE=utf8mb4_unicode_ci
2023-08-22 15:41:55,936 WARNING database DDL Query made to DB:
create table `tabOpportunity Item` (
			name varchar(140) primary key,
			creation datetime(6),
			modified datetime(6),
			modified_by varchar(140),
			owner varchar(140),
			docstatus int(1) not null default '0',
			idx int(8) not null default '0',
			`item_code` varchar(140),
`item_name` varchar(140),
`uom` varchar(140),
`qty` decimal(21,9) not null default 1.0,
`brand` varchar(140),
`item_group` varchar(140),
`description` longtext,
`image` text,
`base_rate` decimal(21,9) not null default 0,
`base_amount` decimal(21,9) not null default 0,
`rate` decimal(21,9) not null default 0,
`amount` decimal(21,9) not null default 0,
parent varchar(140),
parentfield varchar(140),
parenttype varchar(140),
index parent(parent),

			index modified(modified))
			ENGINE=InnoDB
			ROW_FORMAT=DYNAMIC
			CHARACTER SET=utf8mb4
			COLLATE=utf8mb4_unicode_ci
2023-08-22 15:41:56,085 WARNING database DDL Query made to DB:
create table `tabEmail Campaign` (
			name varchar(140) primary key,
			creation datetime(6),
			modified datetime(6),
			modified_by varchar(140),
			owner varchar(140),
			docstatus int(1) not null default '0',
			idx int(8) not null default '0',
			`campaign_name` varchar(140),
`email_campaign_for` varchar(140) default 'Lead',
`recipient` varchar(140),
`sender` varchar(140),
`start_date` date,
`end_date` date,
`status` varchar(140),
`_user_tags` text,
`_comments` text,
`_assign` text,
`_liked_by` text,

			index modified(modified))
			ENGINE=InnoDB
			ROW_FORMAT=DYNAMIC
			CHARACTER SET=utf8mb4
			COLLATE=utf8mb4_unicode_ci
2023-08-22 15:41:56,244 WARNING database DDL Query made to DB:
create table `tabCampaign` (
			name varchar(140) primary key,
			creation datetime(6),
			modified datetime(6),
			modified_by varchar(140),
			owner varchar(140),
			docstatus int(1) not null default '0',
			idx int(8) not null default '0',
			`campaign_name` varchar(140),
`naming_series` varchar(140),
`description` text,
`_user_tags` text,
`_comments` text,
`_assign` text,
`_liked_by` text,

			index modified(modified))
			ENGINE=InnoDB
			ROW_FORMAT=DYNAMIC
			CHARACTER SET=utf8mb4
			COLLATE=utf8mb4_unicode_ci
2023-08-22 15:41:56,393 WARNING database DDL Query made to DB:
create table `tabOpportunity Type` (
			name varchar(140) primary key,
			creation datetime(6),
			modified datetime(6),
			modified_by varchar(140),
			owner varchar(140),
			docstatus int(1) not null default '0',
			idx int(8) not null default '0',
			`description` text,
`_user_tags` text,
`_comments` text,
`_assign` text,
`_liked_by` text,

			index modified(modified))
			ENGINE=InnoDB
			ROW_FORMAT=DYNAMIC
			CHARACTER SET=utf8mb4
			COLLATE=utf8mb4_unicode_ci
2023-08-22 15:41:56,814 WARNING database DDL Query made to DB:
create table `tabPurchase Receipt Item Supplied` (
			name varchar(140) primary key,
			creation datetime(6),
			modified datetime(6),
			modified_by varchar(140),
			owner varchar(140),
			docstatus int(1) not null default '0',
			idx int(8) not null default '0',
			`main_item_code` varchar(140),
`rm_item_code` varchar(140),
`item_name` varchar(140),
`bom_detail_no` varchar(140),
`description` longtext,
`stock_uom` varchar(140),
`conversion_factor` decimal(21,9) not null default 0,
`reference_name` varchar(140),
`rate` decimal(21,9) not null default 0,
`amount` decimal(21,9) not null default 0,
`required_qty` decimal(21,9) not null default 0,
`consumed_qty` decimal(21,9) not null default 0,
`current_stock` decimal(21,9) not null default 0,
`batch_no` varchar(140),
`serial_no` text,
`purchase_order` varchar(140),
parent varchar(140),
parentfield varchar(140),
parenttype varchar(140),
index parent(parent),

			index modified(modified))
			ENGINE=InnoDB
			ROW_FORMAT=DYNAMIC
			CHARACTER SET=utf8mb4
			COLLATE=utf8mb4_unicode_ci
2023-08-22 15:41:56,998 WARNING database DDL Query made to DB:
create table `tabSupplier Scorecard Scoring Criteria` (
			name varchar(140) primary key,
			creation datetime(6),
			modified datetime(6),
			modified_by varchar(140),
			owner varchar(140),
			docstatus int(1) not null default '0',
			idx int(8) not null default '0',
			`criteria_name` varchar(140),
`score` decimal(21,9) not null default 0,
`weight` decimal(21,9) not null default 0,
`max_score` decimal(21,9) not null default 100.0,
`formula` text,
parent varchar(140),
parentfield varchar(140),
parenttype varchar(140),
index parent(parent),

			index modified(modified))
			ENGINE=InnoDB
			ROW_FORMAT=DYNAMIC
			CHARACTER SET=utf8mb4
			COLLATE=utf8mb4_unicode_ci
2023-08-22 15:41:57,309 WARNING database DDL Query made to DB:
create table `tabPurchase Order Item` (
			name varchar(140) primary key,
			creation datetime(6),
			modified datetime(6),
			modified_by varchar(140),
			owner varchar(140),
			docstatus int(1) not null default '0',
			idx int(8) not null default '0',
			`item_code` varchar(140),
`supplier_part_no` varchar(140),
`item_name` varchar(140),
`brand` varchar(140),
`product_bundle` varchar(140),
`fg_item` varchar(140),
`fg_item_qty` decimal(21,9) not null default 1.0,
`schedule_date` date,
`expected_delivery_date` date,
`item_group` varchar(140),
`description` longtext,
`image` text,
`qty` decimal(21,9) not null default 0,
`stock_uom` varchar(140),
`uom` varchar(140),
`conversion_factor` decimal(21,9) not null default 0,
`stock_qty` decimal(21,9) not null default 0,
`price_list_rate` decimal(21,9) not null default 0,
`last_purchase_rate` decimal(21,9) not null default 0,
`base_price_list_rate` decimal(21,9) not null default 0,
`margin_type` varchar(140),
`margin_rate_or_amount` decimal(21,9) not null default 0,
`rate_with_margin` decimal(21,9) not null default 0,
`discount_percentage` decimal(21,9) not null default 0,
`discount_amount` decimal(21,9) not null default 0,
`base_rate_with_margin` decimal(21,9) not null default 0,
`rate` decimal(21,9) not null default 0,
`amount` decimal(21,9) not null default 0,
`item_tax_template` varchar(140),
`base_rate` decimal(21,9) not null default 0,
`base_amount` decimal(21,9) not null default 0,
`pricing_rules` text,
`stock_uom_rate` decimal(21,9) not null default 0,
`is_free_item` int(1) not null default 0,
`apply_tds` int(1) not null default 1,
`net_rate` decimal(21,9) not null default 0,
`net_amount` decimal(21,9) not null default 0,
`base_net_rate` decimal(21,9) not null default 0,
`base_net_amount` decimal(21,9) not null default 0,
`from_warehouse` varchar(140),
`warehouse` varchar(140),
`actual_qty` decimal(21,9) not null default 0,
`company_total_stock` decimal(21,9) not null default 0,
`material_request` varchar(140),
`material_request_item` varchar(140),
`sales_order` varchar(140),
`sales_order_item` varchar(140),
`sales_order_packed_item` varchar(140),
`supplier_quotation` varchar(140),
`supplier_quotation_item` varchar(140),
`delivered_by_supplier` int(1) not null default 0,
`against_blanket_order` int(1) not null default 0,
`blanket_order` varchar(140),
`blanket_order_rate` decimal(21,9) not null default 0,
`received_qty` decimal(21,9) not null default 0,
`returned_qty` decimal(21,9) not null default 0,
`billed_amt` decimal(21,9) not null default 0,
`expense_account` varchar(140),
`manufacturer` varchar(140),
`manufacturer_part_no` varchar(140),
`bom` varchar(140),
`include_exploded_items` int(1) not null default 0,
`weight_per_unit` decimal(21,9) not null default 0,
`total_weight` decimal(21,9) not null default 0,
`weight_uom` varchar(140),
`project` varchar(140),
`cost_center` varchar(140),
`is_fixed_asset` int(1) not null default 0,
`item_tax_rate` longtext,
`production_plan` varchar(140),
`production_plan_item` varchar(140),
`production_plan_sub_assembly_item` varchar(140),
`page_break` int(1) not null default 0,
index `item_code`(`item_code`),
index `expected_delivery_date`(`expected_delivery_date`),
index `material_request`(`material_request`),
index `material_request_item`(`material_request_item`),
index `sales_order`(`sales_order`),
index `sales_order_item`(`sales_order_item`),
parent varchar(140),
parentfield varchar(140),
parenttype varchar(140),
index parent(parent),

			index modified(modified))
			ENGINE=InnoDB
			ROW_FORMAT=DYNAMIC
			CHARACTER SET=utf8mb4
			COLLATE=utf8mb4_unicode_ci
2023-08-22 15:41:57,430 WARNING database DDL Query made to DB:
ALTER TABLE `tabPurchase Order Item`
				ADD INDEX `item_code_warehouse_index`(item_code, warehouse)
2023-08-22 15:41:57,572 WARNING database DDL Query made to DB:
create table `tabSupplier Scorecard Variable` (
			name varchar(140) primary key,
			creation datetime(6),
			modified datetime(6),
			modified_by varchar(140),
			owner varchar(140),
			docstatus int(1) not null default '0',
			idx int(8) not null default '0',
			`variable_label` varchar(140) unique,
`is_custom` int(1) not null default 0,
`param_name` varchar(140) unique,
`path` varchar(140),
`description` text,
`_user_tags` text,
`_comments` text,
`_assign` text,
`_liked_by` text,

			index modified(modified))
			ENGINE=InnoDB
			ROW_FORMAT=DYNAMIC
			CHARACTER SET=utf8mb4
			COLLATE=utf8mb4_unicode_ci
2023-08-22 15:41:57,719 WARNING database DDL Query made to DB:
create table `tabRequest for Quotation Supplier` (
			name varchar(140) primary key,
			creation datetime(6),
			modified datetime(6),
			modified_by varchar(140),
			owner varchar(140),
			docstatus int(1) not null default '0',
			idx int(8) not null default '0',
			`supplier` varchar(140),
`contact` varchar(140),
`quote_status` varchar(140),
`supplier_name` varchar(140),
`email_id` varchar(140),
`send_email` int(1) not null default 1,
`email_sent` int(1) not null default 0,
parent varchar(140),
parentfield varchar(140),
parenttype varchar(140),
index parent(parent),

			index modified(modified))
			ENGINE=InnoDB
			ROW_FORMAT=DYNAMIC
			CHARACTER SET=utf8mb4
			COLLATE=utf8mb4_unicode_ci
2023-08-22 15:41:57,823 WARNING database DDL Query made to DB:
create table `tabSupplier Scorecard Criteria` (
			name varchar(140) primary key,
			creation datetime(6),
			modified datetime(6),
			modified_by varchar(140),
			owner varchar(140),
			docstatus int(1) not null default '0',
			idx int(8) not null default '0',
			`criteria_name` varchar(140) unique,
`max_score` decimal(21,9) not null default 100.0,
`formula` text,
`weight` decimal(21,9) not null default 0,
`_user_tags` text,
`_comments` text,
`_assign` text,
`_liked_by` text,

			index modified(modified))
			ENGINE=InnoDB
			ROW_FORMAT=DYNAMIC
			CHARACTER SET=utf8mb4
			COLLATE=utf8mb4_unicode_ci
2023-08-22 15:41:58,034 WARNING database DDL Query made to DB:
create table `tabSupplier` (
			name varchar(140) primary key,
			creation datetime(6),
			modified datetime(6),
			modified_by varchar(140),
			owner varchar(140),
			docstatus int(1) not null default '0',
			idx int(8) not null default '0',
			`naming_series` varchar(140),
`supplier_name` varchar(140),
`country` varchar(140),
`supplier_group` varchar(140),
`supplier_type` varchar(140) default 'Company',
`is_transporter` int(1) not null default 0,
`image` text,
`default_currency` varchar(140),
`default_bank_account` varchar(140),
`default_price_list` varchar(140),
`payment_terms` varchar(140),
`is_internal_supplier` int(1) not null default 0,
`represents_company` varchar(140),
`supplier_details` text,
`website` varchar(140),
`language` varchar(140),
`tax_id` varchar(140),
`tax_category` varchar(140),
`tax_withholding_category` varchar(140),
`supplier_primary_contact` varchar(140),
`mobile_no` varchar(140),
`email_id` varchar(140),
`supplier_primary_address` varchar(140),
`primary_address` text,
`allow_purchase_invoice_creation_without_purchase_order` int(1) not null default 0,
`allow_purchase_invoice_creation_without_purchase_receipt` int(1) not null default 0,
`is_frozen` int(1) not null default 0,
`disabled` int(1) not null default 0,
`warn_rfqs` int(1) not null default 0,
`warn_pos` int(1) not null default 0,
`prevent_rfqs` int(1) not null default 0,
`prevent_pos` int(1) not null default 0,
`on_hold` int(1) not null default 0,
`hold_type` varchar(140),
`release_date` date,
`_user_tags` text,
`_comments` text,
`_assign` text,
`_liked_by` text,

			index modified(modified))
			ENGINE=InnoDB
			ROW_FORMAT=DYNAMIC
			CHARACTER SET=utf8mb4
			COLLATE=utf8mb4_unicode_ci
2023-08-22 15:41:58,260 WARNING database DDL Query made to DB:
create table `tabRequest for Quotation` (
			name varchar(140) primary key,
			creation datetime(6),
			modified datetime(6),
			modified_by varchar(140),
			owner varchar(140),
			docstatus int(1) not null default '0',
			idx int(8) not null default '0',
			`naming_series` varchar(140),
`company` varchar(140),
`vendor` varchar(140),
`transaction_date` date,
`schedule_date` date,
`status` varchar(140),
`amended_from` varchar(140),
`salutation` varchar(140),
`subject` varchar(140),
`email_template` varchar(140),
`send_attached_files` int(1) not null default 1,
`message_for_supplier` longtext,
`incoterm` varchar(140),
`named_place` varchar(140),
`tc_name` varchar(140),
`terms` longtext,
`select_print_heading` varchar(140),
`letter_head` varchar(140),
`opportunity` varchar(140),
`_user_tags` text,
`_comments` text,
`_assign` text,
`_liked_by` text,
index `company`(`company`),
index `transaction_date`(`transaction_date`),
index `status`(`status`),

			index modified(modified))
			ENGINE=InnoDB
			ROW_FORMAT=DYNAMIC
			CHARACTER SET=utf8mb4
			COLLATE=utf8mb4_unicode_ci
2023-08-22 15:41:58,455 WARNING database DDL Query made to DB:
create table `tabSupplier Scorecard` (
			name varchar(140) primary key,
			creation datetime(6),
			modified datetime(6),
			modified_by varchar(140),
			owner varchar(140),
			docstatus int(1) not null default '0',
			idx int(8) not null default '0',
			`supplier` varchar(140),
`supplier_score` varchar(140),
`indicator_color` varchar(140),
`status` varchar(140),
`period` varchar(140) default 'Per Month',
`weighting_function` text default '{total_score} * max( 0, min ( 1 , (12 - {period_number}) / 12) )',
`warn_rfqs` int(1) not null default 0,
`warn_pos` int(1) not null default 0,
`prevent_rfqs` int(1) not null default 0,
`prevent_pos` int(1) not null default 0,
`notify_supplier` int(1) not null default 0,
`notify_employee` int(1) not null default 0,
`employee` varchar(140),
`_user_tags` text,
`_comments` text,
`_assign` text,
`_liked_by` text,

			index modified(modified))
			ENGINE=InnoDB
			ROW_FORMAT=DYNAMIC
			CHARACTER SET=utf8mb4
			COLLATE=utf8mb4_unicode_ci
2023-08-22 15:41:58,628 WARNING database DDL Query made to DB:
create table `tabPurchase Order Item Supplied` (
			name varchar(140) primary key,
			creation datetime(6),
			modified datetime(6),
			modified_by varchar(140),
			owner varchar(140),
			docstatus int(1) not null default '0',
			idx int(8) not null default '0',
			`main_item_code` varchar(140),
`rm_item_code` varchar(140),
`stock_uom` varchar(140),
`reserve_warehouse` varchar(140),
`conversion_factor` decimal(21,9) not null default 0,
`bom_detail_no` varchar(140),
`reference_name` varchar(140),
`rate` decimal(21,9) not null default 0,
`amount` decimal(21,9) not null default 0,
`required_qty` decimal(21,9) not null default 0,
`supplied_qty` decimal(21,9) not null default 0,
`consumed_qty` decimal(21,9) not null default 0,
`returned_qty` decimal(21,9) not null default 0,
`total_supplied_qty` decimal(21,9) not null default 0,
parent varchar(140),
parentfield varchar(140),
parenttype varchar(140),
index parent(parent),

			index modified(modified))
			ENGINE=InnoDB
			ROW_FORMAT=DYNAMIC
			CHARACTER SET=utf8mb4
			COLLATE=utf8mb4_unicode_ci
2023-08-22 15:41:58,865 WARNING database DDL Query made to DB:
create table `tabSupplier Scorecard Period` (
			name varchar(140) primary key,
			creation datetime(6),
			modified datetime(6),
			modified_by varchar(140),
			owner varchar(140),
			docstatus int(1) not null default '0',
			idx int(8) not null default '0',
			`supplier` varchar(140),
`naming_series` varchar(140),
`total_score` decimal(21,9) not null default 0,
`start_date` date,
`end_date` date,
`scorecard` varchar(140),
`amended_from` varchar(140),
`_user_tags` text,
`_comments` text,
`_assign` text,
`_liked_by` text,

			index modified(modified))
			ENGINE=InnoDB
			ROW_FORMAT=DYNAMIC
			CHARACTER SET=utf8mb4
			COLLATE=utf8mb4_unicode_ci
2023-08-22 15:41:59,029 WARNING database DDL Query made to DB:
create table `tabSupplier Scorecard Scoring Standing` (
			name varchar(140) primary key,
			creation datetime(6),
			modified datetime(6),
			modified_by varchar(140),
			owner varchar(140),
			docstatus int(1) not null default '0',
			idx int(8) not null default '0',
			`standing_name` varchar(140),
`standing_color` varchar(140),
`min_grade` decimal(21,9) not null default 0,
`max_grade` decimal(21,9) not null default 0,
`warn_rfqs` int(1) not null default 0,
`warn_pos` int(1) not null default 0,
`prevent_rfqs` int(1) not null default 0,
`prevent_pos` int(1) not null default 0,
`notify_supplier` int(1) not null default 0,
`notify_employee` int(1) not null default 0,
`employee_link` varchar(140),
parent varchar(140),
parentfield varchar(140),
parenttype varchar(140),
index parent(parent),

			index modified(modified))
			ENGINE=InnoDB
			ROW_FORMAT=DYNAMIC
			CHARACTER SET=utf8mb4
			COLLATE=utf8mb4_unicode_ci
2023-08-22 15:41:59,293 WARNING database DDL Query made to DB:
create table `tabSupplier Quotation Item` (
			name varchar(140) primary key,
			creation datetime(6),
			modified datetime(6),
			modified_by varchar(140),
			owner varchar(140),
			docstatus int(1) not null default '0',
			idx int(8) not null default '0',
			`item_code` varchar(140),
`supplier_part_no` varchar(140),
`item_name` varchar(140),
`lead_time_days` int(11) not null default 0,
`expected_delivery_date` date,
`is_free_item` int(1) not null default 0,
`description` longtext,
`item_group` varchar(140),
`brand` varchar(140),
`image` text,
`qty` decimal(21,9) not null default 0,
`stock_uom` varchar(140),
`uom` varchar(140),
`conversion_factor` decimal(21,9) not null default 0,
`stock_qty` decimal(21,9) not null default 0,
`price_list_rate` decimal(21,9) not null default 0,
`discount_percentage` decimal(21,9) not null default 0,
`discount_amount` decimal(21,9) not null default 0,
`base_price_list_rate` decimal(21,9) not null default 0,
`rate` decimal(21,9) not null default 0,
`amount` decimal(21,9) not null default 0,
`item_tax_template` varchar(140),
`base_rate` decimal(21,9) not null default 0,
`base_amount` decimal(21,9) not null default 0,
`pricing_rules` text,
`net_rate` decimal(21,9) not null default 0,
`net_amount` decimal(21,9) not null default 0,
`base_net_rate` decimal(21,9) not null default 0,
`base_net_amount` decimal(21,9) not null default 0,
`weight_per_unit` decimal(21,9) not null default 0,
`total_weight` decimal(21,9) not null default 0,
`weight_uom` varchar(140),
`warehouse` varchar(140),
`prevdoc_doctype` varchar(140),
`material_request` varchar(140),
`sales_order` varchar(140),
`request_for_quotation` varchar(140),
`material_request_item` varchar(140),
`request_for_quotation_item` varchar(140),
`item_tax_rate` longtext,
`manufacturer` varchar(140),
`manufacturer_part_no` varchar(140),
`project` varchar(140),
`page_break` int(1) not null default 0,
index `item_code`(`item_code`),
index `item_name`(`item_name`),
index `material_request`(`material_request`),
index `sales_order`(`sales_order`),
index `material_request_item`(`material_request_item`),
parent varchar(140),
parentfield varchar(140),
parenttype varchar(140),
index parent(parent),

			index modified(modified))
			ENGINE=InnoDB
			ROW_FORMAT=DYNAMIC
			CHARACTER SET=utf8mb4
			COLLATE=utf8mb4_unicode_ci
2023-08-22 15:41:59,513 WARNING database DDL Query made to DB:
create table `tabRequest for Quotation Item` (
			name varchar(140) primary key,
			creation datetime(6),
			modified datetime(6),
			modified_by varchar(140),
			owner varchar(140),
			docstatus int(1) not null default '0',
			idx int(8) not null default '0',
			`item_code` varchar(140),
`supplier_part_no` varchar(140),
`item_name` varchar(140),
`schedule_date` date,
`description` longtext,
`item_group` varchar(140),
`brand` varchar(140),
`image` text,
`qty` decimal(21,9) not null default 0,
`stock_uom` varchar(140),
`uom` varchar(140),
`conversion_factor` decimal(21,9) not null default 0,
`stock_qty` decimal(21,9) not null default 0,
`warehouse` varchar(140),
`material_request` varchar(140),
`material_request_item` varchar(140),
`project_name` varchar(140),
`page_break` int(1) not null default 0,
index `item_code`(`item_code`),
index `item_name`(`item_name`),
parent varchar(140),
parentfield varchar(140),
parenttype varchar(140),
index parent(parent),

			index modified(modified))
			ENGINE=InnoDB
			ROW_FORMAT=DYNAMIC
			CHARACTER SET=utf8mb4
			COLLATE=utf8mb4_unicode_ci
2023-08-22 15:41:59,671 WARNING database DDL Query made to DB:
create table `tabSupplier Scorecard Scoring Variable` (
			name varchar(140) primary key,
			creation datetime(6),
			modified datetime(6),
			modified_by varchar(140),
			owner varchar(140),
			docstatus int(1) not null default '0',
			idx int(8) not null default '0',
			`variable_label` varchar(140),
`description` text,
`value` decimal(21,9) not null default 0,
`param_name` varchar(140),
`path` varchar(140),
parent varchar(140),
parentfield varchar(140),
parenttype varchar(140),
index parent(parent),

			index modified(modified))
			ENGINE=InnoDB
			ROW_FORMAT=DYNAMIC
			CHARACTER SET=utf8mb4
			COLLATE=utf8mb4_unicode_ci
2023-08-22 15:41:59,989 WARNING database DDL Query made to DB:
create table `tabPurchase Order` (
			name varchar(140) primary key,
			creation datetime(6),
			modified datetime(6),
			modified_by varchar(140),
			owner varchar(140),
			docstatus int(1) not null default '0',
			idx int(8) not null default '0',
			`title` varchar(140) default '{supplier_name}',
`naming_series` varchar(140),
`supplier` varchar(140),
`supplier_name` varchar(140),
`order_confirmation_no` varchar(140),
`order_confirmation_date` date,
`transaction_date` date,
`schedule_date` date,
`company` varchar(140),
`apply_tds` int(1) not null default 0,
`tax_withholding_category` varchar(140),
`is_subcontracted` int(1) not null default 0,
`supplier_warehouse` varchar(140),
`amended_from` varchar(140),
`cost_center` varchar(140),
`project` varchar(140),
`currency` varchar(140),
`conversion_rate` decimal(21,9) not null default 0,
`buying_price_list` varchar(140),
`price_list_currency` varchar(140),
`plc_conversion_rate` decimal(21,9) not null default 0,
`ignore_pricing_rule` int(1) not null default 0,
`scan_barcode` varchar(140),
`set_from_warehouse` varchar(140),
`set_warehouse` varchar(140),
`total_qty` decimal(21,9) not null default 0,
`total_net_weight` decimal(21,9) not null default 0,
`base_total` decimal(21,9) not null default 0,
`base_net_total` decimal(21,9) not null default 0,
`total` decimal(21,9) not null default 0,
`net_total` decimal(21,9) not null default 0,
`tax_withholding_net_total` decimal(21,9) not null default 0,
`base_tax_withholding_net_total` decimal(21,9) not null default 0,
`set_reserve_warehouse` varchar(140),
`tax_category` varchar(140),
`taxes_and_charges` varchar(140),
`shipping_rule` varchar(140),
`incoterm` varchar(140),
`named_place` varchar(140),
`base_taxes_and_charges_added` decimal(21,9) not null default 0,
`base_taxes_and_charges_deducted` decimal(21,9) not null default 0,
`base_total_taxes_and_charges` decimal(21,9) not null default 0,
`taxes_and_charges_added` decimal(21,9) not null default 0,
`taxes_and_charges_deducted` decimal(21,9) not null default 0,
`total_taxes_and_charges` decimal(21,9) not null default 0,
`base_grand_total` decimal(21,9) not null default 0,
`base_rounding_adjustment` decimal(21,9) not null default 0,
`base_in_words` varchar(240),
`base_rounded_total` decimal(21,9) not null default 0,
`grand_total` decimal(21,9) not null default 0,
`rounding_adjustment` decimal(21,9) not null default 0,
`rounded_total` decimal(21,9) not null default 0,
`disable_rounded_total` int(1) not null default 0,
`in_words` varchar(240),
`advance_paid` decimal(21,9) not null default 0,
`apply_discount_on` varchar(140) default 'Grand Total',
`base_discount_amount` decimal(21,9) not null default 0,
`additional_discount_percentage` decimal(21,9) not null default 0,
`discount_amount` decimal(21,9) not null default 0,
`other_charges_calculation` longtext,
`supplier_address` varchar(140),
`address_display` text,
`contact_person` varchar(140),
`contact_display` text,
`contact_mobile` text,
`contact_email` text,
`shipping_address` varchar(140),
`shipping_address_display` text,
`billing_address` varchar(140),
`billing_address_display` text,
`customer` varchar(140),
`customer_name` varchar(140),
`customer_contact_person` varchar(140),
`customer_contact_display` text,
`customer_contact_mobile` text,
`customer_contact_email` longtext,
`payment_terms_template` varchar(140),
`tc_name` varchar(140),
`terms` longtext,
`status` varchar(140) default 'Draft',
`per_billed` decimal(21,9) not null default 0,
`per_received` decimal(21,9) not null default 0,
`letter_head` varchar(140),
`group_same_items` int(1) not null default 0,
`select_print_heading` varchar(140),
`language` varchar(140),
`from_date` date,
`to_date` date,
`auto_repeat` varchar(140),
`is_internal_supplier` int(1) not null default 0,
`represents_company` varchar(140),
`ref_sq` varchar(140),
`party_account_currency` varchar(140),
`inter_company_order_reference` varchar(140),
`is_old_subcontracting_flow` int(1) not null default 0,
`_user_tags` text,
`_comments` text,
`_assign` text,
`_liked_by` text,
index `supplier`(`supplier`),
index `transaction_date`(`transaction_date`),
index `status`(`status`),

			index modified(modified))
			ENGINE=InnoDB
			ROW_FORMAT=DYNAMIC
			CHARACTER SET=utf8mb4
			COLLATE=utf8mb4_unicode_ci
2023-08-22 15:42:00,279 WARNING database DDL Query made to DB:
create table `tabSupplier Quotation` (
			name varchar(140) primary key,
			creation datetime(6),
			modified datetime(6),
			modified_by varchar(140),
			owner varchar(140),
			docstatus int(1) not null default '0',
			idx int(8) not null default '0',
			`title` varchar(140) default '{supplier_name}',
`naming_series` varchar(140),
`supplier` varchar(140),
`supplier_name` varchar(140),
`company` varchar(140),
`status` varchar(140),
`transaction_date` date,
`valid_till` date,
`quotation_number` varchar(140),
`amended_from` varchar(140),
`currency` varchar(140),
`conversion_rate` decimal(21,9) not null default 0,
`buying_price_list` varchar(140),
`price_list_currency` varchar(140),
`plc_conversion_rate` decimal(21,9) not null default 0,
`ignore_pricing_rule` int(1) not null default 0,
`total_qty` decimal(21,9) not null default 0,
`total_net_weight` decimal(21,9) not null default 0,
`base_total` decimal(21,9) not null default 0,
`base_net_total` decimal(21,9) not null default 0,
`total` decimal(21,9) not null default 0,
`net_total` decimal(21,9) not null default 0,
`tax_category` varchar(140),
`taxes_and_charges` varchar(140),
`shipping_rule` varchar(140),
`incoterm` varchar(140),
`named_place` varchar(140),
`base_taxes_and_charges_added` decimal(21,9) not null default 0,
`base_taxes_and_charges_deducted` decimal(21,9) not null default 0,
`base_total_taxes_and_charges` decimal(21,9) not null default 0,
`taxes_and_charges_added` decimal(21,9) not null default 0,
`taxes_and_charges_deducted` decimal(21,9) not null default 0,
`total_taxes_and_charges` decimal(21,9) not null default 0,
`apply_discount_on` varchar(140) default 'Grand Total',
`base_discount_amount` decimal(21,9) not null default 0,
`additional_discount_percentage` decimal(21,9) not null default 0,
`discount_amount` decimal(21,9) not null default 0,
`base_grand_total` decimal(21,9) not null default 0,
`base_rounding_adjustment` decimal(21,9) not null default 0,
`base_rounded_total` decimal(21,9) not null default 0,
`base_in_words` varchar(240),
`grand_total` decimal(21,9) not null default 0,
`rounding_adjustment` decimal(21,9) not null default 0,
`rounded_total` decimal(21,9) not null default 0,
`in_words` varchar(240),
`disable_rounded_total` int(1) not null default 0,
`other_charges_calculation` longtext,
`supplier_address` varchar(140),
`address_display` text,
`contact_person` varchar(140),
`contact_display` text,
`contact_mobile` text,
`contact_email` varchar(140),
`tc_name` varchar(140),
`terms` longtext,
`letter_head` varchar(140),
`group_same_items` int(1) not null default 0,
`select_print_heading` varchar(140),
`language` varchar(140),
`auto_repeat` varchar(140),
`is_subcontracted` int(1) not null default 0,
`opportunity` varchar(140),
`_user_tags` text,
`_comments` text,
`_assign` text,
`_liked_by` text,
index `supplier`(`supplier`),
index `company`(`company`),
index `status`(`status`),
index `transaction_date`(`transaction_date`),

			index modified(modified))
			ENGINE=InnoDB
			ROW_FORMAT=DYNAMIC
			CHARACTER SET=utf8mb4
			COLLATE=utf8mb4_unicode_ci
2023-08-22 15:42:00,458 WARNING database DDL Query made to DB:
create table `tabSupplier Scorecard Standing` (
			name varchar(140) primary key,
			creation datetime(6),
			modified datetime(6),
			modified_by varchar(140),
			owner varchar(140),
			docstatus int(1) not null default '0',
			idx int(8) not null default '0',
			`standing_name` varchar(140) unique,
`standing_color` varchar(140),
`min_grade` decimal(21,9) not null default 0,
`max_grade` decimal(21,9) not null default 0,
`warn_rfqs` int(1) not null default 0,
`warn_pos` int(1) not null default 0,
`prevent_rfqs` int(1) not null default 0,
`prevent_pos` int(1) not null default 0,
`notify_supplier` int(1) not null default 0,
`notify_employee` int(1) not null default 0,
`employee_link` varchar(140),
`_user_tags` text,
`_comments` text,
`_assign` text,
`_liked_by` text,

			index modified(modified))
			ENGINE=InnoDB
			ROW_FORMAT=DYNAMIC
			CHARACTER SET=utf8mb4
			COLLATE=utf8mb4_unicode_ci
2023-08-22 15:42:00,964 WARNING database DDL Query made to DB:
create table `tabProject Template Task` (
			name varchar(140) primary key,
			creation datetime(6),
			modified datetime(6),
			modified_by varchar(140),
			owner varchar(140),
			docstatus int(1) not null default '0',
			idx int(8) not null default '0',
			`task` varchar(140),
`subject` varchar(140),
parent varchar(140),
parentfield varchar(140),
parenttype varchar(140),
index parent(parent),

			index modified(modified))
			ENGINE=InnoDB
			ROW_FORMAT=DYNAMIC
			CHARACTER SET=utf8mb4
			COLLATE=utf8mb4_unicode_ci
2023-08-22 15:42:01,121 WARNING database DDL Query made to DB:
create table `tabProject User` (
			name varchar(140) primary key,
			creation datetime(6),
			modified datetime(6),
			modified_by varchar(140),
			owner varchar(140),
			docstatus int(1) not null default '0',
			idx int(8) not null default '0',
			`user` varchar(140),
`email` varchar(140),
`image` varchar(140),
`full_name` varchar(140),
`welcome_email_sent` int(1) not null default 0,
`view_attachments` int(1) not null default 0,
`project_status` text,
index `user`(`user`),
parent varchar(140),
parentfield varchar(140),
parenttype varchar(140),
index parent(parent),

			index modified(modified))
			ENGINE=InnoDB
			ROW_FORMAT=DYNAMIC
			CHARACTER SET=utf8mb4
			COLLATE=utf8mb4_unicode_ci
2023-08-22 15:42:01,287 WARNING database DDL Query made to DB:
create table `tabDependent Task` (
			name varchar(140) primary key,
			creation datetime(6),
			modified datetime(6),
			modified_by varchar(140),
			owner varchar(140),
			docstatus int(1) not null default '0',
			idx int(8) not null default '0',
			`task` varchar(140),
parent varchar(140),
parentfield varchar(140),
parenttype varchar(140),
index parent(parent),

			index modified(modified))
			ENGINE=InnoDB
			ROW_FORMAT=DYNAMIC
			CHARACTER SET=utf8mb4
			COLLATE=utf8mb4_unicode_ci
2023-08-22 15:42:01,447 WARNING database DDL Query made to DB:
create table `tabProject Update` (
			name varchar(140) primary key,
			creation datetime(6),
			modified datetime(6),
			modified_by varchar(140),
			owner varchar(140),
			docstatus int(1) not null default '0',
			idx int(8) not null default '0',
			`naming_series` varchar(140),
`project` varchar(140),
`sent` int(1) not null default 0,
`date` date,
`time` time(6),
`amended_from` varchar(140),
`_user_tags` text,
`_comments` text,
`_assign` text,
`_liked_by` text,

			index modified(modified))
			ENGINE=InnoDB
			ROW_FORMAT=DYNAMIC
			CHARACTER SET=utf8mb4
			COLLATE=utf8mb4_unicode_ci
2023-08-22 15:42:01,657 WARNING database DDL Query made to DB:
create table `tabActivity Cost` (
			name varchar(140) primary key,
			creation datetime(6),
			modified datetime(6),
			modified_by varchar(140),
			owner varchar(140),
			docstatus int(1) not null default '0',
			idx int(8) not null default '0',
			`activity_type` varchar(140),
`employee` varchar(140),
`employee_name` varchar(140),
`department` varchar(140),
`billing_rate` decimal(21,9) not null default 0,
`costing_rate` decimal(21,9) not null default 0,
`title` varchar(140),
`_user_tags` text,
`_comments` text,
`_assign` text,
`_liked_by` text,

			index modified(modified))
			ENGINE=InnoDB
			ROW_FORMAT=DYNAMIC
			CHARACTER SET=utf8mb4
			COLLATE=utf8mb4_unicode_ci
2023-08-22 15:42:01,859 WARNING database DDL Query made to DB:
create table `tabTimesheet` (
			name varchar(140) primary key,
			creation datetime(6),
			modified datetime(6),
			modified_by varchar(140),
			owner varchar(140),
			docstatus int(1) not null default '0',
			idx int(8) not null default '0',
			`title` varchar(140) default '{employee_name}',
`naming_series` varchar(140),
`company` varchar(140),
`customer` varchar(140),
`currency` varchar(140),
`exchange_rate` decimal(21,9) not null default 1.0,
`sales_invoice` varchar(140),
`status` varchar(140) default 'Draft',
`parent_project` varchar(140),
`employee` varchar(140),
`employee_name` varchar(140),
`department` varchar(140),
`user` varchar(140),
`start_date` date,
`end_date` date,
`total_hours` decimal(21,9) not null default 0,
`total_billable_hours` decimal(21,9) not null default 0,
`base_total_billable_amount` decimal(21,9) not null default 0,
`base_total_billed_amount` decimal(21,9) not null default 0,
`base_total_costing_amount` decimal(21,9) not null default 0,
`total_billed_hours` decimal(21,9) not null default 0,
`total_billable_amount` decimal(21,9) not null default 0,
`total_billed_amount` decimal(21,9) not null default 0,
`total_costing_amount` decimal(21,9) not null default 0,
`per_billed` decimal(21,9) not null default 0,
`note` longtext,
`amended_from` varchar(140),
`_user_tags` text,
`_comments` text,
`_assign` text,
`_liked_by` text,

			index modified(modified))
			ENGINE=InnoDB
			ROW_FORMAT=DYNAMIC
			CHARACTER SET=utf8mb4
			COLLATE=utf8mb4_unicode_ci
2023-08-22 15:42:02,009 WARNING database DDL Query made to DB:
create table `tabProject Template` (
			name varchar(140) primary key,
			creation datetime(6),
			modified datetime(6),
			modified_by varchar(140),
			owner varchar(140),
			docstatus int(1) not null default '0',
			idx int(8) not null default '0',
			`project_type` varchar(140),
`_user_tags` text,
`_comments` text,
`_assign` text,
`_liked_by` text,

			index modified(modified))
			ENGINE=InnoDB
			ROW_FORMAT=DYNAMIC
			CHARACTER SET=utf8mb4
			COLLATE=utf8mb4_unicode_ci
2023-08-22 15:42:02,239 WARNING database DDL Query made to DB:
create table `tabProject` (
			name varchar(140) primary key,
			creation datetime(6),
			modified datetime(6),
			modified_by varchar(140),
			owner varchar(140),
			docstatus int(1) not null default '0',
			idx int(8) not null default '0',
			`naming_series` varchar(140),
`project_name` varchar(140) unique,
`status` varchar(140) default 'Open',
`project_type` varchar(140),
`is_active` varchar(140),
`percent_complete_method` varchar(140) default 'Task Completion',
`percent_complete` decimal(21,9) not null default 0,
`project_template` varchar(140),
`expected_start_date` date,
`expected_end_date` date,
`priority` varchar(140),
`department` varchar(140),
`customer` varchar(140),
`sales_order` varchar(140),
`copied_from` varchar(140),
`notes` longtext,
`actual_start_date` date,
`actual_time` decimal(21,9) not null default 0,
`actual_end_date` date,
`estimated_costing` decimal(21,9) not null default 0,
`total_costing_amount` decimal(21,9) not null default 0,
`total_purchase_cost` decimal(21,9) not null default 0,
`company` varchar(140),
`total_sales_amount` decimal(21,9) not null default 0,
`total_billable_amount` decimal(21,9) not null default 0,
`total_billed_amount` decimal(21,9) not null default 0,
`total_consumed_material_cost` decimal(21,9) not null default 0,
`cost_center` varchar(140),
`gross_margin` decimal(21,9) not null default 0,
`per_gross_margin` decimal(21,9) not null default 0,
`collect_progress` int(1) not null default 0,
`holiday_list` varchar(140),
`frequency` varchar(140),
`from_time` time(6),
`to_time` time(6),
`first_email` time(6),
`second_email` time(6),
`daily_time_to_send` time(6),
`day_to_send` varchar(140),
`weekly_time_to_send` time(6),
`message` text,
`_user_tags` text,
`_comments` text,
`_assign` text,
`_liked_by` text,
`_seen` text,
index `status`(`status`),
index `customer`(`customer`),

			index modified(modified))
			ENGINE=InnoDB
			ROW_FORMAT=DYNAMIC
			CHARACTER SET=utf8mb4
			COLLATE=utf8mb4_unicode_ci
2023-08-22 15:42:02,384 WARNING database DDL Query made to DB:
create table `tabActivity Type` (
			name varchar(140) primary key,
			creation datetime(6),
			modified datetime(6),
			modified_by varchar(140),
			owner varchar(140),
			docstatus int(1) not null default '0',
			idx int(8) not null default '0',
			`activity_type` varchar(140),
`costing_rate` decimal(21,9) not null default 0,
`billing_rate` decimal(21,9) not null default 0,
`disabled` int(1) not null default 0,
`_user_tags` text,
`_comments` text,
`_assign` text,
`_liked_by` text,

			index modified(modified))
			ENGINE=InnoDB
			ROW_FORMAT=DYNAMIC
			CHARACTER SET=utf8mb4
			COLLATE=utf8mb4_unicode_ci
2023-08-22 15:42:02,615 WARNING database DDL Query made to DB:
create table `tabTask` (
			name varchar(140) primary key,
			creation datetime(6),
			modified datetime(6),
			modified_by varchar(140),
			owner varchar(140),
			docstatus int(1) not null default '0',
			idx int(8) not null default '0',
			`subject` varchar(140),
`project` varchar(140),
`issue` varchar(140),
`type` varchar(140),
`color` varchar(140),
`is_group` int(1) not null default 0,
`is_template` int(1) not null default 0,
`status` varchar(140),
`priority` varchar(140),
`task_weight` decimal(21,9) not null default 0,
`parent_task` varchar(140),
`completed_by` varchar(140),
`completed_on` date,
`exp_start_date` date,
`expected_time` decimal(21,9) not null default 0,
`start` int(11) not null default 0,
`exp_end_date` date,
`progress` decimal(21,9) not null default 0,
`duration` int(11) not null default 0,
`is_milestone` int(1) not null default 0,
`description` longtext,
`depends_on_tasks` longtext,
`act_start_date` date,
`actual_time` decimal(21,9) not null default 0,
`act_end_date` date,
`total_costing_amount` decimal(21,9) not null default 0,
`total_billing_amount` decimal(21,9) not null default 0,
`review_date` date,
`closing_date` date,
`department` varchar(140),
`company` varchar(140),
`lft` int(11) not null default 0,
`rgt` int(11) not null default 0,
`old_parent` varchar(140),
`_user_tags` text,
`_comments` text,
`_assign` text,
`_liked_by` text,
`_seen` text,
index `subject`(`subject`),
index `project`(`project`),
index `priority`(`priority`),
index `parent_task`(`parent_task`),
index `exp_end_date`(`exp_end_date`),

			index modified(modified))
			ENGINE=InnoDB
			ROW_FORMAT=DYNAMIC
			CHARACTER SET=utf8mb4
			COLLATE=utf8mb4_unicode_ci
2023-08-22 15:42:02,747 WARNING database DDL Query made to DB:
ALTER TABLE `tabTask`
				ADD INDEX `lft_rgt_index`(lft, rgt)
2023-08-22 15:42:02,874 WARNING database DDL Query made to DB:
create table `tabTask Type` (
			name varchar(140) primary key,
			creation datetime(6),
			modified datetime(6),
			modified_by varchar(140),
			owner varchar(140),
			docstatus int(1) not null default '0',
			idx int(8) not null default '0',
			`weight` decimal(21,9) not null default 0,
`description` text,
`_user_tags` text,
`_comments` text,
`_assign` text,
`_liked_by` text,

			index modified(modified))
			ENGINE=InnoDB
			ROW_FORMAT=DYNAMIC
			CHARACTER SET=utf8mb4
			COLLATE=utf8mb4_unicode_ci
2023-08-22 15:42:03,030 WARNING database DDL Query made to DB:
create table `tabTask Depends On` (
			name varchar(140) primary key,
			creation datetime(6),
			modified datetime(6),
			modified_by varchar(140),
			owner varchar(140),
			docstatus int(1) not null default '0',
			idx int(8) not null default '0',
			`task` varchar(140),
`subject` text,
`project` text,
parent varchar(140),
parentfield varchar(140),
parenttype varchar(140),
index parent(parent),

			index modified(modified))
			ENGINE=InnoDB
			ROW_FORMAT=DYNAMIC
			CHARACTER SET=utf8mb4
			COLLATE=utf8mb4_unicode_ci
2023-08-22 15:42:03,170 WARNING database DDL Query made to DB:
create table `tabProject Type` (
			name varchar(140) primary key,
			creation datetime(6),
			modified datetime(6),
			modified_by varchar(140),
			owner varchar(140),
			docstatus int(1) not null default '0',
			idx int(8) not null default '0',
			`project_type` varchar(140),
`description` text,
`_user_tags` text,
`_comments` text,
`_assign` text,
`_liked_by` text,

			index modified(modified))
			ENGINE=InnoDB
			ROW_FORMAT=DYNAMIC
			CHARACTER SET=utf8mb4
			COLLATE=utf8mb4_unicode_ci
2023-08-22 15:42:03,353 WARNING database DDL Query made to DB:
create table `tabTimesheet Detail` (
			name varchar(140) primary key,
			creation datetime(6),
			modified datetime(6),
			modified_by varchar(140),
			owner varchar(140),
			docstatus int(1) not null default '0',
			idx int(8) not null default '0',
			`activity_type` varchar(140),
`from_time` datetime(6),
`description` text,
`expected_hours` decimal(21,9) not null default 0,
`to_time` datetime(6),
`hours` decimal(21,9) not null default 0,
`completed` int(1) not null default 0,
`project` varchar(140),
`project_name` varchar(140),
`task` varchar(140),
`is_billable` int(1) not null default 0,
`sales_invoice` varchar(140),
`billing_hours` decimal(21,9) not null default 0,
`base_billing_rate` decimal(21,9) not null default 0,
`base_billing_amount` decimal(21,9) not null default 0,
`base_costing_rate` decimal(21,9) not null default 0,
`base_costing_amount` decimal(21,9) not null default 0,
`billing_rate` decimal(21,9) not null default 0,
`billing_amount` decimal(21,9) not null default 0,
`costing_rate` decimal(21,9) not null default 0,
`costing_amount` decimal(21,9) not null default 0,
parent varchar(140),
parentfield varchar(140),
parenttype varchar(140),
index parent(parent),

			index modified(modified))
			ENGINE=InnoDB
			ROW_FORMAT=DYNAMIC
			CHARACTER SET=utf8mb4
			COLLATE=utf8mb4_unicode_ci
2023-08-22 15:42:03,884 WARNING database DDL Query made to DB:
create table `tabSales Order Item` (
			name varchar(140) primary key,
			creation datetime(6),
			modified datetime(6),
			modified_by varchar(140),
			owner varchar(140),
			docstatus int(1) not null default '0',
			idx int(8) not null default '0',
			`item_code` varchar(140),
`customer_item_code` varchar(140),
`ensure_delivery_based_on_produced_serial_no` int(1) not null default 0,
`delivery_date` date,
`item_name` varchar(140),
`description` longtext,
`item_group` varchar(140),
`brand` varchar(140),
`image` text,
`qty` decimal(21,9) not null default 0,
`stock_uom` varchar(140),
`uom` varchar(140),
`conversion_factor` decimal(21,9) not null default 0,
`stock_qty` decimal(21,9) not null default 0,
`price_list_rate` decimal(21,9) not null default 0,
`base_price_list_rate` decimal(21,9) not null default 0,
`margin_type` varchar(140),
`margin_rate_or_amount` decimal(21,9) not null default 0,
`rate_with_margin` decimal(21,9) not null default 0,
`discount_percentage` decimal(21,9) not null default 0,
`discount_amount` decimal(21,9) not null default 0,
`base_rate_with_margin` decimal(21,9) not null default 0,
`rate` decimal(21,9) not null default 0,
`amount` decimal(21,9) not null default 0,
`item_tax_template` varchar(140),
`base_rate` decimal(21,9) not null default 0,
`base_amount` decimal(21,9) not null default 0,
`pricing_rules` text,
`stock_uom_rate` decimal(21,9) not null default 0,
`is_free_item` int(1) not null default 0,
`grant_commission` int(1) not null default 0,
`net_rate` decimal(21,9) not null default 0,
`net_amount` decimal(21,9) not null default 0,
`base_net_rate` decimal(21,9) not null default 0,
`base_net_amount` decimal(21,9) not null default 0,
`billed_amt` decimal(21,9) not null default 0,
`valuation_rate` decimal(21,9) not null default 0,
`gross_profit` decimal(21,9) not null default 0,
`delivered_by_supplier` int(1) not null default 0,
`supplier` varchar(140),
`weight_per_unit` decimal(21,9) not null default 0,
`total_weight` decimal(21,9) not null default 0,
`weight_uom` varchar(140),
`warehouse` varchar(140),
`target_warehouse` varchar(140),
`prevdoc_docname` varchar(140),
`quotation_item` varchar(140),
`against_blanket_order` int(1) not null default 0,
`blanket_order` varchar(140),
`blanket_order_rate` decimal(21,9) not null default 0,
`bom_no` varchar(140),
`projected_qty` decimal(21,9) not null default 0,
`actual_qty` decimal(21,9) not null default 0,
`ordered_qty` decimal(21,9) not null default 0,
`planned_qty` decimal(21,9) not null default 0,
`production_plan_qty` decimal(21,9) not null default 0,
`work_order_qty` decimal(21,9) not null default 0,
`delivered_qty` decimal(21,9) not null default 0,
`produced_qty` decimal(21,9) not null default 0,
`returned_qty` decimal(21,9) not null default 0,
`picked_qty` decimal(21,9) not null default 0,
`additional_notes` text,
`page_break` int(1) not null default 0,
`item_tax_rate` longtext,
`transaction_date` date,
`material_request` varchar(140),
`purchase_order` varchar(140),
`material_request_item` varchar(140),
`purchase_order_item` varchar(140),
index `prevdoc_docname`(`prevdoc_docname`),
parent varchar(140),
parentfield varchar(140),
parenttype varchar(140),
index parent(parent),

			index modified(modified))
			ENGINE=InnoDB
			ROW_FORMAT=DYNAMIC
			CHARACTER SET=utf8mb4
			COLLATE=utf8mb4_unicode_ci
2023-08-22 15:42:04,011 WARNING database DDL Query made to DB:
ALTER TABLE `tabSales Order Item`
				ADD INDEX `item_code_warehouse_index`(item_code, warehouse)
2023-08-22 15:42:04,251 WARNING database DDL Query made to DB:
create table `tabParty Specific Item` (
			name varchar(140) primary key,
			creation datetime(6),
			modified datetime(6),
			modified_by varchar(140),
			owner varchar(140),
			docstatus int(1) not null default '0',
			idx int(8) not null default '0',
			`party_type` varchar(140),
`party` varchar(140),
`restrict_based_on` varchar(140),
`based_on_value` varchar(140),
`_user_tags` text,
`_comments` text,
`_assign` text,
`_liked_by` text,

			index modified(modified))
			ENGINE=InnoDB
			ROW_FORMAT=DYNAMIC
			CHARACTER SET=utf8mb4
			COLLATE=utf8mb4_unicode_ci
2023-08-22 15:42:04,518 WARNING database DDL Query made to DB:
create table `tabCustomer` (
			name varchar(140) primary key,
			creation datetime(6),
			modified datetime(6),
			modified_by varchar(140),
			owner varchar(140),
			docstatus int(1) not null default '0',
			idx int(8) not null default '0',
			`naming_series` varchar(140),
`salutation` varchar(140),
`customer_name` varchar(140),
`customer_type` varchar(140) default 'Company',
`customer_group` varchar(140),
`territory` varchar(140),
`gender` varchar(140),
`lead_name` varchar(140),
`opportunity_name` varchar(140),
`account_manager` varchar(140),
`image` text,
`default_price_list` varchar(140),
`default_bank_account` varchar(140),
`default_currency` varchar(140),
`is_internal_customer` int(1) not null default 0,
`represents_company` varchar(140) unique,
`market_segment` varchar(140),
`industry` varchar(140),
`customer_pos_id` varchar(140),
`website` varchar(140),
`language` varchar(140),
`customer_details` text,
`customer_primary_contact` varchar(140),
`mobile_no` varchar(140),
`email_id` varchar(140),
`customer_primary_address` varchar(140),
`primary_address` text,
`tax_id` varchar(140),
`tax_category` varchar(140),
`tax_withholding_category` varchar(140),
`payment_terms` varchar(140),
`loyalty_program` varchar(140),
`loyalty_program_tier` varchar(140),
`default_sales_partner` varchar(140),
`default_commission_rate` decimal(21,9) not null default 0,
`so_required` int(1) not null default 0,
`dn_required` int(1) not null default 0,
`is_frozen` int(1) not null default 0,
`disabled` int(1) not null default 0,
`_user_tags` text,
`_comments` text,
`_assign` text,
`_liked_by` text,
index `customer_name`(`customer_name`),
index `customer_group`(`customer_group`),

			index modified(modified))
			ENGINE=InnoDB
			ROW_FORMAT=DYNAMIC
			CHARACTER SET=utf8mb4
			COLLATE=utf8mb4_unicode_ci
2023-08-22 15:42:04,695 WARNING database DDL Query made to DB:
create table `tabSales Team` (
			name varchar(140) primary key,
			creation datetime(6),
			modified datetime(6),
			modified_by varchar(140),
			owner varchar(140),
			docstatus int(1) not null default '0',
			idx int(8) not null default '0',
			`sales_person` varchar(140),
`contact_no` varchar(140),
`allocated_percentage` decimal(21,9) not null default 0,
`allocated_amount` decimal(21,9) not null default 0,
`commission_rate` varchar(140),
`incentives` decimal(21,9) not null default 0,
index `sales_person`(`sales_person`),
parent varchar(140),
parentfield varchar(140),
parenttype varchar(140),
index parent(parent),

			index modified(modified))
			ENGINE=InnoDB
			ROW_FORMAT=DYNAMIC
			CHARACTER SET=utf8mb4
			COLLATE=utf8mb4_unicode_ci
