2023-08-22 15:41:34,832 WARNING database DDL Query made to DB:
create table `tabOpening Invoice Creation Tool Item` (
			name varchar(140) primary key,
			creation datetime(6),
			modified datetime(6),
			modified_by varchar(140),
			owner varchar(140),
			docstatus int(1) not null default '0',
			idx int(8) not null default '0',
			`invoice_number` varchar(140),
`party_type` varchar(140),
`party` varchar(140),
`temporary_opening_account` varchar(140),
`posting_date` date,
`due_date` date,
`item_name` varchar(140) default 'Opening Invoice Item',
`outstanding_amount` decimal(21,9) not null default 0,
`qty` varchar(140) default '1',
`cost_center` varchar(140),
parent varchar(140),
parentfield varchar(140),
parenttype varchar(140),
index parent(parent),

			index modified(modified))
			ENGINE=InnoDB
			ROW_FORMAT=DYNAMIC
			CHARACTER SET=utf8mb4
			COLLATE=utf8mb4_unicode_ci
2023-08-22 15:41:34,973 WARNING database DDL Query made to DB:
create table `tabSupplier Item` (
			name varchar(140) primary key,
			creation datetime(6),
			modified datetime(6),
			modified_by varchar(140),
			owner varchar(140),
			docstatus int(1) not null default '0',
			idx int(8) not null default '0',
			`supplier` varchar(140),
parent varchar(140),
parentfield varchar(140),
parenttype varchar(140),
index parent(parent),

			index modified(modified))
			ENGINE=InnoDB
			ROW_FORMAT=DYNAMIC
			CHARACTER SET=utf8mb4
			COLLATE=utf8mb4_unicode_ci
2023-08-22 15:41:35,145 WARNING database DDL Query made to DB:
create table `tabSubscription Plan` (
			name varchar(140) primary key,
			creation datetime(6),
			modified datetime(6),
			modified_by varchar(140),
			owner varchar(140),
			docstatus int(1) not null default '0',
			idx int(8) not null default '0',
			`plan_name` varchar(140) unique,
`currency` varchar(140),
`item` varchar(140),
`price_determination` varchar(140),
`cost` decimal(21,9) not null default 0,
`price_list` varchar(140),
`billing_interval` varchar(140) default 'Day',
`billing_interval_count` int(11) not null default 1,
`product_price_id` varchar(140),
`payment_gateway` varchar(140),
`cost_center` varchar(140),
`_user_tags` text,
`_comments` text,
`_assign` text,
`_liked_by` text,

			index modified(modified))
			ENGINE=InnoDB
			ROW_FORMAT=DYNAMIC
			CHARACTER SET=utf8mb4
			COLLATE=utf8mb4_unicode_ci
2023-08-22 15:41:35,289 WARNING database DDL Query made to DB:
create table `tabPricing Rule Detail` (
			name varchar(140) primary key,
			creation datetime(6),
			modified datetime(6),
			modified_by varchar(140),
			owner varchar(140),
			docstatus int(1) not null default '0',
			idx int(8) not null default '0',
			`pricing_rule` varchar(140),
`item_code` varchar(140),
`margin_type` varchar(140),
`rate_or_discount` varchar(140),
`child_docname` varchar(140),
`rule_applied` int(1) not null default 1,
parent varchar(140),
parentfield varchar(140),
parenttype varchar(140),
index parent(parent),

			index modified(modified))
			ENGINE=InnoDB
			ROW_FORMAT=DYNAMIC
			CHARACTER SET=utf8mb4
			COLLATE=utf8mb4_unicode_ci
2023-08-22 15:41:35,461 WARNING database DDL Query made to DB:
create table `tabPayment Entry Reference` (
			name varchar(140) primary key,
			creation datetime(6),
			modified datetime(6),
			modified_by varchar(140),
			owner varchar(140),
			docstatus int(1) not null default '0',
			idx int(8) not null default '0',
			`reference_doctype` varchar(140),
`reference_name` varchar(140),
`due_date` date,
`bill_no` varchar(140),
`payment_term` varchar(140),
`total_amount` decimal(21,9) not null default 0,
`outstanding_amount` decimal(21,9) not null default 0,
`allocated_amount` decimal(21,9) not null default 0,
`exchange_rate` decimal(21,9) not null default 0,
`exchange_gain_loss` decimal(21,9) not null default 0,
index `reference_doctype`(`reference_doctype`),
index `reference_name`(`reference_name`),
parent varchar(140),
parentfield varchar(140),
parenttype varchar(140),
index parent(parent),

			index modified(modified))
			ENGINE=InnoDB
			ROW_FORMAT=DYNAMIC
			CHARACTER SET=utf8mb4
			COLLATE=utf8mb4_unicode_ci
2023-08-22 15:41:35,640 WARNING database DDL Query made to DB:
create table `tabBank Guarantee` (
			name varchar(140) primary key,
			creation datetime(6),
			modified datetime(6),
			modified_by varchar(140),
			owner varchar(140),
			docstatus int(1) not null default '0',
			idx int(8) not null default '0',
			`bg_type` varchar(140),
`reference_doctype` varchar(140),
`reference_docname` varchar(140),
`customer` varchar(140),
`supplier` varchar(140),
`project` varchar(140),
`amount` decimal(21,9) not null default 0,
`start_date` date,
`validity` int(11) not null default 0,
`end_date` date,
`bank` varchar(140),
`bank_account` varchar(140),
`account` varchar(140),
`bank_account_no` varchar(140),
`iban` varchar(140),
`branch_code` varchar(140),
`swift_number` varchar(140),
`more_information` longtext,
`bank_guarantee_number` varchar(140) unique,
`name_of_beneficiary` varchar(140),
`margin_money` decimal(21,9) not null default 0,
`charges` decimal(21,9) not null default 0,
`fixed_deposit_number` varchar(140),
`amended_from` varchar(140),
`_user_tags` text,
`_comments` text,
`_assign` text,
`_liked_by` text,

			index modified(modified))
			ENGINE=InnoDB
			ROW_FORMAT=DYNAMIC
			CHARACTER SET=utf8mb4
			COLLATE=utf8mb4_unicode_ci
2023-08-22 15:41:35,811 WARNING database DDL Query made to DB:
create table `tabDunning` (
			name varchar(140) primary key,
			creation datetime(6),
			modified datetime(6),
			modified_by varchar(140),
			owner varchar(140),
			docstatus int(1) not null default '0',
			idx int(8) not null default '0',
			`title` varchar(140) default '{customer_name}',
`naming_series` varchar(140) default 'DUNN-.MM.-.YY.-',
`sales_invoice` varchar(140),
`customer` varchar(140),
`customer_name` varchar(140),
`outstanding_amount` decimal(21,9) not null default 0,
`currency` varchar(140),
`conversion_rate` decimal(21,9) not null default 0,
`company` varchar(140),
`posting_date` date,
`posting_time` time(6),
`due_date` date,
`overdue_days` int(11) not null default 0,
`address_display` text,
`contact_display` text,
`contact_mobile` text,
`contact_email` varchar(140),
`company_address_display` text,
`dunning_type` varchar(140),
`dunning_fee` decimal(21,9) not null default 0,
`rate_of_interest` decimal(21,9) not null default 0,
`interest_amount` decimal(21,9) not null default 0,
`dunning_amount` decimal(21,9) not null default 0,
`grand_total` decimal(21,9) not null default 0,
`income_account` varchar(140),
`status` varchar(140) default 'Unresolved',
`language` varchar(140),
`body_text` longtext,
`letter_head` varchar(140),
`closing_text` longtext,
`amended_from` varchar(140),
`_user_tags` text,
`_comments` text,
`_assign` text,
`_liked_by` text,

			index modified(modified))
			ENGINE=InnoDB
			ROW_FORMAT=DYNAMIC
			CHARACTER SET=utf8mb4
			COLLATE=utf8mb4_unicode_ci
2023-08-22 15:41:35,948 WARNING database DDL Query made to DB:
create table `tabMonthly Distribution Percentage` (
			name varchar(140) primary key,
			creation datetime(6),
			modified datetime(6),
			modified_by varchar(140),
			owner varchar(140),
			docstatus int(1) not null default '0',
			idx int(8) not null default '0',
			`month` varchar(140),
`percentage_allocation` decimal(21,9) not null default 0,
parent varchar(140),
parentfield varchar(140),
parenttype varchar(140),
index parent(parent),

			index modified(modified))
			ENGINE=InnoDB
			ROW_FORMAT=DYNAMIC
			CHARACTER SET=utf8mb4
			COLLATE=utf8mb4_unicode_ci
2023-08-22 15:41:36,133 WARNING database DDL Query made to DB:
create table `tabAccount Closing Balance` (
			name varchar(140) primary key,
			creation datetime(6),
			modified datetime(6),
			modified_by varchar(140),
			owner varchar(140),
			docstatus int(1) not null default '0',
			idx int(8) not null default '0',
			`closing_date` date,
`account` varchar(140),
`cost_center` varchar(140),
`debit` decimal(21,9) not null default 0,
`credit` decimal(21,9) not null default 0,
`account_currency` varchar(140),
`debit_in_account_currency` decimal(21,9) not null default 0,
`credit_in_account_currency` decimal(21,9) not null default 0,
`project` varchar(140),
`company` varchar(140),
`finance_book` varchar(140),
`period_closing_voucher` varchar(140),
`is_period_closing_voucher_entry` int(1) not null default 0,
`_user_tags` text,
`_comments` text,
`_assign` text,
`_liked_by` text,
index `closing_date`(`closing_date`),
index `account`(`account`),
index `company`(`company`),
index `period_closing_voucher`(`period_closing_voucher`),

			index modified(modified))
			ENGINE=InnoDB
			ROW_FORMAT=DYNAMIC
			CHARACTER SET=utf8mb4
			COLLATE=utf8mb4_unicode_ci
2023-08-22 15:41:36,479 WARNING database DDL Query made to DB:
create table `tabSales Invoice Item` (
			name varchar(140) primary key,
			creation datetime(6),
			modified datetime(6),
			modified_by varchar(140),
			owner varchar(140),
			docstatus int(1) not null default '0',
			idx int(8) not null default '0',
			`barcode` varchar(140),
`has_item_scanned` int(1) not null default 0,
`item_code` varchar(140),
`item_name` varchar(140),
`customer_item_code` varchar(140),
`description` longtext,
`item_group` varchar(140),
`brand` varchar(140),
`image` text,
`qty` decimal(21,9) not null default 0,
`stock_uom` varchar(140),
`uom` varchar(140),
`conversion_factor` decimal(21,9) not null default 0,
`stock_qty` decimal(21,9) not null default 0,
`price_list_rate` decimal(21,9) not null default 0,
`base_price_list_rate` decimal(21,9) not null default 0,
`margin_type` varchar(140),
`margin_rate_or_amount` decimal(21,9) not null default 0,
`rate_with_margin` decimal(21,9) not null default 0,
`discount_percentage` decimal(21,9) not null default 0,
`discount_amount` decimal(21,9) not null default 0,
`base_rate_with_margin` decimal(21,9) not null default 0,
`rate` decimal(21,9) not null default 0,
`amount` decimal(21,9) not null default 0,
`item_tax_template` varchar(140),
`base_rate` decimal(21,9) not null default 0,
`base_amount` decimal(21,9) not null default 0,
`pricing_rules` text,
`stock_uom_rate` decimal(21,9) not null default 0,
`is_free_item` int(1) not null default 0,
`grant_commission` int(1) not null default 0,
`net_rate` decimal(21,9) not null default 0,
`net_amount` decimal(21,9) not null default 0,
`base_net_rate` decimal(21,9) not null default 0,
`base_net_amount` decimal(21,9) not null default 0,
`delivered_by_supplier` int(1) not null default 0,
`income_account` varchar(140),
`is_fixed_asset` int(1) not null default 0,
`asset` varchar(140),
`finance_book` varchar(140),
`expense_account` varchar(140),
`discount_account` varchar(140),
`deferred_revenue_account` varchar(140),
`service_stop_date` date,
`enable_deferred_revenue` int(1) not null default 0,
`service_start_date` date,
`service_end_date` date,
`weight_per_unit` decimal(21,9) not null default 0,
`total_weight` decimal(21,9) not null default 0,
`weight_uom` varchar(140),
`warehouse` varchar(140),
`target_warehouse` varchar(140),
`quality_inspection` varchar(140),
`batch_no` varchar(140),
`incoming_rate` decimal(21,9) not null default 0,
`allow_zero_valuation_rate` int(1) not null default 0,
`serial_no` text,
`item_tax_rate` text,
`actual_batch_qty` decimal(21,9) not null default 0,
`actual_qty` decimal(21,9) not null default 0,
`sales_order` varchar(140),
`so_detail` varchar(140),
`sales_invoice_item` varchar(140),
`delivery_note` varchar(140),
`dn_detail` varchar(140),
`delivered_qty` decimal(21,9) not null default 0,
`purchase_order` varchar(140),
`purchase_order_item` varchar(140),
`cost_center` varchar(140),
`project` varchar(140),
`page_break` int(1) not null default 0,
index `item_code`(`item_code`),
index `batch_no`(`batch_no`),
index `sales_order`(`sales_order`),
index `so_detail`(`so_detail`),
index `delivery_note`(`delivery_note`),
index `dn_detail`(`dn_detail`),
parent varchar(140),
parentfield varchar(140),
parenttype varchar(140),
index parent(parent),

			index modified(modified))
			ENGINE=InnoDB
			ROW_FORMAT=DYNAMIC
			CHARACTER SET=utf8mb4
			COLLATE=utf8mb4_unicode_ci
2023-08-22 15:41:36,626 WARNING database DDL Query made to DB:
create table `tabCurrency Exchange Settings Details` (
			name varchar(140) primary key,
			creation datetime(6),
			modified datetime(6),
			modified_by varchar(140),
			owner varchar(140),
			docstatus int(1) not null default '0',
			idx int(8) not null default '0',
			`key` varchar(140),
`value` varchar(140),
parent varchar(140),
parentfield varchar(140),
parenttype varchar(140),
index parent(parent),

			index modified(modified))
			ENGINE=InnoDB
			ROW_FORMAT=DYNAMIC
			CHARACTER SET=utf8mb4
			COLLATE=utf8mb4_unicode_ci
2023-08-22 15:41:36,770 WARNING database DDL Query made to DB:
create table `tabParty Account` (
			name varchar(140) primary key,
			creation datetime(6),
			modified datetime(6),
			modified_by varchar(140),
			owner varchar(140),
			docstatus int(1) not null default '0',
			idx int(8) not null default '0',
			`company` varchar(140),
`account` varchar(140),
parent varchar(140),
parentfield varchar(140),
parenttype varchar(140),
index parent(parent),

			index modified(modified))
			ENGINE=InnoDB
			ROW_FORMAT=DYNAMIC
			CHARACTER SET=utf8mb4
			COLLATE=utf8mb4_unicode_ci
2023-08-22 15:41:36,890 WARNING database DDL Query made to DB:
create table `tabProcess Deferred Accounting` (
			name varchar(140) primary key,
			creation datetime(6),
			modified datetime(6),
			modified_by varchar(140),
			owner varchar(140),
			docstatus int(1) not null default '0',
			idx int(8) not null default '0',
			`company` varchar(140),
`type` varchar(140),
`account` varchar(140),
`posting_date` date,
`start_date` date,
`end_date` date,
`amended_from` varchar(140),
`_user_tags` text,
`_comments` text,
`_assign` text,
`_liked_by` text,

			index modified(modified))
			ENGINE=InnoDB
			ROW_FORMAT=DYNAMIC
			CHARACTER SET=utf8mb4
			COLLATE=utf8mb4_unicode_ci
2023-08-22 15:41:37,055 WARNING database DDL Query made to DB:
create table `tabApplicable On Account` (
			name varchar(140) primary key,
			creation datetime(6),
			modified datetime(6),
			modified_by varchar(140),
			owner varchar(140),
			docstatus int(1) not null default '0',
			idx int(8) not null default '0',
			`applicable_on_account` varchar(140),
`is_mandatory` int(1) not null default 0,
parent varchar(140),
parentfield varchar(140),
parenttype varchar(140),
index parent(parent),

			index modified(modified))
			ENGINE=InnoDB
			ROW_FORMAT=DYNAMIC
			CHARACTER SET=utf8mb4
			COLLATE=utf8mb4_unicode_ci
2023-08-22 15:41:37,197 WARNING database DDL Query made to DB:
create table `tabLoyalty Point Entry Redemption` (
			name varchar(140) primary key,
			creation datetime(6),
			modified datetime(6),
			modified_by varchar(140),
			owner varchar(140),
			docstatus int(1) not null default '0',
			idx int(8) not null default '0',
			`sales_invoice` varchar(140),
`redemption_date` date,
`redeemed_points` int(11) not null default 0,
parent varchar(140),
parentfield varchar(140),
parenttype varchar(140),
index parent(parent),

			index modified(modified))
			ENGINE=InnoDB
			ROW_FORMAT=DYNAMIC
			CHARACTER SET=utf8mb4
			COLLATE=utf8mb4_unicode_ci
2023-08-22 15:41:37,619 WARNING database DDL Query made to DB:
create table `tabPurchase Invoice` (
			name varchar(140) primary key,
			creation datetime(6),
			modified datetime(6),
			modified_by varchar(140),
			owner varchar(140),
			docstatus int(1) not null default '0',
			idx int(8) not null default '0',
			`title` varchar(140) default '{supplier_name}',
`naming_series` varchar(140),
`supplier` varchar(140),
`supplier_name` varchar(140),
`tax_id` varchar(140),
`company` varchar(140),
`posting_date` date,
`posting_time` time(6),
`set_posting_time` int(1) not null default 0,
`due_date` date,
`is_paid` int(1) not null default 0,
`is_return` int(1) not null default 0,
`return_against` varchar(140),
`apply_tds` int(1) not null default 0,
`tax_withholding_category` varchar(140),
`amended_from` varchar(140),
`bill_no` varchar(140),
`bill_date` date,
`cost_center` varchar(140),
`project` varchar(140),
`currency` varchar(140),
`conversion_rate` decimal(21,9) not null default 0,
`buying_price_list` varchar(140),
`price_list_currency` varchar(140),
`plc_conversion_rate` decimal(21,9) not null default 0,
`ignore_pricing_rule` int(1) not null default 0,
`scan_barcode` varchar(140),
`update_stock` int(1) not null default 0,
`set_warehouse` varchar(140),
`set_from_warehouse` varchar(140),
`is_subcontracted` int(1) not null default 0,
`rejected_warehouse` varchar(140),
`supplier_warehouse` varchar(140),
`total_qty` decimal(21,9) not null default 0,
`total_net_weight` decimal(21,9) not null default 0,
`base_total` decimal(21,9) not null default 0,
`base_net_total` decimal(21,9) not null default 0,
`total` decimal(21,9) not null default 0,
`net_total` decimal(21,9) not null default 0,
`tax_withholding_net_total` decimal(21,9) not null default 0,
`base_tax_withholding_net_total` decimal(21,9) not null default 0,
`tax_category` varchar(140),
`taxes_and_charges` varchar(140),
`shipping_rule` varchar(140),
`incoterm` varchar(140),
`named_place` varchar(140),
`base_taxes_and_charges_added` decimal(21,9) not null default 0,
`base_taxes_and_charges_deducted` decimal(21,9) not null default 0,
`base_total_taxes_and_charges` decimal(21,9) not null default 0,
`taxes_and_charges_added` decimal(21,9) not null default 0,
`taxes_and_charges_deducted` decimal(21,9) not null default 0,
`total_taxes_and_charges` decimal(21,9) not null default 0,
`base_grand_total` decimal(21,9) not null default 0,
`base_rounding_adjustment` decimal(21,9) not null default 0,
`base_rounded_total` decimal(21,9) not null default 0,
`base_in_words` varchar(240),
`grand_total` decimal(21,9) not null default 0,
`rounding_adjustment` decimal(21,9) not null default 0,
`use_company_roundoff_cost_center` int(1) not null default 0,
`rounded_total` decimal(21,9) not null default 0,
`in_words` varchar(240),
`total_advance` decimal(21,9) not null default 0,
`outstanding_amount` decimal(21,9) not null default 0,
`disable_rounded_total` int(1) not null default 0,
`apply_discount_on` varchar(140) default 'Grand Total',
`base_discount_amount` decimal(21,9) not null default 0,
`additional_discount_percentage` decimal(21,9) not null default 0,
`discount_amount` decimal(21,9) not null default 0,
`other_charges_calculation` longtext,
`mode_of_payment` varchar(140),
`base_paid_amount` decimal(21,9) not null default 0,
`clearance_date` date,
`cash_bank_account` varchar(140),
`paid_amount` decimal(21,9) not null default 0,
`allocate_advances_automatically` int(1) not null default 0,
`only_include_allocated_payments` int(1) not null default 0,
`write_off_amount` decimal(21,9) not null default 0,
`base_write_off_amount` decimal(21,9) not null default 0,
`write_off_account` varchar(140),
`write_off_cost_center` varchar(140),
`supplier_address` varchar(140),
`address_display` text,
`contact_person` varchar(140),
`contact_display` text,
`contact_mobile` text,
`contact_email` text,
`shipping_address` varchar(140),
`shipping_address_display` text,
`billing_address` varchar(140),
`billing_address_display` text,
`payment_terms_template` varchar(140),
`ignore_default_payment_terms_template` int(1) not null default 0,
`tc_name` varchar(140),
`terms` longtext,
`status` varchar(140) default 'Draft',
`per_received` decimal(21,9) not null default 0,
`credit_to` varchar(140),
`party_account_currency` varchar(140),
`is_opening` varchar(140) default 'No',
`against_expense_account` text,
`unrealized_profit_loss_account` varchar(140),
`auto_repeat` varchar(140),
`from_date` date,
`to_date` date,
`letter_head` varchar(140),
`group_same_items` int(1) not null default 0,
`select_print_heading` varchar(140),
`language` varchar(140),
`on_hold` int(1) not null default 0,
`release_date` date,
`hold_comment` text,
`is_internal_supplier` int(1) not null default 0,
`represents_company` varchar(140),
`inter_company_invoice_reference` varchar(140),
`is_old_subcontracting_flow` int(1) not null default 0,
`remarks` text,
`_user_tags` text,
`_comments` text,
`_assign` text,
`_liked_by` text,
index `supplier`(`supplier`),
index `posting_date`(`posting_date`),
index `credit_to`(`credit_to`),

			index modified(modified))
			ENGINE=InnoDB
			ROW_FORMAT=DYNAMIC
			CHARACTER SET=utf8mb4
			COLLATE=utf8mb4_unicode_ci
2023-08-22 15:41:37,785 WARNING database DDL Query made to DB:
ALTER TABLE `tabPurchase Invoice`
				ADD INDEX `supplier_is_return_return_against_index`(supplier, is_return, return_against)
2023-08-22 15:41:37,969 WARNING database DDL Query made to DB:
create table `tabBank Transaction` (
			name varchar(140) primary key,
			creation datetime(6),
			modified datetime(6),
			modified_by varchar(140),
			owner varchar(140),
			docstatus int(1) not null default '0',
			idx int(8) not null default '0',
			`naming_series` varchar(140) default 'ACC-BTN-.YYYY.-',
`date` date,
`status` varchar(140) default 'Pending',
`bank_account` varchar(140),
`company` varchar(140),
`deposit` decimal(21,9) not null default 0,
`withdrawal` decimal(21,9) not null default 0,
`currency` varchar(140),
`description` text,
`reference_number` varchar(140),
`transaction_id` varchar(140) unique,
`transaction_type` varchar(50),
`allocated_amount` decimal(21,9) not null default 0,
`amended_from` varchar(140),
`unallocated_amount` decimal(21,9) not null default 0,
`party_type` varchar(140),
`party` varchar(140),
`bank_party_name` varchar(140),
`bank_party_account_number` varchar(140),
`bank_party_iban` varchar(140),
`_user_tags` text,
`_comments` text,
`_assign` text,
`_liked_by` text,

			index modified(modified))
			ENGINE=InnoDB
			ROW_FORMAT=DYNAMIC
			CHARACTER SET=utf8mb4
			COLLATE=utf8mb4_unicode_ci
2023-08-22 15:41:38,137 WARNING database DDL Query made to DB:
create table `tabFiscal Year` (
			name varchar(140) primary key,
			creation datetime(6),
			modified datetime(6),
			modified_by varchar(140),
			owner varchar(140),
			docstatus int(1) not null default '0',
			idx int(8) not null default '0',
			`year` varchar(140) unique,
`disabled` int(1) not null default 0,
`is_short_year` int(1) not null default 0,
`year_start_date` date,
`year_end_date` date,
`auto_created` int(1) not null default 0,
`_user_tags` text,
`_comments` text,
`_assign` text,
`_liked_by` text,

			index modified(modified))
			ENGINE=InnoDB
			ROW_FORMAT=DYNAMIC
			CHARACTER SET=utf8mb4
			COLLATE=utf8mb4_unicode_ci
2023-08-22 15:41:38,350 WARNING database DDL Query made to DB:
create table `tabPOS Closing Entry` (
			name varchar(140) primary key,
			creation datetime(6),
			modified datetime(6),
			modified_by varchar(140),
			owner varchar(140),
			docstatus int(1) not null default '0',
			idx int(8) not null default '0',
			`period_start_date` datetime(6),
`period_end_date` datetime(6),
`posting_date` date,
`posting_time` time(6),
`pos_opening_entry` varchar(140),
`status` varchar(140) default 'Draft',
`company` varchar(140),
`pos_profile` varchar(140),
`user` varchar(140),
`grand_total` decimal(21,9) not null default 0,
`net_total` decimal(21,9) not null default 0,
`total_quantity` decimal(21,9) not null default 0,
`error_message` text,
`amended_from` varchar(140),
`_user_tags` text,
`_comments` text,
`_assign` text,
`_liked_by` text,

			index modified(modified))
			ENGINE=InnoDB
			ROW_FORMAT=DYNAMIC
			CHARACTER SET=utf8mb4
			COLLATE=utf8mb4_unicode_ci
2023-08-22 15:41:38,527 WARNING database DDL Query made to DB:
create table `tabDunning Type` (
			name varchar(140) primary key,
			creation datetime(6),
			modified datetime(6),
			modified_by varchar(140),
			owner varchar(140),
			docstatus int(1) not null default '0',
			idx int(8) not null default '0',
			`dunning_type` varchar(140) unique,
`start_day` int(11) not null default 0,
`end_day` int(11) not null default 0,
`dunning_fee` decimal(21,9) not null default 0,
`rate_of_interest` decimal(21,9) not null default 0,
`_user_tags` text,
`_comments` text,
`_assign` text,
`_liked_by` text,

			index modified(modified))
			ENGINE=InnoDB
			ROW_FORMAT=DYNAMIC
			CHARACTER SET=utf8mb4
			COLLATE=utf8mb4_unicode_ci
2023-08-22 15:41:38,697 WARNING database DDL Query made to DB:
create table `tabShare Type` (
			name varchar(140) primary key,
			creation datetime(6),
			modified datetime(6),
			modified_by varchar(140),
			owner varchar(140),
			docstatus int(1) not null default '0',
			idx int(8) not null default '0',
			`title` varchar(140) unique,
`description` longtext,
`_user_tags` text,
`_comments` text,
`_assign` text,
`_liked_by` text,

			index modified(modified))
			ENGINE=InnoDB
			ROW_FORMAT=DYNAMIC
			CHARACTER SET=utf8mb4
			COLLATE=utf8mb4_unicode_ci
2023-08-22 15:41:38,874 WARNING database DDL Query made to DB:
create table `tabShare Transfer` (
			name varchar(140) primary key,
			creation datetime(6),
			modified datetime(6),
			modified_by varchar(140),
			owner varchar(140),
			docstatus int(1) not null default '0',
			idx int(8) not null default '0',
			`transfer_type` varchar(140),
`date` date,
`from_shareholder` varchar(140),
`from_folio_no` varchar(140),
`to_shareholder` varchar(140),
`to_folio_no` varchar(140),
`equity_or_liability_account` varchar(140),
`asset_account` varchar(140),
`share_type` varchar(140),
`from_no` int(11) not null default 0,
`rate` decimal(21,9) not null default 0,
`no_of_shares` int(11) not null default 0,
`to_no` int(11) not null default 0,
`amount` decimal(21,9) not null default 0,
`company` varchar(140),
`remarks` longtext,
`amended_from` varchar(140),
`_user_tags` text,
`_comments` text,
`_assign` text,
`_liked_by` text,

			index modified(modified))
			ENGINE=InnoDB
			ROW_FORMAT=DYNAMIC
			CHARACTER SET=utf8mb4
			COLLATE=utf8mb4_unicode_ci
2023-08-22 15:41:39,028 WARNING database DDL Query made to DB:
create table `tabJournal Entry Template` (
			name varchar(140) primary key,
			creation datetime(6),
			modified datetime(6),
			modified_by varchar(140),
			owner varchar(140),
			docstatus int(1) not null default '0',
			idx int(8) not null default '0',
			`template_title` varchar(140) unique,
`voucher_type` varchar(140),
`naming_series` varchar(140),
`company` varchar(140),
`is_opening` varchar(140) default 'No',
`multi_currency` int(1) not null default 0,
`_user_tags` text,
`_comments` text,
`_assign` text,
`_liked_by` text,

			index modified(modified))
			ENGINE=InnoDB
			ROW_FORMAT=DYNAMIC
			CHARACTER SET=utf8mb4
			COLLATE=utf8mb4_unicode_ci
2023-08-22 15:41:39,188 WARNING database DDL Query made to DB:
create table `tabPayment Term` (
			name varchar(140) primary key,
			creation datetime(6),
			modified datetime(6),
			modified_by varchar(140),
			owner varchar(140),
			docstatus int(1) not null default '0',
			idx int(8) not null default '0',
			`payment_term_name` varchar(140) unique,
`invoice_portion` decimal(21,9) not null default 0,
`mode_of_payment` varchar(140),
`due_date_based_on` varchar(140),
`credit_days` int(11) not null default 0,
`credit_months` int(11) not null default 0,
`discount_type` varchar(140) default 'Percentage',
`discount` decimal(21,9) not null default 0,
`discount_validity_based_on` varchar(140) default 'Day(s) after invoice date',
`discount_validity` int(11) not null default 0,
`description` text,
`_user_tags` text,
`_comments` text,
`_assign` text,
`_liked_by` text,

			index modified(modified))
			ENGINE=InnoDB
			ROW_FORMAT=DYNAMIC
			CHARACTER SET=utf8mb4
			COLLATE=utf8mb4_unicode_ci
2023-08-22 15:41:39,414 WARNING database DDL Query made to DB:
create table `tabPayment Entry` (
			name varchar(140) primary key,
			creation datetime(6),
			modified datetime(6),
			modified_by varchar(140),
			owner varchar(140),
			docstatus int(1) not null default '0',
			idx int(8) not null default '0',
			`naming_series` varchar(140),
`payment_type` varchar(140),
`payment_order_status` varchar(140),
`posting_date` date,
`company` varchar(140),
`mode_of_payment` varchar(140),
`party_type` varchar(140),
`party` varchar(140),
`party_name` varchar(140),
`bank_account` varchar(140),
`party_bank_account` varchar(140),
`contact_person` varchar(140),
`contact_email` varchar(140),
`party_balance` decimal(21,9) not null default 0,
`paid_from` varchar(140),
`paid_from_account_type` varchar(140),
`paid_from_account_currency` varchar(140),
`paid_from_account_balance` decimal(21,9) not null default 0,
`paid_to` varchar(140),
`paid_to_account_type` varchar(140),
`paid_to_account_currency` varchar(140),
`paid_to_account_balance` decimal(21,9) not null default 0,
`paid_amount` decimal(21,9) not null default 0,
`paid_amount_after_tax` decimal(21,9) not null default 0,
`source_exchange_rate` decimal(21,9) not null default 0,
`base_paid_amount` decimal(21,9) not null default 0,
`base_paid_amount_after_tax` decimal(21,9) not null default 0,
`received_amount` decimal(21,9) not null default 0,
`received_amount_after_tax` decimal(21,9) not null default 0,
`target_exchange_rate` decimal(21,9) not null default 0,
`base_received_amount` decimal(21,9) not null default 0,
`base_received_amount_after_tax` decimal(21,9) not null default 0,
`total_allocated_amount` decimal(21,9) not null default 0,
`base_total_allocated_amount` decimal(21,9) not null default 0,
`unallocated_amount` decimal(21,9) not null default 0,
`difference_amount` decimal(21,9) not null default 0,
`purchase_taxes_and_charges_template` varchar(140),
`sales_taxes_and_charges_template` varchar(140),
`apply_tax_withholding_amount` int(1) not null default 0,
`tax_withholding_category` varchar(140),
`base_total_taxes_and_charges` decimal(21,9) not null default 0,
`total_taxes_and_charges` decimal(21,9) not null default 0,
`reference_no` varchar(140),
`reference_date` date,
`clearance_date` date,
`project` varchar(140),
`cost_center` varchar(140),
`status` varchar(140) default 'Draft',
`custom_remarks` int(1) not null default 0,
`remarks` text,
`letter_head` varchar(140),
`print_heading` varchar(140),
`bank` varchar(140),
`bank_account_no` varchar(140),
`payment_order` varchar(140),
`auto_repeat` varchar(140),
`amended_from` varchar(140),
`title` varchar(140),
`_user_tags` text,
`_comments` text,
`_assign` text,
`_liked_by` text,
index `party_type`(`party_type`),
index `reference_date`(`reference_date`),

			index modified(modified))
			ENGINE=InnoDB
			ROW_FORMAT=DYNAMIC
			CHARACTER SET=utf8mb4
			COLLATE=utf8mb4_unicode_ci
2023-08-22 15:41:39,580 WARNING database DDL Query made to DB:
create table `tabBudget` (
			name varchar(140) primary key,
			creation datetime(6),
			modified datetime(6),
			modified_by varchar(140),
			owner varchar(140),
			docstatus int(1) not null default '0',
			idx int(8) not null default '0',
			`budget_against` varchar(140) default 'Cost Center',
`company` varchar(140),
`cost_center` varchar(140),
`naming_series` varchar(140),
`project` varchar(140),
`fiscal_year` varchar(140),
`monthly_distribution` varchar(140),
`amended_from` varchar(140),
`applicable_on_material_request` int(1) not null default 0,
`action_if_annual_budget_exceeded_on_mr` varchar(140) default 'Stop',
`action_if_accumulated_monthly_budget_exceeded_on_mr` varchar(140) default 'Warn',
`applicable_on_purchase_order` int(1) not null default 0,
`action_if_annual_budget_exceeded_on_po` varchar(140) default 'Stop',
`action_if_accumulated_monthly_budget_exceeded_on_po` varchar(140) default 'Warn',
`applicable_on_booking_actual_expenses` int(1) not null default 0,
`action_if_annual_budget_exceeded` varchar(140) default 'Stop',
`action_if_accumulated_monthly_budget_exceeded` varchar(140) default 'Warn',
`_user_tags` text,
`_comments` text,
`_assign` text,
`_liked_by` text,

			index modified(modified))
			ENGINE=InnoDB
			ROW_FORMAT=DYNAMIC
			CHARACTER SET=utf8mb4
			COLLATE=utf8mb4_unicode_ci
2023-08-22 15:41:39,708 WARNING database DDL Query made to DB:
create table `tabProcess Payment Reconciliation Log Allocations` (
			name varchar(140) primary key,
			creation datetime(6),
			modified datetime(6),
			modified_by varchar(140),
			owner varchar(140),
			docstatus int(1) not null default '0',
			idx int(8) not null default '0',
			`reference_type` varchar(140),
`reference_name` varchar(140),
`reference_row` varchar(140),
`invoice_type` varchar(140),
`invoice_number` varchar(140),
`allocated_amount` decimal(21,9) not null default 0,
`unreconciled_amount` decimal(21,9) not null default 0,
`amount` decimal(21,9) not null default 0,
`is_advance` varchar(140),
`difference_amount` decimal(21,9) not null default 0,
`difference_account` varchar(140),
`exchange_rate` decimal(21,9) not null default 0,
`currency` varchar(140),
`reconciled` int(1) not null default 0,
parent varchar(140),
parentfield varchar(140),
parenttype varchar(140),
index parent(parent),

			index modified(modified))
			ENGINE=InnoDB
			ROW_FORMAT=DYNAMIC
			CHARACTER SET=utf8mb4
			COLLATE=utf8mb4_unicode_ci
2023-08-22 15:41:39,872 WARNING database DDL Query made to DB:
create table `tabTax Rule` (
			name varchar(140) primary key,
			creation datetime(6),
			modified datetime(6),
			modified_by varchar(140),
			owner varchar(140),
			docstatus int(1) not null default '0',
			idx int(8) not null default '0',
			`tax_type` varchar(140) default 'Sales',
`use_for_shopping_cart` int(1) not null default 1,
`sales_tax_template` varchar(140),
`purchase_tax_template` varchar(140),
`customer` varchar(140),
`supplier` varchar(140),
`item` varchar(140),
`billing_city` varchar(140),
`billing_county` varchar(140),
`billing_state` varchar(140),
`billing_zipcode` varchar(140),
`billing_country` varchar(140),
`tax_category` varchar(140),
`customer_group` varchar(140),
`supplier_group` varchar(140),
`item_group` varchar(140),
`shipping_city` varchar(140),
`shipping_county` varchar(140),
`shipping_state` varchar(140),
`shipping_zipcode` varchar(140),
`shipping_country` varchar(140),
`from_date` date,
`to_date` date,
`priority` int(11) not null default 1,
`company` varchar(140),
`_user_tags` text,
`_comments` text,
`_assign` text,
`_liked_by` text,

			index modified(modified))
			ENGINE=InnoDB
			ROW_FORMAT=DYNAMIC
			CHARACTER SET=utf8mb4
			COLLATE=utf8mb4_unicode_ci
2023-08-22 15:41:40,043 WARNING database DDL Query made to DB:
create table `tabPOS Opening Entry` (
			name varchar(140) primary key,
			creation datetime(6),
			modified datetime(6),
			modified_by varchar(140),
			owner varchar(140),
			docstatus int(1) not null default '0',
			idx int(8) not null default '0',
			`period_start_date` datetime(6),
`period_end_date` date,
`status` varchar(140) default 'Draft',
`posting_date` date,
`set_posting_date` int(1) not null default 0,
`company` varchar(140),
`pos_profile` varchar(140),
`pos_closing_entry` varchar(140),
`user` varchar(140),
`amended_from` varchar(140),
`_user_tags` text,
`_comments` text,
`_assign` text,
`_liked_by` text,

			index modified(modified))
			ENGINE=InnoDB
			ROW_FORMAT=DYNAMIC
			CHARACTER SET=utf8mb4
			COLLATE=utf8mb4_unicode_ci
2023-08-22 15:41:40,214 WARNING database DDL Query made to DB:
create table `tabShareholder` (
			name varchar(140) primary key,
			creation datetime(6),
			modified datetime(6),
			modified_by varchar(140),
			owner varchar(140),
			docstatus int(1) not null default '0',
			idx int(8) not null default '0',
			`title` varchar(140),
`naming_series` varchar(140),
`folio_no` varchar(140) unique,
`company` varchar(140),
`is_company` int(1) not null default 0,
`contact_list` longtext,
`_user_tags` text,
`_comments` text,
`_assign` text,
`_liked_by` text,

			index modified(modified))
			ENGINE=InnoDB
			ROW_FORMAT=DYNAMIC
			CHARACTER SET=utf8mb4
			COLLATE=utf8mb4_unicode_ci
2023-08-22 15:41:40,389 WARNING database DDL Query made to DB:
create table `tabAdvance Taxes and Charges` (
			name varchar(140) primary key,
			creation datetime(6),
			modified datetime(6),
			modified_by varchar(140),
			owner varchar(140),
			docstatus int(1) not null default '0',
			idx int(8) not null default '0',
			`add_deduct_tax` varchar(140),
`charge_type` varchar(140),
`row_id` varchar(140),
`account_head` varchar(140),
`description` text,
`included_in_paid_amount` int(1) not null default 0,
`cost_center` varchar(140),
`rate` decimal(21,9) not null default 0,
`currency` varchar(140),
`tax_amount` decimal(21,9) not null default 0,
`total` decimal(21,9) not null default 0,
`allocated_amount` decimal(21,9) not null default 0,
`base_tax_amount` decimal(21,9) not null default 0,
`base_total` decimal(21,9) not null default 0,
index `account_head`(`account_head`),
parent varchar(140),
parentfield varchar(140),
parenttype varchar(140),
index parent(parent),

			index modified(modified))
			ENGINE=InnoDB
			ROW_FORMAT=DYNAMIC
			CHARACTER SET=utf8mb4
			COLLATE=utf8mb4_unicode_ci
2023-08-22 15:41:40,583 WARNING database DDL Query made to DB:
create table `tabJournal Entry Account` (
			name varchar(140) primary key,
			creation datetime(6),
			modified datetime(6),
			modified_by varchar(140),
			owner varchar(140),
			docstatus int(1) not null default '0',
			idx int(8) not null default '0',
			`account` varchar(140),
`account_type` varchar(140),
`balance` decimal(21,9) not null default 0,
`bank_account` varchar(140),
`party_type` varchar(140),
`party` varchar(140),
`party_balance` decimal(21,9) not null default 0,
`cost_center` varchar(140),
`project` varchar(140),
`account_currency` varchar(140),
`exchange_rate` decimal(21,9) not null default 0,
`debit_in_account_currency` decimal(21,9) not null default 0,
`debit` decimal(21,9) not null default 0,
`credit_in_account_currency` decimal(21,9) not null default 0,
`credit` decimal(21,9) not null default 0,
`reference_type` varchar(140),
`reference_name` varchar(140),
`reference_due_date` date,
`reference_detail_no` varchar(140),
`is_advance` varchar(140),
`user_remark` text,
`against_account` text,
index `account`(`account`),
index `party_type`(`party_type`),
parent varchar(140),
parentfield varchar(140),
parenttype varchar(140),
index parent(parent),

			index modified(modified))
			ENGINE=InnoDB
			ROW_FORMAT=DYNAMIC
			CHARACTER SET=utf8mb4
			COLLATE=utf8mb4_unicode_ci
2023-08-22 15:41:40,761 WARNING database DDL Query made to DB:
create table `tabCoupon Code` (
			name varchar(140) primary key,
			creation datetime(6),
			modified datetime(6),
			modified_by varchar(140),
			owner varchar(140),
			docstatus int(1) not null default '0',
			idx int(8) not null default '0',
			`coupon_name` varchar(140) unique,
`coupon_type` varchar(140),
`customer` varchar(140),
`coupon_code` varchar(140) unique,
`pricing_rule` varchar(140),
`valid_from` date,
`valid_upto` date,
`maximum_use` int(11) not null default 0,
`used` int(11) not null default 0,
`description` longtext,
`amended_from` varchar(140),
`_user_tags` text,
`_comments` text,
`_assign` text,
`_liked_by` text,

			index modified(modified))
			ENGINE=InnoDB
			ROW_FORMAT=DYNAMIC
			CHARACTER SET=utf8mb4
			COLLATE=utf8mb4_unicode_ci
2023-08-22 15:41:40,906 WARNING database DDL Query made to DB:
create table `tabPayment Order` (
			name varchar(140) primary key,
			creation datetime(6),
			modified datetime(6),
			modified_by varchar(140),
			owner varchar(140),
			docstatus int(1) not null default '0',
			idx int(8) not null default '0',
			`naming_series` varchar(140) default 'PMO-',
`company` varchar(140),
`payment_order_type` varchar(140),
`party` varchar(140),
`posting_date` date,
`company_bank` varchar(140),
`company_bank_account` varchar(140),
`account` varchar(140),
`amended_from` varchar(140),
`_user_tags` text,
`_comments` text,
`_assign` text,
`_liked_by` text,

			index modified(modified))
			ENGINE=InnoDB
			ROW_FORMAT=DYNAMIC
			CHARACTER SET=utf8mb4
			COLLATE=utf8mb4_unicode_ci
2023-08-22 15:41:41,075 WARNING database DDL Query made to DB:
create table `tabTax Withholding Category` (
			name varchar(140) primary key,
			creation datetime(6),
			modified datetime(6),
			modified_by varchar(140),
			owner varchar(140),
			docstatus int(1) not null default '0',
			idx int(8) not null default '0',
			`category_name` varchar(140),
`round_off_tax_amount` int(1) not null default 0,
`consider_party_ledger_amount` int(1) not null default 0,
`tax_on_excess_amount` int(1) not null default 0,
`_user_tags` text,
`_comments` text,
`_assign` text,
`_liked_by` text,

			index modified(modified))
			ENGINE=InnoDB
			ROW_FORMAT=DYNAMIC
			CHARACTER SET=utf8mb4
			COLLATE=utf8mb4_unicode_ci
2023-08-22 15:41:41,230 WARNING database DDL Query made to DB:
create table `tabTax Withheld Vouchers` (
			name varchar(140) primary key,
			creation datetime(6),
			modified datetime(6),
			modified_by varchar(140),
			owner varchar(140),
			docstatus int(1) not null default '0',
			idx int(8) not null default '0',
			`voucher_type` varchar(140),
`voucher_name` varchar(140),
`taxable_amount` decimal(21,9) not null default 0,
parent varchar(140),
parentfield varchar(140),
parenttype varchar(140),
index parent(parent),

			index modified(modified))
			ENGINE=InnoDB
			ROW_FORMAT=DYNAMIC
			CHARACTER SET=utf8mb4
			COLLATE=utf8mb4_unicode_ci
2023-08-22 15:41:41,415 WARNING database DDL Query made to DB:
create table `tabPOS Item Group` (
			name varchar(140) primary key,
			creation datetime(6),
			modified datetime(6),
			modified_by varchar(140),
			owner varchar(140),
			docstatus int(1) not null default '0',
			idx int(8) not null default '0',
			`item_group` varchar(140),
parent varchar(140),
parentfield varchar(140),
parenttype varchar(140),
index parent(parent),

			index modified(modified))
			ENGINE=InnoDB
			ROW_FORMAT=DYNAMIC
			CHARACTER SET=utf8mb4
			COLLATE=utf8mb4_unicode_ci
2023-08-22 15:41:41,559 WARNING database DDL Query made to DB:
create table `tabDiscounted Invoice` (
			name varchar(140) primary key,
			creation datetime(6),
			modified datetime(6),
			modified_by varchar(140),
			owner varchar(140),
			docstatus int(1) not null default '0',
			idx int(8) not null default '0',
			`sales_invoice` varchar(140),
`customer` varchar(140),
`posting_date` date,
`outstanding_amount` decimal(21,9) not null default 0,
`debit_to` varchar(140),
index `sales_invoice`(`sales_invoice`),
parent varchar(140),
parentfield varchar(140),
parenttype varchar(140),
index parent(parent),

			index modified(modified))
			ENGINE=InnoDB
			ROW_FORMAT=DYNAMIC
			CHARACTER SET=utf8mb4
			COLLATE=utf8mb4_unicode_ci
2023-08-22 15:41:41,716 WARNING database DDL Query made to DB:
create table `tabPSOA Cost Center` (
			name varchar(140) primary key,
			creation datetime(6),
			modified datetime(6),
			modified_by varchar(140),
			owner varchar(140),
			docstatus int(1) not null default '0',
			idx int(8) not null default '0',
			`cost_center_name` varchar(140),
parent varchar(140),
parentfield varchar(140),
parenttype varchar(140),
index parent(parent),

			index modified(modified))
			ENGINE=InnoDB
			ROW_FORMAT=DYNAMIC
			CHARACTER SET=utf8mb4
			COLLATE=utf8mb4_unicode_ci
2023-08-22 15:41:41,842 WARNING database DDL Query made to DB:
create table `tabBudget Account` (
			name varchar(140) primary key,
			creation datetime(6),
			modified datetime(6),
			modified_by varchar(140),
			owner varchar(140),
			docstatus int(1) not null default '0',
			idx int(8) not null default '0',
			`account` varchar(140),
`budget_amount` decimal(21,9) not null default 0,
parent varchar(140),
parentfield varchar(140),
parenttype varchar(140),
index parent(parent),

			index modified(modified))
			ENGINE=InnoDB
			ROW_FORMAT=DYNAMIC
			CHARACTER SET=utf8mb4
			COLLATE=utf8mb4_unicode_ci
2023-08-22 15:41:41,994 WARNING database DDL Query made to DB:
create table `tabBank Statement Import` (
			name varchar(140) primary key,
			creation datetime(6),
			modified datetime(6),
			modified_by varchar(140),
			owner varchar(140),
			docstatus int(1) not null default '0',
			idx int(8) not null default '0',
			`company` varchar(140),
`bank_account` varchar(140),
`bank` varchar(140),
`google_sheets_url` varchar(140),
`import_file` text,
`status` varchar(140) default 'Pending',
`template_options` longtext,
`template_warnings` longtext,
`statement_import_log` longtext,
`show_failed_logs` int(1) not null default 0,
`reference_doctype` varchar(140) default 'Bank Transaction',
`import_type` varchar(140) default 'Insert New Records',
`submit_after_import` int(1) not null default 1,
`mute_emails` int(1) not null default 1,
`_user_tags` text,
`_comments` text,
`_assign` text,
`_liked_by` text,

			index modified(modified))
			ENGINE=InnoDB
			ROW_FORMAT=DYNAMIC
			CHARACTER SET=utf8mb4
			COLLATE=utf8mb4_unicode_ci
2023-08-22 15:41:42,182 WARNING database DDL Query made to DB:
create table `tabPOS Profile` (
			name varchar(140) primary key,
			creation datetime(6),
			modified datetime(6),
			modified_by varchar(140),
			owner varchar(140),
			docstatus int(1) not null default '0',
			idx int(8) not null default '0',
			`company` varchar(140),
`customer` varchar(140),
`country` varchar(140),
`disabled` int(1) not null default 0,
`warehouse` varchar(140),
`campaign` varchar(140),
`company_address` varchar(140),
`hide_images` int(1) not null default 0,
`hide_unavailable_items` int(1) not null default 0,
`auto_add_item_to_cart` int(1) not null default 0,
`validate_stock_on_save` int(1) not null default 0,
`update_stock` int(1) not null default 1,
`ignore_pricing_rule` int(1) not null default 0,
`allow_rate_change` int(1) not null default 0,
`allow_discount_change` int(1) not null default 0,
`print_format` varchar(140),
`letter_head` varchar(140),
`tc_name` varchar(140),
`select_print_heading` varchar(140),
`selling_price_list` varchar(140),
`currency` varchar(140),
`write_off_account` varchar(140),
`write_off_cost_center` varchar(140),
`write_off_limit` decimal(21,9) not null default 1.0,
`account_for_change_amount` varchar(140),
`disable_rounded_total` int(1) not null default 0,
`income_account` varchar(140),
`expense_account` varchar(140),
`taxes_and_charges` varchar(140),
`tax_category` varchar(140),
`apply_discount_on` varchar(140) default 'Grand Total',
`cost_center` varchar(140),
`_user_tags` text,
`_comments` text,
`_assign` text,
`_liked_by` text,

			index modified(modified))
			ENGINE=InnoDB
			ROW_FORMAT=DYNAMIC
			CHARACTER SET=utf8mb4
			COLLATE=utf8mb4_unicode_ci
2023-08-22 15:41:42,583 WARNING database DDL Query made to DB:
create table `tabPOS Invoice` (
			name varchar(140) primary key,
			creation datetime(6),
			modified datetime(6),
			modified_by varchar(140),
			owner varchar(140),
			docstatus int(1) not null default '0',
			idx int(8) not null default '0',
			`title` varchar(140) default '{customer_name}',
`naming_series` varchar(140),
`customer` varchar(140),
`customer_name` varchar(140),
`tax_id` varchar(140),
`pos_profile` varchar(140),
`consolidated_invoice` varchar(140),
`is_pos` int(1) not null default 1,
`is_return` int(1) not null default 0,
`update_billed_amount_in_sales_order` int(1) not null default 0,
`company` varchar(140),
`posting_date` date,
`posting_time` time(6),
`set_posting_time` int(1) not null default 0,
`due_date` date,
`amended_from` varchar(140),
`return_against` varchar(140),
`project` varchar(140),
`cost_center` varchar(140),
`po_no` varchar(140),
`po_date` date,
`customer_address` varchar(140),
`address_display` text,
`contact_person` varchar(140),
`contact_display` text,
`contact_mobile` varchar(140),
`contact_email` varchar(140),
`territory` varchar(140),
`shipping_address_name` varchar(140),
`shipping_address` text,
`company_address` varchar(140),
`company_address_display` text,
`currency` varchar(140),
`conversion_rate` decimal(21,9) not null default 0,
`selling_price_list` varchar(140),
`price_list_currency` varchar(140),
`plc_conversion_rate` decimal(21,9) not null default 0,
`ignore_pricing_rule` int(1) not null default 0,
`set_warehouse` varchar(140),
`update_stock` int(1) not null default 0,
`scan_barcode` varchar(140),
`total_billing_amount` decimal(21,9) not null default 0,
`total_qty` decimal(21,9) not null default 0,
`base_total` decimal(21,9) not null default 0,
`base_net_total` decimal(21,9) not null default 0,
`total` decimal(21,9) not null default 0,
`net_total` decimal(21,9) not null default 0,
`total_net_weight` decimal(21,9) not null default 0,
`taxes_and_charges` varchar(140),
`shipping_rule` varchar(140),
`tax_category` varchar(140),
`other_charges_calculation` longtext,
`base_total_taxes_and_charges` decimal(21,9) not null default 0,
`total_taxes_and_charges` decimal(21,9) not null default 0,
`loyalty_points` int(11) not null default 0,
`loyalty_amount` decimal(21,9) not null default 0,
`redeem_loyalty_points` int(1) not null default 0,
`loyalty_program` varchar(140),
`loyalty_redemption_account` varchar(140),
`loyalty_redemption_cost_center` varchar(140),
`coupon_code` varchar(140),
`apply_discount_on` varchar(140) default 'Grand Total',
`base_discount_amount` decimal(21,9) not null default 0,
`additional_discount_percentage` decimal(21,9) not null default 0,
`discount_amount` decimal(21,9) not null default 0,
`base_grand_total` decimal(21,9) not null default 0,
`base_rounding_adjustment` decimal(21,9) not null default 0,
`base_rounded_total` decimal(21,9) not null default 0,
`base_in_words` varchar(140),
`grand_total` decimal(21,9) not null default 0,
`rounding_adjustment` decimal(21,9) not null default 0,
`rounded_total` decimal(21,9) not null default 0,
`in_words` varchar(140),
`total_advance` decimal(21,9) not null default 0,
`outstanding_amount` decimal(21,9) not null default 0,
`allocate_advances_automatically` int(1) not null default 0,
`payment_terms_template` varchar(140),
`cash_bank_account` varchar(140),
`base_paid_amount` decimal(21,9) not null default 0,
`paid_amount` decimal(21,9) not null default 0,
`base_change_amount` decimal(21,9) not null default 0,
`change_amount` decimal(21,9) not null default 0,
`account_for_change_amount` varchar(140),
`write_off_amount` decimal(21,9) not null default 0,
`base_write_off_amount` decimal(21,9) not null default 0,
`write_off_outstanding_amount_automatically` int(1) not null default 0,
`write_off_account` varchar(140),
`write_off_cost_center` varchar(140),
`tc_name` varchar(140),
`terms` longtext,
`letter_head` varchar(140),
`group_same_items` int(1) not null default 0,
`language` varchar(140),
`select_print_heading` varchar(140),
`inter_company_invoice_reference` varchar(140),
`customer_group` varchar(140),
`campaign` varchar(140),
`is_discounted` int(1) not null default 0,
`status` varchar(140) default 'Draft',
`source` varchar(140),
`debit_to` varchar(140),
`party_account_currency` varchar(140),
`is_opening` varchar(140) default 'No',
`remarks` text,
`sales_partner` varchar(140),
`amount_eligible_for_commission` decimal(21,9) not null default 0,
`commission_rate` decimal(21,9) not null default 0,
`total_commission` decimal(21,9) not null default 0,
`from_date` date,
`to_date` date,
`auto_repeat` varchar(140),
`against_income_account` text,
`_user_tags` text,
`_comments` text,
`_assign` text,
`_liked_by` text,
`_seen` text,
index `customer`(`customer`),
index `posting_date`(`posting_date`),
index `return_against`(`return_against`),
index `debit_to`(`debit_to`),

			index modified(modified))
			ENGINE=InnoDB
			ROW_FORMAT=DYNAMIC
			CHARACTER SET=utf8mb4
			COLLATE=utf8mb4_unicode_ci
2023-08-22 15:41:42,755 WARNING database DDL Query made to DB:
create table `tabPOS Payment Method` (
			name varchar(140) primary key,
			creation datetime(6),
			modified datetime(6),
			modified_by varchar(140),
			owner varchar(140),
			docstatus int(1) not null default '0',
			idx int(8) not null default '0',
			`default` int(1) not null default 0,
`allow_in_returns` int(1) not null default 0,
`mode_of_payment` varchar(140),
parent varchar(140),
parentfield varchar(140),
parenttype varchar(140),
index parent(parent),

			index modified(modified))
			ENGINE=InnoDB
			ROW_FORMAT=DYNAMIC
			CHARACTER SET=utf8mb4
			COLLATE=utf8mb4_unicode_ci
2023-08-22 15:41:42,878 WARNING database DDL Query made to DB:
create table `tabCurrency Exchange Settings Result` (
			name varchar(140) primary key,
			creation datetime(6),
			modified datetime(6),
			modified_by varchar(140),
			owner varchar(140),
			docstatus int(1) not null default '0',
			idx int(8) not null default '0',
			`key` varchar(140),
parent varchar(140),
parentfield varchar(140),
parenttype varchar(140),
index parent(parent),

			index modified(modified))
			ENGINE=InnoDB
			ROW_FORMAT=DYNAMIC
			CHARACTER SET=utf8mb4
			COLLATE=utf8mb4_unicode_ci
2023-08-22 15:41:43,024 WARNING database DDL Query made to DB:
create table `tabCash Flow Mapping Template Details` (
			name varchar(140) primary key,
			creation datetime(6),
			modified datetime(6),
			modified_by varchar(140),
			owner varchar(140),
			docstatus int(1) not null default '0',
			idx int(8) not null default '0',
			`mapping` varchar(140) unique,
parent varchar(140),
parentfield varchar(140),
parenttype varchar(140),
index parent(parent),

			index modified(modified))
			ENGINE=InnoDB
			ROW_FORMAT=DYNAMIC
			CHARACTER SET=utf8mb4
			COLLATE=utf8mb4_unicode_ci
2023-08-22 15:41:43,169 WARNING database DDL Query made to DB:
create table `tabPOS Search Fields` (
			name varchar(140) primary key,
			creation datetime(6),
			modified datetime(6),
			modified_by varchar(140),
			owner varchar(140),
			docstatus int(1) not null default '0',
			idx int(8) not null default '0',
			`field` varchar(140),
`fieldname` varchar(140),
parent varchar(140),
parentfield varchar(140),
parenttype varchar(140),
index parent(parent),

			index modified(modified))
			ENGINE=InnoDB
			ROW_FORMAT=DYNAMIC
			CHARACTER SET=utf8mb4
			COLLATE=utf8mb4_unicode_ci
2023-08-22 15:41:43,331 WARNING database DDL Query made to DB:
create table `tabPayment Terms Template Detail` (
			name varchar(140) primary key,
			creation datetime(6),
			modified datetime(6),
			modified_by varchar(140),
			owner varchar(140),
			docstatus int(1) not null default '0',
			idx int(8) not null default '0',
			`payment_term` varchar(140),
`description` text,
`invoice_portion` decimal(21,9) not null default 0,
`mode_of_payment` varchar(140),
`due_date_based_on` varchar(140),
`credit_days` int(11) not null default 0,
`credit_months` int(11) not null default 0,
`discount_type` varchar(140) default 'Percentage',
`discount` decimal(21,9) not null default 0,
`discount_validity_based_on` varchar(140) default 'Day(s) after invoice date',
`discount_validity` int(11) not null default 0,
parent varchar(140),
parentfield varchar(140),
parenttype varchar(140),
index parent(parent),

			index modified(modified))
			ENGINE=InnoDB
			ROW_FORMAT=DYNAMIC
			CHARACTER SET=utf8mb4
			COLLATE=utf8mb4_unicode_ci
2023-08-22 15:41:43,478 WARNING database DDL Query made to DB:
create table `tabPurchase Taxes and Charges Template` (
			name varchar(140) primary key,
			creation datetime(6),
			modified datetime(6),
			modified_by varchar(140),
			owner varchar(140),
			docstatus int(1) not null default '0',
			idx int(8) not null default '0',
			`title` varchar(140),
`is_default` int(1) not null default 0,
`disabled` int(1) not null default 0,
`company` varchar(140),
`tax_category` varchar(140),
`_user_tags` text,
`_comments` text,
`_assign` text,
`_liked_by` text,

			index modified(modified))
			ENGINE=InnoDB
			ROW_FORMAT=DYNAMIC
			CHARACTER SET=utf8mb4
			COLLATE=utf8mb4_unicode_ci
2023-08-22 15:41:43,628 WARNING database DDL Query made to DB:
create table `tabSales Invoice Advance` (
			name varchar(140) primary key,
			creation datetime(6),
			modified datetime(6),
			modified_by varchar(140),
			owner varchar(140),
			docstatus int(1) not null default '0',
			idx int(8) not null default '0',
			`reference_type` varchar(140),
`reference_name` varchar(140),
`remarks` text,
`reference_row` varchar(140),
`advance_amount` decimal(21,9) not null default 0,
`allocated_amount` decimal(21,9) not null default 0,
`exchange_gain_loss` decimal(21,9) not null default 0,
`ref_exchange_rate` decimal(21,9) not null default 0,
parent varchar(140),
parentfield varchar(140),
parenttype varchar(140),
index parent(parent),

			index modified(modified))
			ENGINE=InnoDB
			ROW_FORMAT=DYNAMIC
			CHARACTER SET=utf8mb4
			COLLATE=utf8mb4_unicode_ci
2023-08-22 15:41:43,794 WARNING database DDL Query made to DB:
create table `tabPayment Reconciliation Allocation` (
			name varchar(140) primary key,
			creation datetime(6),
			modified datetime(6),
			modified_by varchar(140),
			owner varchar(140),
			docstatus int(1) not null default '0',
			idx int(8) not null default '0',
			`reference_type` varchar(140),
`reference_name` varchar(140),
`reference_row` varchar(140),
`invoice_type` varchar(140),
`invoice_number` varchar(140),
`allocated_amount` decimal(21,9) not null default 0,
`unreconciled_amount` decimal(21,9) not null default 0,
`amount` decimal(21,9) not null default 0,
`is_advance` varchar(140),
`difference_amount` decimal(21,9) not null default 0,
`difference_account` varchar(140),
`exchange_rate` decimal(21,9) not null default 0,
`currency` varchar(140),
parent varchar(140),
parentfield varchar(140),
parenttype varchar(140),
index parent(parent),

			index modified(modified))
			ENGINE=InnoDB
			ROW_FORMAT=DYNAMIC
			CHARACTER SET=utf8mb4
			COLLATE=utf8mb4_unicode_ci
2023-08-22 15:41:43,954 WARNING database DDL Query made to DB:
create table `tabPayment Ledger Entry` (
			name varchar(140) primary key,
			creation datetime(6),
			modified datetime(6),
			modified_by varchar(140),
			owner varchar(140),
			docstatus int(1) not null default '0',
			idx int(8) not null default '0',
			`posting_date` date,
`company` varchar(140),
`account_type` varchar(140),
`account` varchar(140),
`party_type` varchar(140),
`party` varchar(140),
`due_date` date,
`cost_center` varchar(140),
`finance_book` varchar(140),
`voucher_type` varchar(140),
`voucher_no` varchar(140),
`against_voucher_type` varchar(140),
`against_voucher_no` varchar(140),
`amount` decimal(21,9) not null default 0,
`account_currency` varchar(140),
`amount_in_account_currency` decimal(21,9) not null default 0,
`delinked` int(1) not null default 0,
`remarks` text,
`_user_tags` text,
`_comments` text,
`_assign` text,
`_liked_by` text,
index `company`(`company`),
index `account`(`account`),
index `party_type`(`party_type`),
index `party`(`party`),

			index modified(modified))
			ENGINE=InnoDB
			ROW_FORMAT=DYNAMIC
			CHARACTER SET=utf8mb4
			COLLATE=utf8mb4_unicode_ci
2023-08-22 15:41:44,093 WARNING database DDL Query made to DB:
ALTER TABLE `tabPayment Ledger Entry`
				ADD INDEX `against_voucher_no_against_voucher_type_index`(against_voucher_no, against_voucher_type)
2023-08-22 15:41:44,157 WARNING database DDL Query made to DB:
ALTER TABLE `tabPayment Ledger Entry`
				ADD INDEX `voucher_no_voucher_type_index`(voucher_no, voucher_type)
2023-08-22 15:41:44,235 WARNING database DDL Query made to DB:
create table `tabCash Flow Mapper` (
			name varchar(140) primary key,
			creation datetime(6),
			modified datetime(6),
			modified_by varchar(140),
			owner varchar(140),
			docstatus int(1) not null default '0',
			idx int(8) not null default '0',
			`section_name` varchar(140),
`section_header` varchar(140),
`section_leader` varchar(140),
`section_subtotal` varchar(140),
`section_footer` varchar(140),
`position` int(11) not null default 0,
`_user_tags` text,
`_comments` text,
`_assign` text,
`_liked_by` text,

			index modified(modified))
			ENGINE=InnoDB
			ROW_FORMAT=DYNAMIC
			CHARACTER SET=utf8mb4
			COLLATE=utf8mb4_unicode_ci
2023-08-22 15:41:44,415 WARNING database DDL Query made to DB:
create table `tabCost Center Allocation Percentage` (
			name varchar(140) primary key,
			creation datetime(6),
			modified datetime(6),
			modified_by varchar(140),
			owner varchar(140),
			docstatus int(1) not null default '0',
			idx int(8) not null default '0',
			`cost_center` varchar(140),
`percentage` decimal(21,9) not null default 0,
parent varchar(140),
parentfield varchar(140),
parenttype varchar(140),
index parent(parent),

			index modified(modified))
			ENGINE=InnoDB
			ROW_FORMAT=DYNAMIC
			CHARACTER SET=utf8mb4
			COLLATE=utf8mb4_unicode_ci
2023-08-22 15:41:44,672 WARNING database DDL Query made to DB:
create table `tabSales Taxes and Charges Template` (
			name varchar(140) primary key,
			creation datetime(6),
			modified datetime(6),
			modified_by varchar(140),
			owner varchar(140),
			docstatus int(1) not null default '0',
			idx int(8) not null default '0',
			`title` varchar(140),
`is_default` int(1) not null default 0,
`disabled` int(1) not null default 0,
`company` varchar(140),
`tax_category` varchar(140),
`_user_tags` text,
`_comments` text,
`_assign` text,
`_liked_by` text,

			index modified(modified))
			ENGINE=InnoDB
			ROW_FORMAT=DYNAMIC
			CHARACTER SET=utf8mb4
			COLLATE=utf8mb4_unicode_ci
2023-08-22 15:41:44,839 WARNING database DDL Query made to DB:
create table `tabProcess Payment Reconciliation` (
			name varchar(140) primary key,
			creation datetime(6),
			modified datetime(6),
			modified_by varchar(140),
			owner varchar(140),
			docstatus int(1) not null default '0',
			idx int(8) not null default '0',
			`company` varchar(140),
`party_type` varchar(140),
`party` varchar(140),
`receivable_payable_account` varchar(140),
`from_invoice_date` date,
`to_invoice_date` date,
`from_payment_date` date,
`to_payment_date` date,
`cost_center` varchar(140),
`bank_cash_account` varchar(140),
`status` varchar(140),
`error_log` longtext,
`amended_from` varchar(140),
`_user_tags` text,
`_comments` text,
`_assign` text,
`_liked_by` text,

			index modified(modified))
			ENGINE=InnoDB
			ROW_FORMAT=DYNAMIC
			CHARACTER SET=utf8mb4
			COLLATE=utf8mb4_unicode_ci
2023-08-22 15:41:44,971 WARNING database DDL Query made to DB:
create table `tabPayment Gateway Account` (
			name varchar(140) primary key,
			creation datetime(6),
			modified datetime(6),
			modified_by varchar(140),
			owner varchar(140),
			docstatus int(1) not null default '0',
			idx int(8) not null default '0',
			`payment_gateway` varchar(140),
`payment_channel` varchar(140) default 'Email',
`is_default` int(1) not null default 0,
`payment_account` varchar(140),
`currency` varchar(140),
`message` text default 'Please click on the link below to make your payment',
`_user_tags` text,
`_comments` text,
`_assign` text,
`_liked_by` text,

			index modified(modified))
			ENGINE=InnoDB
			ROW_FORMAT=DYNAMIC
			CHARACTER SET=utf8mb4
			COLLATE=utf8mb4_unicode_ci
2023-08-22 15:41:45,126 WARNING database DDL Query made to DB:
create table `tabBank Clearance Detail` (
			name varchar(140) primary key,
			creation datetime(6),
			modified datetime(6),
			modified_by varchar(140),
			owner varchar(140),
			docstatus int(1) not null default '0',
			idx int(8) not null default '0',
			`payment_document` varchar(140),
`payment_entry` varchar(140),
`against_account` varchar(140),
`amount` varchar(140),
`posting_date` date,
`cheque_number` varchar(140),
`cheque_date` date,
`clearance_date` date,
parent varchar(140),
parentfield varchar(140),
parenttype varchar(140),
index parent(parent),

			index modified(modified))
			ENGINE=InnoDB
			ROW_FORMAT=DYNAMIC
			CHARACTER SET=utf8mb4
			COLLATE=utf8mb4_unicode_ci
2023-08-22 15:41:45,254 WARNING database DDL Query made to DB:
create table `tabLedger Merge Accounts` (
			name varchar(140) primary key,
			creation datetime(6),
			modified datetime(6),
			modified_by varchar(140),
			owner varchar(140),
			docstatus int(1) not null default '0',
			idx int(8) not null default '0',
			`account` varchar(140),
`account_name` varchar(140),
`merged` int(1) not null default 0,
parent varchar(140),
parentfield varchar(140),
parenttype varchar(140),
index parent(parent),

			index modified(modified))
			ENGINE=InnoDB
			ROW_FORMAT=DYNAMIC
			CHARACTER SET=utf8mb4
			COLLATE=utf8mb4_unicode_ci
2023-08-22 15:41:45,367 WARNING database DDL Query made to DB:
create table `tabPeriod Closing Voucher` (
			name varchar(140) primary key,
			creation datetime(6),
			modified datetime(6),
			modified_by varchar(140),
			owner varchar(140),
			docstatus int(1) not null default '0',
			idx int(8) not null default '0',
			`transaction_date` date,
`posting_date` date,
`fiscal_year` varchar(140),
`amended_from` varchar(140),
`company` varchar(140),
`closing_account_head` varchar(140),
`remarks` text,
`gle_processing_status` varchar(140),
`error_message` text,
`_user_tags` text,
`_comments` text,
`_assign` text,
`_liked_by` text,

			index modified(modified))
			ENGINE=InnoDB
			ROW_FORMAT=DYNAMIC
			CHARACTER SET=utf8mb4
			COLLATE=utf8mb4_unicode_ci
2023-08-22 15:41:45,511 WARNING database DDL Query made to DB:
create table `tabPOS Opening Entry Detail` (
			name varchar(140) primary key,
			creation datetime(6),
			modified datetime(6),
			modified_by varchar(140),
			owner varchar(140),
			docstatus int(1) not null default '0',
			idx int(8) not null default '0',
			`mode_of_payment` varchar(140),
`opening_amount` decimal(21,9) not null default 0,
parent varchar(140),
parentfield varchar(140),
parenttype varchar(140),
index parent(parent),

			index modified(modified))
			ENGINE=InnoDB
			ROW_FORMAT=DYNAMIC
			CHARACTER SET=utf8mb4
			COLLATE=utf8mb4_unicode_ci
2023-08-22 15:41:45,651 WARNING database DDL Query made to DB:
create table `tabPayment Terms Template` (
			name varchar(140) primary key,
			creation datetime(6),
			modified datetime(6),
			modified_by varchar(140),
			owner varchar(140),
			docstatus int(1) not null default '0',
			idx int(8) not null default '0',
			`template_name` varchar(140) unique,
`allocate_payment_based_on_payment_terms` int(1) not null default 0,
`_user_tags` text,
`_comments` text,
`_assign` text,
`_liked_by` text,

			index modified(modified))
			ENGINE=InnoDB
			ROW_FORMAT=DYNAMIC
			CHARACTER SET=utf8mb4
			COLLATE=utf8mb4_unicode_ci
2023-08-22 15:41:45,819 WARNING database DDL Query made to DB:
create table `tabPOS Customer Group` (
			name varchar(140) primary key,
			creation datetime(6),
			modified datetime(6),
			modified_by varchar(140),
			owner varchar(140),
			docstatus int(1) not null default '0',
			idx int(8) not null default '0',
			`customer_group` varchar(140),
parent varchar(140),
parentfield varchar(140),
parenttype varchar(140),
index parent(parent),

			index modified(modified))
			ENGINE=InnoDB
			ROW_FORMAT=DYNAMIC
			CHARACTER SET=utf8mb4
			COLLATE=utf8mb4_unicode_ci
2023-08-22 15:41:45,958 WARNING database DDL Query made to DB:
create table `tabCash Flow Mapping` (
			name varchar(140) primary key,
			creation datetime(6),
			modified datetime(6),
			modified_by varchar(140),
			owner varchar(140),
			docstatus int(1) not null default '0',
			idx int(8) not null default '0',
			`mapping_name` varchar(140),
`label` varchar(140),
`is_finance_cost` int(1) not null default 0,
`is_working_capital` int(1) not null default 0,
`is_finance_cost_adjustment` int(1) not null default 0,
`is_income_tax_liability` int(1) not null default 0,
`is_income_tax_expense` int(1) not null default 0,
`_user_tags` text,
`_comments` text,
`_assign` text,
`_liked_by` text,

			index modified(modified))
			ENGINE=InnoDB
			ROW_FORMAT=DYNAMIC
			CHARACTER SET=utf8mb4
			COLLATE=utf8mb4_unicode_ci
2023-08-22 15:41:46,112 WARNING database DDL Query made to DB:
create table `tabPayment Schedule` (
			name varchar(140) primary key,
			creation datetime(6),
			modified datetime(6),
			modified_by varchar(140),
			owner varchar(140),
			docstatus int(1) not null default '0',
			idx int(8) not null default '0',
			`payment_term` varchar(140),
`description` text,
`due_date` date,
`mode_of_payment` varchar(140),
`invoice_portion` decimal(21,9) not null default 0,
`discount_type` varchar(140) default 'Percentage',
`discount_date` date,
`discount` decimal(21,9) not null default 0,
`payment_amount` decimal(21,9) not null default 0,
`outstanding` decimal(21,9) not null default 0,
`paid_amount` decimal(21,9) not null default 0,
`discounted_amount` decimal(21,9) not null default 0,
`base_payment_amount` decimal(21,9) not null default 0,
parent varchar(140),
parentfield varchar(140),
parenttype varchar(140),
index parent(parent),

			index modified(modified))
			ENGINE=InnoDB
			ROW_FORMAT=DYNAMIC
			CHARACTER SET=utf8mb4
			COLLATE=utf8mb4_unicode_ci
2023-08-22 15:41:46,269 WARNING database DDL Query made to DB:
create table `tabTax Withholding Account` (
			name varchar(140) primary key,
			creation datetime(6),
			modified datetime(6),
			modified_by varchar(140),
			owner varchar(140),
			docstatus int(1) not null default '0',
			idx int(8) not null default '0',
			`company` varchar(140),
`account` varchar(140),
parent varchar(140),
parentfield varchar(140),
parenttype varchar(140),
index parent(parent),

			index modified(modified))
			ENGINE=InnoDB
			ROW_FORMAT=DYNAMIC
			CHARACTER SET=utf8mb4
			COLLATE=utf8mb4_unicode_ci
2023-08-22 15:41:46,450 WARNING database DDL Query made to DB:
create table `tabCost Center` (
			name varchar(140) primary key,
			creation datetime(6),
			modified datetime(6),
			modified_by varchar(140),
			owner varchar(140),
			docstatus int(1) not null default '0',
			idx int(8) not null default '0',
			`cost_center_name` varchar(140),
`cost_center_number` varchar(140),
`parent_cost_center` varchar(140),
`company` varchar(140),
`is_group` int(1) not null default 0,
`disabled` int(1) not null default 0,
`lft` int(11) not null default 0,
`rgt` int(11) not null default 0,
`old_parent` varchar(140),
`_user_tags` text,
`_comments` text,
`_assign` text,
`_liked_by` text,
index `lft`(`lft`),
index `rgt`(`rgt`),

			index modified(modified))
			ENGINE=InnoDB
			ROW_FORMAT=DYNAMIC
			CHARACTER SET=utf8mb4
			COLLATE=utf8mb4_unicode_ci
2023-08-22 15:41:46,599 WARNING database DDL Query made to DB:
ALTER TABLE `tabCost Center`
				ADD INDEX `lft_rgt_index`(lft, rgt)
2023-08-22 15:41:46,731 WARNING database DDL Query made to DB:
create table `tabPOS Invoice Reference` (
			name varchar(140) primary key,
			creation datetime(6),
			modified datetime(6),
			modified_by varchar(140),
			owner varchar(140),
			docstatus int(1) not null default '0',
			idx int(8) not null default '0',
			`pos_invoice` varchar(140),
`posting_date` date,
`customer` varchar(140),
`grand_total` decimal(21,9) not null default 0,
`is_return` int(1) not null default 0,
`return_against` varchar(140),
parent varchar(140),
parentfield varchar(140),
parenttype varchar(140),
index parent(parent),

			index modified(modified))
			ENGINE=InnoDB
			ROW_FORMAT=DYNAMIC
			CHARACTER SET=utf8mb4
			COLLATE=utf8mb4_unicode_ci
2023-08-22 15:41:46,886 WARNING database DDL Query made to DB:
create table `tabExchange Rate Revaluation` (
			name varchar(140) primary key,
			creation datetime(6),
			modified datetime(6),
			modified_by varchar(140),
			owner varchar(140),
			docstatus int(1) not null default '0',
			idx int(8) not null default '0',
			`posting_date` date,
`rounding_loss_allowance` decimal(21,9) not null default 0.05,
`company` varchar(140),
`gain_loss_unbooked` decimal(21,9) not null default 0,
`gain_loss_booked` decimal(21,9) not null default 0,
`total_gain_loss` decimal(21,9) not null default 0,
`amended_from` varchar(140),
`_user_tags` text,
`_comments` text,
`_assign` text,
`_liked_by` text,

			index modified(modified))
			ENGINE=InnoDB
			ROW_FORMAT=DYNAMIC
			CHARACTER SET=utf8mb4
			COLLATE=utf8mb4_unicode_ci
2023-08-22 15:41:47,058 WARNING database DDL Query made to DB:
create table `tabPSOA Project` (
			name varchar(140) primary key,
			creation datetime(6),
			modified datetime(6),
			modified_by varchar(140),
			owner varchar(140),
			docstatus int(1) not null default '0',
			idx int(8) not null default '0',
			`project_name` varchar(140),
parent varchar(140),
parentfield varchar(140),
parenttype varchar(140),
index parent(parent),

			index modified(modified))
			ENGINE=InnoDB
			ROW_FORMAT=DYNAMIC
			CHARACTER SET=utf8mb4
			COLLATE=utf8mb4_unicode_ci
2023-08-22 15:41:47,210 WARNING database DDL Query made to DB:
create table `tabBank Transaction Mapping` (
			name varchar(140) primary key,
			creation datetime(6),
			modified datetime(6),
			modified_by varchar(140),
			owner varchar(140),
			docstatus int(1) not null default '0',
			idx int(8) not null default '0',
			`bank_transaction_field` varchar(140),
`file_field` varchar(140),
parent varchar(140),
parentfield varchar(140),
parenttype varchar(140),
index parent(parent),

			index modified(modified))
			ENGINE=InnoDB
			ROW_FORMAT=DYNAMIC
			CHARACTER SET=utf8mb4
			COLLATE=utf8mb4_unicode_ci
2023-08-22 15:41:47,378 WARNING database DDL Query made to DB:
create table `tabPromotional Scheme` (
			name varchar(140) primary key,
			creation datetime(6),
			modified datetime(6),
			modified_by varchar(140),
			owner varchar(140),
			docstatus int(1) not null default '0',
			idx int(8) not null default '0',
			`apply_on` varchar(140) default 'Item Code',
`disable` int(1) not null default 0,
`mixed_conditions` int(1) not null default 0,
`is_cumulative` int(1) not null default 0,
`apply_rule_on_other` varchar(140),
`other_item_code` varchar(140),
`other_item_group` varchar(140),
`other_brand` varchar(140),
`selling` int(1) not null default 0,
`buying` int(1) not null default 0,
`applicable_for` varchar(140),
`valid_from` date,
`valid_upto` date,
`company` varchar(140),
`currency` varchar(140),
`_user_tags` text,
`_comments` text,
`_assign` text,
`_liked_by` text,

			index modified(modified))
			ENGINE=InnoDB
			ROW_FORMAT=DYNAMIC
			CHARACTER SET=utf8mb4
			COLLATE=utf8mb4_unicode_ci
2023-08-22 15:41:47,614 WARNING database DDL Query made to DB:
create table `tabPricing Rule` (
			name varchar(140) primary key,
			creation datetime(6),
			modified datetime(6),
			modified_by varchar(140),
			owner varchar(140),
			docstatus int(1) not null default '0',
			idx int(8) not null default '0',
			`naming_series` varchar(140) default 'PRLE-.####',
`title` varchar(140),
`disable` int(1) not null default 0,
`apply_on` varchar(140) default 'Item Code',
`price_or_product_discount` varchar(140),
`warehouse` varchar(140),
`mixed_conditions` int(1) not null default 0,
`is_cumulative` int(1) not null default 0,
`coupon_code_based` int(1) not null default 0,
`apply_rule_on_other` varchar(140),
`other_item_code` varchar(140),
`other_item_group` varchar(140),
`other_brand` varchar(140),
`selling` int(1) not null default 0,
`buying` int(1) not null default 0,
`applicable_for` varchar(140),
`customer` varchar(140),
`customer_group` varchar(140),
`territory` varchar(140),
`sales_partner` varchar(140),
`campaign` varchar(140),
`supplier` varchar(140),
`supplier_group` varchar(140),
`min_qty` decimal(21,9) not null default 0,
`max_qty` decimal(21,9) not null default 0,
`min_amt` decimal(21,9) not null default 0,
`max_amt` decimal(21,9) not null default 0,
`same_item` int(1) not null default 0,
`free_item` varchar(140),
`free_qty` decimal(21,9) not null default 0,
`free_item_rate` decimal(21,9) not null default 0,
`free_item_uom` varchar(140),
`round_free_qty` int(1) not null default 0,
`is_recursive` int(1) not null default 0,
`recurse_for` decimal(21,9) not null default 0,
`apply_recursion_over` decimal(21,9) not null default 0,
`valid_from` date,
`valid_upto` date,
`company` varchar(140),
`currency` varchar(140),
`margin_type` varchar(140) default 'Percentage',
`margin_rate_or_amount` decimal(21,9) not null default 0,
`rate_or_discount` varchar(140) default 'Discount Percentage',
`apply_discount_on` varchar(140) default 'Grand Total',
`rate` decimal(21,9) not null default 0,
`discount_amount` decimal(21,9) not null default 0,
`discount_percentage` decimal(21,9) not null default 0,
`for_price_list` varchar(140),
`threshold_percentage` decimal(21,9) not null default 0,
`priority` varchar(140),
`condition` longtext,
`apply_multiple_pricing_rules` int(1) not null default 0,
`apply_discount_on_rate` int(1) not null default 0,
`validate_applied_rule` int(1) not null default 0,
`rule_description` text,
`promotional_scheme_id` varchar(140),
`promotional_scheme` varchar(140),
`_user_tags` text,
`_comments` text,
`_assign` text,
`_liked_by` text,
index `warehouse`(`warehouse`),

			index modified(modified))
			ENGINE=InnoDB
			ROW_FORMAT=DYNAMIC
			CHARACTER SET=utf8mb4
			COLLATE=utf8mb4_unicode_ci
2023-08-22 15:41:47,786 WARNING database DDL Query made to DB:
create table `tabItem Tax Template Detail` (
			name varchar(140) primary key,
			creation datetime(6),
			modified datetime(6),
			modified_by varchar(140),
			owner varchar(140),
			docstatus int(1) not null default '0',
			idx int(8) not null default '0',
			`tax_type` varchar(140),
`tax_rate` decimal(21,9) not null default 0,
parent varchar(140),
parentfield varchar(140),
parenttype varchar(140),
index parent(parent),

			index modified(modified))
			ENGINE=InnoDB
			ROW_FORMAT=DYNAMIC
			CHARACTER SET=utf8mb4
			COLLATE=utf8mb4_unicode_ci
2023-08-22 15:41:47,950 WARNING database DDL Query made to DB:
create table `tabProcess Payment Reconciliation Log` (
			name varchar(140) primary key,
			creation datetime(6),
			modified datetime(6),
			modified_by varchar(140),
			owner varchar(140),
			docstatus int(1) not null default '0',
			idx int(8) not null default '0',
			`process_pr` varchar(140),
`status` varchar(140),
`allocated` int(1) not null default 0,
`reconciled` int(1) not null default 0,
`total_allocations` int(11) not null default 0,
`reconciled_entries` int(11) not null default 0,
`error_log` longtext,
`_user_tags` text,
`_comments` text,
`_assign` text,
`_liked_by` text,

			index modified(modified))
			ENGINE=InnoDB
			ROW_FORMAT=DYNAMIC
			CHARACTER SET=utf8mb4
			COLLATE=utf8mb4_unicode_ci
2023-08-22 15:41:48,083 WARNING database DDL Query made to DB:
create table `tabAccounting Period` (
			name varchar(140) primary key,
			creation datetime(6),
			modified datetime(6),
			modified_by varchar(140),
			owner varchar(140),
			docstatus int(1) not null default '0',
			idx int(8) not null default '0',
			`period_name` varchar(140),
`start_date` date,
`end_date` date,
`company` varchar(140),
`_user_tags` text,
`_comments` text,
`_assign` text,
`_liked_by` text,

			index modified(modified))
			ENGINE=InnoDB
			ROW_FORMAT=DYNAMIC
			CHARACTER SET=utf8mb4
			COLLATE=utf8mb4_unicode_ci
2023-08-22 15:41:48,239 WARNING database DDL Query made to DB:
create table `tabPOS Closing Entry Taxes` (
			name varchar(140) primary key,
			creation datetime(6),
			modified datetime(6),
			modified_by varchar(140),
			owner varchar(140),
			docstatus int(1) not null default '0',
			idx int(8) not null default '0',
			`account_head` varchar(140),
`rate` decimal(21,9) not null default 0,
`amount` decimal(21,9) not null default 0,
parent varchar(140),
parentfield varchar(140),
parenttype varchar(140),
index parent(parent),

			index modified(modified))
			ENGINE=InnoDB
			ROW_FORMAT=DYNAMIC
			CHARACTER SET=utf8mb4
			COLLATE=utf8mb4_unicode_ci
2023-08-22 15:41:48,415 WARNING database DDL Query made to DB:
create table `tabLoyalty Program` (
			name varchar(140) primary key,
			creation datetime(6),
			modified datetime(6),
			modified_by varchar(140),
			owner varchar(140),
			docstatus int(1) not null default '0',
			idx int(8) not null default '0',
			`loyalty_program_name` varchar(140) unique,
`loyalty_program_type` varchar(140),
`from_date` date,
`to_date` date,
`customer_group` varchar(140),
`customer_territory` varchar(140),
`auto_opt_in` int(1) not null default 0,
`conversion_factor` decimal(21,9) not null default 0,
`expiry_duration` int(11) not null default 0,
`expense_account` varchar(140),
`company` varchar(140),
`cost_center` varchar(140),
`_user_tags` text,
`_comments` text,
`_assign` text,
`_liked_by` text,

			index modified(modified))
			ENGINE=InnoDB
			ROW_FORMAT=DYNAMIC
			CHARACTER SET=utf8mb4
			COLLATE=utf8mb4_unicode_ci
2023-08-22 15:41:48,565 WARNING database DDL Query made to DB:
create table `tabSales Partner Item` (
			name varchar(140) primary key,
			creation datetime(6),
			modified datetime(6),
			modified_by varchar(140),
			owner varchar(140),
			docstatus int(1) not null default '0',
			idx int(8) not null default '0',
			`sales_partner` varchar(140),
parent varchar(140),
parentfield varchar(140),
parenttype varchar(140),
index parent(parent),

			index modified(modified))
			ENGINE=InnoDB
			ROW_FORMAT=DYNAMIC
			CHARACTER SET=utf8mb4
			COLLATE=utf8mb4_unicode_ci
2023-08-22 15:41:48,715 WARNING database DDL Query made to DB:
create table `tabTax Withholding Rate` (
			name varchar(140) primary key,
			creation datetime(6),
			modified datetime(6),
			modified_by varchar(140),
			owner varchar(140),
			docstatus int(1) not null default '0',
			idx int(8) not null default '0',
			`from_date` date,
`to_date` date,
`tax_withholding_rate` decimal(21,9) not null default 0,
`single_threshold` decimal(21,9) not null default 0,
`cumulative_threshold` decimal(21,9) not null default 0,
parent varchar(140),
parentfield varchar(140),
parenttype varchar(140),
index parent(parent),

			index modified(modified))
			ENGINE=InnoDB
			ROW_FORMAT=DYNAMIC
			CHARACTER SET=utf8mb4
			COLLATE=utf8mb4_unicode_ci
2023-08-22 15:41:48,847 WARNING database DDL Query made to DB:
create table `tabSubscription Plan Detail` (
			name varchar(140) primary key,
			creation datetime(6),
			modified datetime(6),
			modified_by varchar(140),
			owner varchar(140),
			docstatus int(1) not null default '0',
			idx int(8) not null default '0',
			`plan` varchar(140),
`qty` int(11) not null default 0,
parent varchar(140),
parentfield varchar(140),
parenttype varchar(140),
index parent(parent),

			index modified(modified))
			ENGINE=InnoDB
			ROW_FORMAT=DYNAMIC
			CHARACTER SET=utf8mb4
			COLLATE=utf8mb4_unicode_ci
2023-08-22 15:41:49,086 WARNING database DDL Query made to DB:
create table `tabSales Invoice Timesheet` (
			name varchar(140) primary key,
			creation datetime(6),
			modified datetime(6),
			modified_by varchar(140),
			owner varchar(140),
			docstatus int(1) not null default '0',
			idx int(8) not null default '0',
			`activity_type` varchar(140),
`description` text,
`from_time` datetime(6),
`to_time` datetime(6),
`billing_hours` decimal(21,9) not null default 0,
`billing_amount` decimal(21,9) not null default 0,
`time_sheet` varchar(140),
`timesheet_detail` varchar(140),
`project_name` varchar(140),
parent varchar(140),
parentfield varchar(140),
parenttype varchar(140),
index parent(parent),

			index modified(modified))
			ENGINE=InnoDB
			ROW_FORMAT=DYNAMIC
			CHARACTER SET=utf8mb4
			COLLATE=utf8mb4_unicode_ci
2023-08-22 15:41:49,234 WARNING database DDL Query made to DB:
create table `tabLedger Merge` (
			name varchar(140) primary key,
			creation datetime(6),
			modified datetime(6),
			modified_by varchar(140),
			owner varchar(140),
			docstatus int(1) not null default '0',
			idx int(8) not null default '0',
			`root_type` varchar(140),
`account` varchar(140),
`account_name` varchar(140),
`company` varchar(140),
`status` varchar(140),
`is_group` int(1) not null default 0,
`_user_tags` text,
`_comments` text,
`_assign` text,
`_liked_by` text,

			index modified(modified))
			ENGINE=InnoDB
			ROW_FORMAT=DYNAMIC
			CHARACTER SET=utf8mb4
			COLLATE=utf8mb4_unicode_ci
2023-08-22 15:41:49,354 WARNING database DDL Query made to DB:
create table `tabFinance Book` (
			name varchar(140) primary key,
			creation datetime(6),
			modified datetime(6),
			modified_by varchar(140),
			owner varchar(140),
			docstatus int(1) not null default '0',
			idx int(8) not null default '0',
			`finance_book_name` varchar(140),
`_user_tags` text,
`_comments` text,
`_assign` text,
`_liked_by` text,
`_seen` text,

			index modified(modified))
			ENGINE=InnoDB
			ROW_FORMAT=DYNAMIC
			CHARACTER SET=utf8mb4
			COLLATE=utf8mb4_unicode_ci
2023-08-22 15:41:49,472 WARNING database DDL Query made to DB:
create table `tabShare Balance` (
			name varchar(140) primary key,
			creation datetime(6),
			modified datetime(6),
			modified_by varchar(140),
			owner varchar(140),
			docstatus int(1) not null default '0',
			idx int(8) not null default '0',
			`share_type` varchar(140),
`from_no` int(11) not null default 0,
`rate` int(11) not null default 0,
`no_of_shares` int(11) not null default 0,
`to_no` int(11) not null default 0,
`amount` int(11) not null default 0,
`is_company` int(1) not null default 0,
`current_state` varchar(140),
parent varchar(140),
parentfield varchar(140),
parenttype varchar(140),
index parent(parent),

			index modified(modified))
			ENGINE=InnoDB
			ROW_FORMAT=DYNAMIC
			CHARACTER SET=utf8mb4
			COLLATE=utf8mb4_unicode_ci
2023-08-22 15:41:49,647 WARNING database DDL Query made to DB:
create table `tabBank Account` (
			name varchar(140) primary key,
			creation datetime(6),
			modified datetime(6),
			modified_by varchar(140),
			owner varchar(140),
			docstatus int(1) not null default '0',
			idx int(8) not null default '0',
			`account_name` varchar(140),
`account` varchar(140),
`bank` varchar(140),
`account_type` varchar(140),
`account_subtype` varchar(140),
`is_default` int(1) not null default 0,
`is_company_account` int(1) not null default 0,
`company` varchar(140),
`party_type` varchar(140),
`party` varchar(140),
`iban` varchar(30),
`branch_code` varchar(140),
`bank_account_no` varchar(30),
`integration_id` varchar(140) unique,
`last_integration_date` date,
`mask` varchar(140),
`_user_tags` text,
`_comments` text,
`_assign` text,
`_liked_by` text,

			index modified(modified))
			ENGINE=InnoDB
			ROW_FORMAT=DYNAMIC
			CHARACTER SET=utf8mb4
			COLLATE=utf8mb4_unicode_ci
2023-08-22 15:41:49,795 WARNING database DDL Query made to DB:
create table `tabSouth Africa VAT Account` (
			name varchar(140) primary key,
			creation datetime(6),
			modified datetime(6),
			modified_by varchar(140),
			owner varchar(140),
			docstatus int(1) not null default '0',
			idx int(8) not null default '0',
			`account` varchar(140),
parent varchar(140),
parentfield varchar(140),
parenttype varchar(140),
index parent(parent),

			index modified(modified))
			ENGINE=InnoDB
			ROW_FORMAT=DYNAMIC
			CHARACTER SET=utf8mb4
			COLLATE=utf8mb4_unicode_ci
2023-08-22 15:41:49,901 WARNING database DDL Query made to DB:
create table `tabShipping Rule Condition` (
			name varchar(140) primary key,
			creation datetime(6),
			modified datetime(6),
			modified_by varchar(140),
			owner varchar(140),
			docstatus int(1) not null default '0',
			idx int(8) not null default '0',
			`from_value` decimal(21,9) not null default 0,
`to_value` decimal(21,9) not null default 0,
`shipping_amount` decimal(21,9) not null default 0,
parent varchar(140),
parentfield varchar(140),
parenttype varchar(140),
index parent(parent),

			index modified(modified))
			ENGINE=InnoDB
			ROW_FORMAT=DYNAMIC
			CHARACTER SET=utf8mb4
			COLLATE=utf8mb4_unicode_ci
2023-08-22 15:41:50,044 WARNING database DDL Query made to DB:
create table `tabBank Account Type` (
			name varchar(140) primary key,
			creation datetime(6),
			modified datetime(6),
			modified_by varchar(140),
			owner varchar(140),
			docstatus int(1) not null default '0',
			idx int(8) not null default '0',
			`account_type` varchar(140) unique,
`_user_tags` text,
`_comments` text,
`_assign` text,
`_liked_by` text,

			index modified(modified))
			ENGINE=InnoDB
			ROW_FORMAT=DYNAMIC
			CHARACTER SET=utf8mb4
			COLLATE=utf8mb4_unicode_ci
2023-08-22 15:41:51,936 WARNING database DDL Query made to DB:
create table `tabOpportunity Lost Reason` (
			name varchar(140) primary key,
			creation datetime(6),
			modified datetime(6),
			modified_by varchar(140),
			owner varchar(140),
			docstatus int(1) not null default '0',
			idx int(8) not null default '0',
			`lost_reason` varchar(140) unique,
`_user_tags` text,
`_comments` text,
`_assign` text,
`_liked_by` text,

			index modified(modified))
			ENGINE=InnoDB
			ROW_FORMAT=DYNAMIC
			CHARACTER SET=utf8mb4
			COLLATE=utf8mb4_unicode_ci
2023-08-22 15:41:52,091 WARNING database DDL Query made to DB:
create table `tabSocial Media Post` (
			name varchar(140) primary key,
			creation datetime(6),
			modified datetime(6),
			modified_by varchar(140),
			owner varchar(140),
			docstatus int(1) not null default '0',
			idx int(8) not null default '0',
			`title` varchar(140),
`campaign_name` varchar(140),
`scheduled_time` datetime(6),
`post_status` varchar(140),
`twitter` int(1) not null default 1,
`linkedin` int(1) not null default 1,
`twitter_post_id` varchar(140),
`linkedin_post_id` varchar(140),
`text` text,
`linkedin_post` text,
`image` text,
`amended_from` varchar(140),
`_user_tags` text,
`_comments` text,
`_assign` text,
`_liked_by` text,

			index modified(modified))
			ENGINE=InnoDB
			ROW_FORMAT=DYNAMIC
			CHARACTER SET=utf8mb4
			COLLATE=utf8mb4_unicode_ci
2023-08-22 15:41:52,267 WARNING database DDL Query made to DB:
create table `tabAppointment Booking Slots` (
			name varchar(140) primary key,
			creation datetime(6),
			modified datetime(6),
			modified_by varchar(140),
			owner varchar(140),
			docstatus int(1) not null default '0',
			idx int(8) not null default '0',
			`day_of_week` varchar(140),
`from_time` time(6),
`to_time` time(6),
parent varchar(140),
parentfield varchar(140),
parenttype varchar(140),
index parent(parent),

			index modified(modified))
			ENGINE=InnoDB
			ROW_FORMAT=DYNAMIC
			CHARACTER SET=utf8mb4
			COLLATE=utf8mb4_unicode_ci
2023-08-22 15:41:52,406 WARNING database DDL Query made to DB:
create table `tabContract Template Fulfilment Terms` (
			name varchar(140) primary key,
			creation datetime(6),
			modified datetime(6),
			modified_by varchar(140),
			owner varchar(140),
			docstatus int(1) not null default '0',
			idx int(8) not null default '0',
			`requirement` varchar(140),
parent varchar(140),
parentfield varchar(140),
parenttype varchar(140),
index parent(parent),

			index modified(modified))
			ENGINE=InnoDB
			ROW_FORMAT=DYNAMIC
			CHARACTER SET=utf8mb4
			COLLATE=utf8mb4_unicode_ci
2023-08-22 15:41:52,545 WARNING database DDL Query made to DB:
create table `tabLost Reason Detail` (
			name varchar(140) primary key,
			creation datetime(6),
			modified datetime(6),
			modified_by varchar(140),
			owner varchar(140),
			docstatus int(1) not null default '0',
			idx int(8) not null default '0',
			`lost_reason` varchar(140),
parent varchar(140),
parentfield varchar(140),
parenttype varchar(140),
index parent(parent),

			index modified(modified))
			ENGINE=InnoDB
			ROW_FORMAT=DYNAMIC
			CHARACTER SET=utf8mb4
			COLLATE=utf8mb4_unicode_ci
2023-08-22 15:41:52,737 WARNING database DDL Query made to DB:
create table `tabOpportunity Lost Reason Detail` (
			name varchar(140) primary key,
			creation datetime(6),
			modified datetime(6),
			modified_by varchar(140),
			owner varchar(140),
			docstatus int(1) not null default '0',
			idx int(8) not null default '0',
			`lost_reason` varchar(140),
parent varchar(140),
parentfield varchar(140),
parenttype varchar(140),
index parent(parent),

			index modified(modified))
			ENGINE=InnoDB
			ROW_FORMAT=DYNAMIC
			CHARACTER SET=utf8mb4
			COLLATE=utf8mb4_unicode_ci
2023-08-22 15:41:52,895 WARNING database DDL Query made to DB:
create table `tabMarket Segment` (
			name varchar(140) primary key,
			creation datetime(6),
			modified datetime(6),
			modified_by varchar(140),
			owner varchar(140),
			docstatus int(1) not null default '0',
			idx int(8) not null default '0',
			`market_segment` varchar(140) unique,
`_user_tags` text,
`_comments` text,
`_assign` text,
`_liked_by` text,

			index modified(modified))
			ENGINE=InnoDB
			ROW_FORMAT=DYNAMIC
			CHARACTER SET=utf8mb4
			COLLATE=utf8mb4_unicode_ci
2023-08-22 15:41:53,057 WARNING database DDL Query made to DB:
create table `tabAvailability Of Slots` (
			name varchar(140) primary key,
			creation datetime(6),
			modified datetime(6),
			modified_by varchar(140),
			owner varchar(140),
			docstatus int(1) not null default '0',
			idx int(8) not null default '0',
			`day_of_week` varchar(140),
`from_time` time(6),
`to_time` time(6),
parent varchar(140),
parentfield varchar(140),
parenttype varchar(140),
index parent(parent),

			index modified(modified))
			ENGINE=InnoDB
			ROW_FORMAT=DYNAMIC
			CHARACTER SET=utf8mb4
			COLLATE=utf8mb4_unicode_ci
2023-08-22 15:41:53,179 WARNING database DDL Query made to DB:
create table `tabLead Source` (
			name varchar(140) primary key,
			creation datetime(6),
			modified datetime(6),
			modified_by varchar(140),
			owner varchar(140),
			docstatus int(1) not null default '0',
			idx int(8) not null default '0',
			`source_name` varchar(140) unique,
`details` longtext,
`_user_tags` text,
`_comments` text,
`_assign` text,
`_liked_by` text,

			index modified(modified))
			ENGINE=InnoDB
			ROW_FORMAT=DYNAMIC
			CHARACTER SET=utf8mb4
			COLLATE=utf8mb4_unicode_ci
2023-08-22 15:41:53,295 WARNING database DDL Query made to DB:
create sequence if not exists crm_note_id_seq nocache nocycle
2023-08-22 15:41:53,356 WARNING database DDL Query made to DB:
create table `tabCRM Note` (
			name bigint primary key,
			creation datetime(6),
			modified datetime(6),
			modified_by varchar(140),
			owner varchar(140),
			docstatus int(1) not null default '0',
			idx int(8) not null default '0',
			`note` longtext,
`added_by` varchar(140),
`added_on` datetime(6),
parent varchar(140),
parentfield varchar(140),
parenttype varchar(140),
index parent(parent),

			index modified(modified))
			ENGINE=InnoDB
			ROW_FORMAT=DYNAMIC
			CHARACTER SET=utf8mb4
			COLLATE=utf8mb4_unicode_ci
2023-08-22 15:41:53,493 WARNING database DDL Query made to DB:
create table `tabSales Stage` (
			name varchar(140) primary key,
			creation datetime(6),
			modified datetime(6),
			modified_by varchar(140),
			owner varchar(140),
			docstatus int(1) not null default '0',
			idx int(8) not null default '0',
			`stage_name` varchar(140) unique,
`_user_tags` text,
`_comments` text,
`_assign` text,
`_liked_by` text,

			index modified(modified))
			ENGINE=InnoDB
			ROW_FORMAT=DYNAMIC
			CHARACTER SET=utf8mb4
			COLLATE=utf8mb4_unicode_ci
2023-08-22 15:41:53,655 WARNING database DDL Query made to DB:
create table `tabContract Fulfilment Checklist` (
			name varchar(140) primary key,
			creation datetime(6),
			modified datetime(6),
			modified_by varchar(140),
			owner varchar(140),
			docstatus int(1) not null default '0',
			idx int(8) not null default '0',
			`fulfilled` int(1) not null default 0,
`requirement` varchar(140),
`notes` text,
`amended_from` varchar(140),
parent varchar(140),
parentfield varchar(140),
parenttype varchar(140),
index parent(parent),

			index modified(modified))
			ENGINE=InnoDB
			ROW_FORMAT=DYNAMIC
			CHARACTER SET=utf8mb4
			COLLATE=utf8mb4_unicode_ci
2023-08-22 15:41:53,888 WARNING database DDL Query made to DB:
create table `tabCampaign Email Schedule` (
			name varchar(140) primary key,
			creation datetime(6),
			modified datetime(6),
			modified_by varchar(140),
			owner varchar(140),
			docstatus int(1) not null default '0',
			idx int(8) not null default '0',
			`email_template` varchar(140),
`send_after_days` int(11) not null default 0,
parent varchar(140),
parentfield varchar(140),
parenttype varchar(140),
index parent(parent),

			index modified(modified))
			ENGINE=InnoDB
			ROW_FORMAT=DYNAMIC
			CHARACTER SET=utf8mb4
			COLLATE=utf8mb4_unicode_ci
2023-08-22 15:41:54,113 WARNING database DDL Query made to DB:
create table `tabProspect Lead` (
			name varchar(140) primary key,
			creation datetime(6),
			modified datetime(6),
			modified_by varchar(140),
			owner varchar(140),
			docstatus int(1) not null default '0',
			idx int(8) not null default '0',
			`lead` varchar(140),
`lead_name` varchar(140),
`email` varchar(140),
`mobile_no` varchar(140),
`lead_owner` varchar(140),
`status` varchar(140),
parent varchar(140),
parentfield varchar(140),
parenttype varchar(140),
index parent(parent),

			index modified(modified))
			ENGINE=InnoDB
			ROW_FORMAT=DYNAMIC
			CHARACTER SET=utf8mb4
			COLLATE=utf8mb4_unicode_ci
2023-08-22 15:41:54,293 WARNING database DDL Query made to DB:
create table `tabProspect` (
			name varchar(140) primary key,
			creation datetime(6),
			modified datetime(6),
			modified_by varchar(140),
			owner varchar(140),
			docstatus int(1) not null default '0',
			idx int(8) not null default '0',
			`company_name` varchar(140) unique,
`customer_group` varchar(140),
`no_of_employees` varchar(140),
`annual_revenue` decimal(21,9) not null default 0,
`market_segment` varchar(140),
`industry` varchar(140),
`territory` varchar(140),
`prospect_owner` varchar(140),
`website` varchar(140),
`fax` varchar(140),
`company` varchar(140),
`_user_tags` text,
`_comments` text,
`_assign` text,
`_liked_by` text,

			index modified(modified))
			ENGINE=InnoDB
			ROW_FORMAT=DYNAMIC
			CHARACTER SET=utf8mb4
			COLLATE=utf8mb4_unicode_ci
2023-08-22 15:41:54,462 WARNING database DDL Query made to DB:
create table `tabAppointment` (
			name varchar(140) primary key,
			creation datetime(6),
			modified datetime(6),
			modified_by varchar(140),
			owner varchar(140),
			docstatus int(1) not null default '0',
			idx int(8) not null default '0',
			`scheduled_time` datetime(6),
`status` varchar(140),
`customer_name` varchar(140),
`customer_phone_number` varchar(140),
`customer_skype` varchar(140),
`customer_email` varchar(140),
`customer_details` longtext,
`appointment_with` varchar(140),
`party` varchar(140),
`calendar_event` varchar(140),
`_user_tags` text,
`_comments` text,
`_assign` text,
`_liked_by` text,

			index modified(modified))
			ENGINE=InnoDB
			ROW_FORMAT=DYNAMIC
			CHARACTER SET=utf8mb4
			COLLATE=utf8mb4_unicode_ci
2023-08-22 15:41:54,633 WARNING database DDL Query made to DB:
create table `tabContract` (
			name varchar(140) primary key,
			creation datetime(6),
			modified datetime(6),
			modified_by varchar(140),
			owner varchar(140),
			docstatus int(1) not null default '0',
			idx int(8) not null default '0',
			`party_type` varchar(140) default 'Customer',
`is_signed` int(1) not null default 0,
`party_name` varchar(140),
`party_user` varchar(140),
`status` varchar(140),
`fulfilment_status` varchar(140),
`start_date` date,
`end_date` date,
`signee` varchar(140),
`signed_on` datetime(6),
`ip_address` varchar(140),
`contract_template` varchar(140),
`contract_terms` longtext,
`requires_fulfilment` int(1) not null default 0,
`fulfilment_deadline` date,
`signee_company` longtext,
`signed_by_company` varchar(140),
`document_type` varchar(140),
`document_name` varchar(140),
`amended_from` varchar(140),
`_user_tags` text,
`_comments` text,
`_assign` text,
`_liked_by` text,
`_seen` text,

			index modified(modified))
			ENGINE=InnoDB
			ROW_FORMAT=DYNAMIC
			CHARACTER SET=utf8mb4
			COLLATE=utf8mb4_unicode_ci
